# .PCD v0.7 - Point Cloud Data file format
VERSION 0.7
FIELDS x y z rgb
SIZE 4 4 4 4
TYPE F F F F
COUNT 1 1 1 1
WIDTH 897
HEIGHT 1
VIEWPOINT 0 0 0 1 0 0 0
POINTS 897
DATA ascii
-0.22317022 0.11079691 1.4970001 5.5317098e-40
-0.2189524 0.11072974 1.4960001 3.6985872e-40
-0.22287884 0.10657258 1.4950001 5.5317098e-40
-0.21910545 0.10672177 1.4970001 5.5317098e-40
-0.14999142 0.10696248 1.4990001 9.2073114e-39
-0.13772577 0.10697658 1.4990001 9.298784e-39
-0.13354704 0.10690967 1.498 9.2073086e-39
-0.22725448 0.10262657 1.4970001 7.3756224e-40
-0.22318354 0.10263303 1.4970001 7.3756224e-40
-0.15398104 0.10279779 1.498 9.0229202e-39
-0.14979608 0.10273392 1.4970001 9.2073086e-39
-0.14581072 0.10280719 1.498 9.5753709e-39
-0.14172478 0.10281171 1.498 9.2065884e-39
-0.13763833 0.10281613 1.498 9.2065884e-39
-0.13346222 0.10275179 1.4970001 9.1143927e-39
-0.12955035 0.10289326 1.4990001 8.7463305e-39
-0.15817572 0.098770216 1.4990001 9.1161962e-39
-0.15388297 0.098643109 1.4970001 9.1158361e-39
-0.14960055 0.098515891 1.4950001 9.2073114e-39
-0.14571789 0.098652147 1.4970001 9.1151158e-39
-0.14163455 0.098656498 1.4970001 9.2073086e-39
-0.13755071 0.098660745 1.4970001 9.2065884e-39
-0.13328807 0.098533079 1.4950001 9.1143927e-39
-0.12929511 0.098602995 1.4960001 9.1140368e-39
-0.12537992 0.098738737 1.498 8.8385261e-39
-0.21883141 0.094347455 1.4950001 1.6591528e-39
-0.20310122 0.094622746 1.4990001 2.6718642e-39
-0.19902061 0.094628267 1.4990001 3.1324822e-39
-0.18232624 0.094460048 1.4960001 4.6972884e-39
-0.17777406 0.094212539 1.4920001 4.973155e-39
-0.17382516 0.094280645 1.493 5.3412173e-39
-0.16998397 0.094411828 1.4950001 5.8940309e-39
-0.16624221 0.094606064 1.498 7.8276196e-39
-0.16226707 0.094673924 1.4990001 8.4722687e-39
-0.15807483 0.094615348 1.498 9.0240006e-39
-0.15378468 0.094493516 1.4960001 9.1158361e-39
-0.1495049 0.09437158 1.4940001 9.2073114e-39
-0.14543018 0.094375856 1.4940001 9.2995071e-39
-0.14144954 0.094443217 1.4950001 8.9307217e-39
-0.13746293 0.094510451 1.4960001 9.2073086e-39
-0.13329205 0.094451256 1.4950001 9.0229202e-39
-0.12921257 0.094455123 1.4950001 9.0229202e-39
-0.12521631 0.094522044 1.4960001 9.0229202e-39
-0.1212951 0.094652064 1.498 8.6541377e-39
-0.2189835 0.090329908 1.4960001 1.4747615e-39
-0.21534464 0.090516657 1.4990001 2.1194107e-39
-0.20718665 0.090527631 1.4990001 3.0406467e-39
-0.20283568 0.090412214 1.4970001 3.1324822e-39
-0.19902599 0.090538293 1.4990001 3.5923814e-39
-0.1908627 0.090548627 1.4990001 4.789484e-39
-0.18628171 0.090312034 1.4950001 5.2490216e-39
-0.18184374 0.090135738 1.4920001 5.4334129e-39
-0.17754065 0.090019748 1.4900001 5.617444e-39
-0.17382999 0.090205759 1.493 5.8940309e-39
-0.169875 0.090270847 1.4940001 6.6305169e-39
-0.16591394 0.090335861 1.4950001 7.4588371e-39
-0.16183862 0.090340354 1.4950001 8.4722687e-39
-0.15765718 0.090284318 1.4940001 8.9325266e-39
-0.15348063 0.090228185 1.493 9.0240006e-39
-0.14930901 0.090171948 1.4920001 9.0240006e-39
-0.14523964 0.090176053 1.4920001 9.0236404e-39
-0.14116973 0.090180047 1.4920001 9.0229174e-39
-0.13709933 0.090183944 1.4920001 9.115113e-39
-0.13302842 0.090187751 1.4920001 9.1151158e-39
-0.12895702 0.090191439 1.4920001 8.9307245e-39
-0.12505254 0.090315945 1.4940001 8.8385289e-39
-0.12113668 0.090440333 1.4960001 8.7463333e-39
-0.1172877 0.0906251 1.4990001 8.4704639e-39
-0.23804823 0.085760139 1.488 9.2338702e-40
-0.23353177 0.085592873 1.485 1.3840092e-39
-0.22995821 0.085771374 1.488 8.3083546e-40
-0.22743036 0.086353354 1.498 4.6240888e-40
-0.21913542 0.086306632 1.4970001 1.1981746e-39
-0.21491911 0.086254314 1.4960001 1.9350194e-39
-0.21113041 0.086374916 1.498 2.7640598e-39
-0.20705372 0.086380117 1.498 3.5016249e-39
-0.20284089 0.086327597 1.4970001 3.684577e-39
-0.19876559 0.086332649 1.4970001 3.7767726e-39
-0.19494972 0.086452968 1.4990001 4.6050927e-39
-0.19061303 0.086342528 1.4970001 5.4341331e-39
-0.18603736 0.086116619 1.493 5.9865867e-39
-0.18148287 0.085890613 1.4890001 6.1706178e-39
-0.17742617 0.08589524 1.4890001 6.2628134e-39
-0.17348532 0.085957475 1.4900001 6.35393e-39
-0.1696521 0.086077325 1.4920001 6.7219923e-39
-0.16558543 0.086081699 1.4920001 7.4588371e-39
-0.1615182 0.086085998 1.4920001 8.1034862e-39
-0.15734483 0.08603248 1.4910001 8.9325252e-39
-0.15317638 0.085978888 1.4900001 9.2091121e-39
-0.14911291 0.085982896 1.4900001 9.1161934e-39
-0.14495155 0.085929111 1.4890001 9.0239978e-39
-0.14088973 0.085932925 1.4890001 9.1158361e-39
-0.13673551 0.085878931 1.488 9.0236404e-39
-0.13267541 0.085882552 1.488 8.7470507e-39
-0.12870127 0.085943803 1.4890001 8.7463305e-39
-0.12480487 0.086062677 1.4910001 8.6541377e-39
-0.12089713 0.086181462 1.493 8.2860726e-39
-0.11697799 0.086300157 1.4950001 8.4704639e-39
-0.11312301 0.086476475 1.498 8.6552125e-39
-0.24209778 0.081696518 1.488 7.3971603e-40
-0.2369339 0.081317618 1.4810001 1.2006942e-39
-0.23259366 0.081213169 1.4790001 1.2006942e-39
-0.22872725 0.081273377 1.48 1.4765608e-39
-0.22576569 0.081663057 1.4870001 1.1077783e-39
-0.22321263 0.082217477 1.4970001 6.4680013e-40
-0.21463697 0.082062975 1.4940001 9.2158776e-40
-0.21043083 0.082013071 1.493 2.4874729e-39
-0.20650589 0.082072966 1.4940001 3.6860161e-39
-0.20257488 0.082132801 1.4950001 3.8689682e-39
-0.19863768 0.082192555 1.4960001 4.605813e-39
-0.19469446 0.082252257 1.4970001 5.1575463e-39
-0.19049042 0.082201973 1.4960001 5.7099998e-39
-0.18604201 0.082041718 1.493 6.4472047e-39
-0.18160932 0.081881374 1.4900001 6.7227126e-39
-0.17743066 0.081830837 1.4890001 6.4461257e-39
-0.17372258 0.082000054 1.4920001 6.3532098e-39
-0.16965643 0.082004316 1.4920001 6.9056633e-39
-0.16558968 0.082008496 1.4920001 7.4581168e-39
-0.16119756 0.081847683 1.4890001 8.5637427e-39
-0.1570323 0.081796713 1.488 9.0247208e-39
-0.15297474 0.081800632 1.488 9.2091121e-39
-0.14891662 0.081804447 1.488 9.1161934e-39
-0.14485799 0.081808187 1.488 9.208389e-39
-0.14070418 0.081756853 1.4870001 8.9314448e-39
-0.13646342 0.081650428 1.485 8.931442e-39
-0.13241142 0.081653893 1.485 8.6548551e-39
-0.12844536 0.081712231 1.4860001 8.5626595e-39
-0.12464078 0.08188048 1.4890001 8.4697436e-39
-0.12065741 0.081938647 1.4900001 8.3782682e-39
-0.11690286 0.08216171 1.4940001 8.3789857e-39
-0.11305051 0.082329698 1.4970001 8.4711813e-39
-0.24664278 0.077789612 1.4910001 5.5532477e-40
-0.24096422 0.077273108 1.4810001 1.2006942e-39
-0.23629923 0.077069551 1.4770001 1.2006942e-39
-0.23212706 0.077022471 1.4760001 1.2928898e-39
-0.2281142 0.077027507 1.4760001 1.2006942e-39
-0.22455615 0.077189058 1.4790001 1.3850854e-39
-0.22142841 0.077507146 1.485 1.0155827e-39
-0.21885289 0.078034006 1.4950001 1.0145037e-39
-0.21464193 0.077986665 1.4940001 8.3011239e-40
-0.20987192 0.07773044 1.4890001 1.5662369e-39
-0.2059578 0.077787355 1.4900001 3.1328423e-39
-0.20203759 0.07784421 1.4910001 4.2377508e-39
-0.1983768 0.078005426 1.4940001 4.9745955e-39
-0.19443893 0.078062154 1.4950001 5.1575463e-39
-0.19036764 0.078066602 1.4950001 6.0787823e-39
-0.18604647 0.077966534 1.493 6.7227126e-39
-0.18173556 0.077866383 1.4910001 7.0914951e-39
-0.1775541 0.077818364 1.4900001 7.0907748e-39
-0.17361034 0.07787472 1.4910001 7.0900546e-39
-0.16954683 0.077878781 1.4910001 7.5503124e-39
-0.16548273 0.077882759 1.4910001 7.9190936e-39
-0.16130978 0.07783442 1.4900001 8.748134e-39
-0.15703616 0.077733755 1.488 9.2091121e-39
-0.15297851 0.077737473 1.488 9.3005875e-39
-0.14882024 0.077688873 1.4870001 9.2083918e-39
-0.14476423 0.077692427 1.4870001 9.1161962e-39
-0.14061306 0.07764364 1.4860001 8.5626623e-39
-0.13646685 0.077594772 1.485 8.7470507e-39
-0.13241474 0.077598058 1.485 8.4704639e-39
-0.12844861 0.077653512 1.4860001 8.2864299e-39
-0.12456021 0.077761143 1.488 8.6541349e-39
-0.12057949 0.077816434 1.4890001 8.4704639e-39
-0.11667109 0.077923894 1.4910001 8.470824e-39
-0.11290236 0.078135796 1.4950001 8.3786284e-39
-0.10903855 0.078295358 1.498 8.2864327e-39
-0.24615164 0.073574908 1.488 1.1077783e-39
-0.24064387 0.073134862 1.4790001 1.4765608e-39
-0.23598424 0.072941944 1.475 1.2928898e-39
-0.23197472 0.072946779 1.475 1.2928884e-39
-0.22765543 0.072852641 1.473 1.385084e-39
-0.22380184 0.072906829 1.4740001 1.1084986e-39
-0.22009119 0.07301043 1.4760001 1.1084986e-39
-0.21768652 0.073559187 1.4870001 8.3119139e-40
-0.21015845 0.073766202 1.4910001 1.1981746e-39
-0.20554766 0.073572777 1.4870001 2.5796686e-39
-0.20177107 0.073676139 1.4890001 3.9622429e-39
-0.19824846 0.073878407 1.493 5.0667912e-39
-0.19457336 0.074031144 1.4960001 5.5256085e-39
-0.19049928 0.074035376 1.4960001 6.0784208e-39
-0.1861753 0.073940545 1.4940001 7.0907748e-39
-0.18198347 0.073895134 1.493 8.0112906e-39
-0.17767732 0.073800139 1.4910001 7.7339834e-39
-0.17373078 0.073853575 1.4920001 8.1027659e-39
-0.16943704 0.073758423 1.4900001 8.6559383e-39
-0.16515358 0.07366319 1.488 9.1161962e-39
-0.16109701 0.073666885 1.488 8.8403296e-39
-0.15703984 0.073670499 1.488 9.3927831e-39
-0.1529821 0.073674031 1.488 9.3005875e-39
-0.14882374 0.073627979 1.4870001 8.9318049e-39
-0.14467029 0.07358183 1.4860001 9.0236404e-39
-0.14052176 0.073535606 1.485 8.8392492e-39
-0.1363782 0.073489293 1.4840001 8.7470507e-39
-0.1324179 0.073541924 1.485 8.4704639e-39
-0.12853812 0.073644027 1.4870001 8.2864299e-39
-0.12456321 0.073696509 1.488 8.6541335e-39
-0.12058239 0.073748901 1.4890001 8.4708212e-39
-0.11667389 0.073850751 1.4910001 8.3786256e-39
-0.11282957 0.074002057 1.4940001 8.2867901e-39
-0.10904121 0.074202813 1.498 8.1945944e-39
-0.24648738 0.06960994 1.4900001 1.2903703e-39
-0.24032323 0.069007277 1.4770001 1.6598731e-39
-0.23550902 0.068778299 1.4720001 1.3850854e-39
-0.23150763 0.068782859 1.4720001 1.2006928e-39
-0.2271964 0.068693914 1.47 1.2928898e-39
-0.22304723 0.068651639 1.4690001 1.4772811e-39
-0.21920101 0.06870278 1.47 1.3850854e-39
-0.21637346 0.069081046 1.478 1.0155827e-39
-0.21508209 0.069973469 1.4970001 8.3119139e-40
-0.21072665 0.069884293 1.4950001 1.1981746e-39
-0.20541374 0.069467805 1.4860001 1.4740413e-39
-0.20150431 0.069518723 1.4870001 3.4090691e-39
-0.19798708 0.069709837 1.4910001 4.7902043e-39
-0.19444744 0.069900915 1.4950001 5.6178041e-39
-0.19050334 0.069951676 1.4960001 6.8159858e-39
-0.18630393 0.069908842 1.4950001 8.0120109e-39
-0.18198742 0.069819182 1.493 8.3800731e-39
-0.17780037 0.069776207 1.4920001 8.840331e-39
-0.1735017 0.06968639 1.4900001 8.840331e-39
-0.16932702 0.069643259 1.4890001 9.3005875e-39
-0.16504623 0.069553278 1.4870001 9.3005875e-39
-0.16099229 0.069556773 1.4870001 9.2083918e-39
-0.15693778 0.069560193 1.4870001 9.3927831e-39
-0.1528827 0.069563538 1.4870001 9.2083918e-39
-0.14872698 0.069520026 1.4860001 8.8396093e-39
-0.14457618 0.069476426 1.485 8.8396093e-39
-0.1404303 0.069432758 1.4840001 8.9314448e-39
-0.13638127 0.06943579 1.4840001 8.6548551e-39
-0.1324209 0.06948553 1.485 8.6548551e-39
-0.12854104 0.069582 1.4870001 8.4704639e-39
-0.12456603 0.069631584 1.488 8.8385261e-39
-0.12058514 0.069681101 1.4890001 8.7463305e-39
-0.11667658 0.06977734 1.4910001 8.2860726e-39
-0.11275664 0.069873504 1.493 8.3782682e-39
-0.10911651 0.07015679 1.4990001 8.1020415e-39
-0.24731915 0.065765776 1.4950001 2.0264934e-39
-0.24081586 0.065110333 1.48 1.5673145e-39
-0.23535347 0.064718753 1.4710001 1.6609521e-39
-0.23104018 0.064635061 1.4690001 1.2006942e-39
-0.2267371 0.064551309 1.4670001 1.2006942e-39
-0.22259599 0.0645115 1.4660001 1.2928898e-39
-0.21875793 0.064559653 1.4670001 1.2928898e-39
-0.21564567 0.064827807 1.473 9.2410729e-40
-0.21408059 0.0655801 1.4900001 1.0155827e-39
-0.20569429 0.065500103 1.488 1.3818456e-39
-0.2015083 0.065460011 1.4870001 2.5793084e-39
-0.19785827 0.065595955 1.4900001 4.789484e-39
-0.19432129 0.065775879 1.4940001 6.7230699e-39
-0.19037987 0.065823682 1.4950001 8.4729876e-39
-0.18618309 0.065783359 1.4940001 8.9325252e-39
-0.18199113 0.065742962 1.493 8.8403296e-39
-0.17768483 0.065658465 1.4910001 9.3924258e-39
-0.17338882 0.065573901 1.4890001 9.576817e-39
-0.16921681 0.065533295 1.488 9.3002301e-39
-0.16493866 0.065448575 1.4860001 9.5771744e-39
-0.16099565 0.065495908 1.4870001 9.1161962e-39
-0.15683553 0.065455087 1.4860001 9.0240006e-39
-0.15288591 0.065502286 1.4870001 9.3002273e-39
-0.14883022 0.065505378 1.4870001 9.1158361e-39
-0.1446766 0.065464333 1.4860001 8.8392492e-39
-0.14052792 0.065423205 1.485 8.8392492e-39
-0.13638419 0.065382011 1.4840001 8.8392464e-39
-0.13242374 0.06542886 1.485 8.931442e-39
-0.12854379 0.065519698 1.4870001 8.7463305e-39
-0.12473617 0.065654531 1.4900001 9.115113e-39
-0.12066874 0.065657094 1.4900001 8.6541349e-39
-0.11675736 0.065747723 1.4920001 8.6541349e-39
-0.11283461 0.06583827 1.4940001 8.6541349e-39
-0.24781978 0.061811596 1.498 2.3030803e-39
-0.24130832 0.061196826 1.483 1.7506268e-39
-0.2355177 0.060746994 1.4720001 1.4765608e-39
-0.23072977 0.060544685 1.4670001 1.2006942e-39
-0.22643207 0.060466122 1.465 1.1084986e-39
-0.2224482 0.060470063 1.465 1.3850854e-39
-0.21861278 0.060515229 1.4660001 1.2928898e-39
-0.21521042 0.0606842 1.47 1.3843652e-39
-0.2127914 0.061142135 1.4810001 1.1077783e-39
-0.20625108 0.061603833 1.4920001 1.4740413e-39
-0.20151208 0.061401077 1.4870001 2.2094469e-39
-0.1977292 0.061487302 1.4890001 4.789484e-39
-0.19393478 0.061573483 1.4910001 7.5528306e-39
-0.1901288 0.061659615 1.493 8.2878761e-39
-0.18618666 0.061704393 1.4940001 8.9325252e-39
-0.18199463 0.061666511 1.493 8.8403296e-39
-0.17756909 0.061545949 1.4900001 8.840331e-39
-0.17315929 0.061425325 1.4870001 9.2091135e-39
-0.16910636 0.061428539 1.4870001 9.2091135e-39
-0.16505288 0.061431706 1.4870001 9.1169179e-39
-0.16099881 0.061434794 1.4870001 9.2080345e-39
-0.1568386 0.061396506 1.4860001 8.7474137e-39
-0.15278612 0.061399475 1.4860001 8.9314448e-39
-0.14873308 0.061402369 1.4860001 8.9314448e-39
-0.14458211 0.061363868 1.485 8.9314448e-39
-0.14062537 0.061407954 1.4860001 8.9314448e-39
-0.13647883 0.061369322 1.485 8.7470536e-39
-0.13251558 0.061413269 1.4860001 9.0236404e-39
-0.12845995 0.061415814 1.4860001 8.7470536e-39
-0.12457125 0.061500955 1.488 8.8385289e-39
-0.12067119 0.061586034 1.4900001 8.8385289e-39
-0.11675975 0.061671045 1.4920001 8.8385289e-39
-0.11298796 0.061838645 1.4960001 8.378271e-39
-0.24180049 0.05726672 1.4860001 1.9342977e-39
-0.23568162 0.056769568 1.473 1.2910905e-39
-0.23057638 0.056503557 1.4660001 1.3843652e-39
-0.22659045 0.056507282 1.4660001 1.2006942e-39
-0.22260383 0.056510974 1.4660001 1.3850854e-39
-0.21861652 0.05651461 1.4660001 1.2006942e-39
-0.21506774 0.056633867 1.4690001 1.3850854e-39
-0.21193299 0.056868751 1.475 1.1077783e-39
-0.21073842 0.057643428 1.4950001 1.2910905e-39
-0.20597823 0.05745415 1.4900001 1.6584325e-39
-0.20165117 0.057380479 1.488 2.2094469e-39
-0.19786549 0.057461016 1.4900001 5.3419375e-39
-0.1940683 0.057541505 1.4920001 7.5521103e-39
-0.19013217 0.057583377 1.493 8.8403296e-39
-0.18606538 0.057586636 1.493 9.2083918e-39
-0.18187602 0.057551261 1.4920001 8.8403296e-39
-0.1775723 0.057477243 1.4900001 8.7481354e-39
-0.17327887 0.057403166 1.488 8.9325266e-39
-0.16910948 0.057367612 1.4870001 8.4715485e-39
-0.1650559 0.057370566 1.4870001 8.7481354e-39
-0.16100179 0.05737346 1.4870001 8.840331e-39
-0.15694706 0.057376292 1.4870001 8.9325252e-39
-0.15278895 0.057340473 1.4860001 8.7474137e-39
-0.14873584 0.057343185 1.4860001 9.0236404e-39
-0.14468218 0.057345826 1.4860001 8.8392492e-39
-0.14072263 0.057386998 1.4870001 8.7474137e-39
-0.13666521 0.057389528 1.4870001 8.7474137e-39
-0.13251808 0.057353377 1.4860001 8.7474137e-39
-0.12854882 0.057394356 1.4870001 8.8392492e-39
-0.12457362 0.057435278 1.488 8.8392492e-39
-0.12067349 0.057514735 1.4900001 8.6548579e-39
-0.11676197 0.057594124 1.4920001 8.6548579e-39
-0.11299013 0.057750653 1.4960001 8.5626623e-39
-0.24799316 0.053674493 1.4990001 1.842458e-39
-0.24164152 0.053176824 1.485 1.9342977e-39
-0.23568529 0.052750681 1.473 1.3836435e-39
-0.23058 0.052503504 1.4660001 1.2921681e-39
-0.22659403 0.052506972 1.4660001 1.1084986e-39
-0.22260734 0.052510403 1.4660001 1.2006942e-39
-0.21862003 0.052513793 1.4660001 1.1084986e-39
-0.2149248 0.052588783 1.4680001 1.3850854e-39
-0.21150537 0.052735399 1.4720001 1.1077783e-39
-0.20975506 0.053311914 1.488 1.3832862e-39
-0.20584333 0.053351004 1.4890001 1.6584325e-39
-0.20151895 0.053282559 1.4870001 1.93286e-39
-0.19786878 0.05339323 1.4900001 5.9873069e-39
-0.19394141 0.053432185 1.4910001 8.1042051e-39
-0.19000801 0.0534711 1.4920001 8.7484899e-39
-0.18594386 0.053474125 1.4920001 9.3005847e-39
-0.18187907 0.053477097 1.4920001 8.7484899e-39
-0.17757529 0.053408328 1.4900001 8.8403296e-39
-0.17328182 0.0533395 1.488 9.0247222e-39
-0.16922608 0.053342305 1.488 8.6559397e-39
-0.16516973 0.053345062 1.488 8.8403296e-39
-0.16111282 0.053347751 1.488 9.0247208e-39
-0.15694976 0.053314537 1.4870001 9.0247208e-39
-0.1527916 0.053281263 1.4860001 9.3927803e-39
-0.14873843 0.053283785 1.4860001 8.6552181e-39
-0.14458735 0.053250384 1.485 8.4708268e-39
-0.14072509 0.053324509 1.4870001 8.1949602e-39
-0.13666761 0.053326853 1.4870001 8.1949616e-39
-0.13260959 0.053329129 1.4870001 8.1027645e-39
-0.12846464 0.053295489 1.4860001 8.2871558e-39
-0.1244921 0.05333351 1.4870001 8.1949602e-39
-0.12059464 0.053407338 1.4890001 8.1027645e-39
-0.11676405 0.053516984 1.4920001 8.2871558e-39
-0.11299215 0.05366243 1.4960001 8.1942399e-39
-0.24197045 0.049191453 1.4870001 1.9342977e-39
-0.23584871 0.048764694 1.4740001 1.3825659e-39
-0.23074064 0.048536364 1.4670001 1.1999739e-39
-0.22675194 0.048539575 1.4670001 1.0163029e-39
-0.22245879 0.048476566 1.465 1.0163029e-39
-0.21847412 0.048479699 1.465 9.2410729e-40
-0.21463518 0.04851589 1.4660001 1.2006942e-39
-0.21107748 0.048618235 1.4690001 1.1077783e-39
-0.2090534 0.04908463 1.483 1.3832862e-39
-0.20529348 0.049153835 1.485 1.5662369e-39
-0.20152204 0.049223006 1.4870001 1.9321397e-39
-0.19787182 0.04932525 1.4900001 7.0929342e-39
-0.1940745 0.049394354 1.4920001 8.2885963e-39
-0.19001095 0.0493972 1.4920001 8.9325252e-39
-0.18582211 0.049366884 1.4910001 8.9318021e-39
-0.18176 0.049369629 1.4910001 8.9318021e-39
-0.17757809 0.049339224 1.4900001 8.8403296e-39
-0.17351747 0.049341869 1.4900001 8.6559383e-39
-0.16922873 0.049278229 1.488 8.4715471e-39
-0.16528337 0.049313899 1.4890001 8.1034848e-39
-0.16122366 0.049316391 1.4890001 8.8403296e-39
-0.15726894 0.04935196 1.4900001 8.6559383e-39
-0.1529997 0.049288101 1.488 8.5640986e-39
-0.14884092 0.049257308 1.4870001 7.6417864e-39
-0.14468706 0.049226463 1.4860001 7.3651995e-39
-0.14082201 0.049294934 1.488 6.9042228e-39
-0.13685365 0.049330235 1.4890001 6.7205518e-39
-0.13279012 0.04933235 1.4890001 6.1680969e-39
-0.12863965 0.049301267 1.488 6.629075e-39
-0.12466159 0.049336404 1.4890001 7.2744444e-39
-0.12075861 0.04940461 1.4910001 7.4581154e-39
-0.11692249 0.049505904 1.4940001 7.5495908e-39
-0.11299402 0.04957401 1.4960001 7.5495908e-39
-0.24213636 0.045164641 1.488 1.8421021e-39
-0.23569186 0.044712383 1.473 1.2903703e-39
-0.23074375 0.044533238 1.4670001 1.1077783e-39
-0.22660042 0.044505831 1.4660001 1.1084986e-39
-0.2224618 0.044478379 1.465 1.1084986e-39
-0.21847712 0.044481259 1.465 1.2006942e-39
-0.21463813 0.044514466 1.4660001 1.2006942e-39
-0.21136777 0.044669107 1.4710001 1.0155827e-39
-0.20919727 0.045066673 1.4840001 1.2910905e-39
-0.20557283 0.045160551 1.4870001 1.3818456e-39
-0.20138933 0.045132905 1.4860001 2.116531e-39
-0.19760898 0.045196339 1.488 7.0007386e-39
-0.19381711 0.045259744 1.4900001 7.9190936e-39
-0.18988629 0.045292728 1.4910001 8.8403296e-39
-0.18582478 0.045295298 1.4910001 9.0239978e-39
-0.18176262 0.045297824 1.4910001 9.0239978e-39
-0.17758065 0.045269921 1.4900001 8.7484899e-39
-0.17340352 0.045241974 1.4890001 8.2875117e-39
-0.16934495 0.045244358 1.4890001 8.1956804e-39
-0.16528578 0.045246698 1.4890001 7.8268979e-39
-0.16144258 0.045309763 1.4910001 7.8268979e-39
-0.1573768 0.045312013 1.4910001 7.6425067e-39
-0.15320762 0.04528382 1.4900001 7.6417864e-39
-0.14894322 0.045225177 1.488 7.5495908e-39
-0.14468922 0.045166485 1.4860001 7.1808096e-39
-0.14082412 0.045229316 1.488 7.088614e-39
-0.13685571 0.045261707 1.4890001 6.0759026e-39
-0.13305967 0.045354843 1.4920001 5.1546666e-39
-0.12907384 0.045387134 1.493 4.694766e-39
-0.12524955 0.045480181 1.4960001 4.5103748e-39
-0.12124641 0.045512374 1.4970001 4.5103748e-39
-0.11723733 0.045544509 1.498 6.0759012e-39
-0.24213931 0.041104589 1.488 1.9342992e-39
-0.23569471 0.040692989 1.473 1.2903703e-39
-0.23058927 0.040502325 1.4660001 1.3832862e-39
-0.22660324 0.040505014 1.4660001 1.0163029e-39
-0.22246458 0.040480036 1.465 1.1084986e-39
-0.21847984 0.040482659 1.465 1.1999739e-39
-0.21478726 0.040540524 1.4670001 1.2921695e-39
-0.2118015 0.040736534 1.4740001 1.1066993e-39
-0.21032768 0.041236561 1.4920001 1.2903703e-39
-0.20585194 0.041156173 1.4890001 1.6577123e-39
-0.2017985 0.041158665 1.4890001 2.5760686e-39
-0.19774434 0.04116112 1.4890001 7.0929342e-39
-0.19394968 0.041218825 1.4910001 7.9190936e-39
-0.18988878 0.041221205 1.4910001 8.3793514e-39
-0.18582721 0.041223545 1.4910001 9.208389e-39
-0.18164311 0.041198198 1.4900001 9.1161934e-39
-0.17746381 0.041172802 1.4890001 8.5640986e-39
-0.1734058 0.041175019 1.4890001 8.5640986e-39
-0.16923347 0.041149542 1.488 7.8268979e-39
-0.16528797 0.041179322 1.4890001 7.2744444e-39
-0.1616613 0.041292038 1.493 7.6432269e-39
-0.15769558 0.041321747 1.4940001 7.8268979e-39
-0.15341535 0.041268438 1.4920001 8.1027645e-39
-0.14904533 0.041187409 1.4890001 8.0105689e-39
-0.14478855 0.041133996 1.4870001 7.733982e-39
-0.14082606 0.041163519 1.488 7.3659212e-39
-0.13685757 0.041192997 1.4890001 6.9056633e-39
-0.13315067 0.041305427 1.493 6.0766229e-39
-0.12942146 0.041417822 1.4970001 5.3397781e-39
-0.24214198 0.037044406 1.488 1.6577123e-39
-0.23585734 0.03669836 1.4740001 1.4747615e-39
-0.23090643 0.036551435 1.4680001 1.1077783e-39
-0.22660577 0.036504056 1.4660001 1.0163029e-39
-0.22261895 0.036506455 1.4660001 8.3191166e-40
-0.21878062 0.036533728 1.4670001 1.2921695e-39
-0.21537538 0.036635686 1.4710001 1.2921695e-39
-0.21252242 0.036837257 1.4790001 1.0145037e-39
-0.21103497 0.037287902 1.4970001 1.3818456e-39
-0.20599262 0.037115827 1.4900001 1.473321e-39
-0.20180084 0.037093163 1.4890001 3.3136337e-39
-0.19774663 0.037095372 1.4890001 6.9081828e-39
-0.19395198 0.037147384 1.4910001 8.2871572e-39
-0.19001836 0.037174445 1.4920001 8.2864355e-39
-0.18582942 0.037151642 1.4910001 8.7470536e-39
-0.18164527 0.037128799 1.4900001 8.7474109e-39
-0.17734675 0.037080992 1.488 8.471903e-39
-0.17317498 0.03705807 1.4870001 8.3793514e-39
-0.16912179 0.03706003 1.4870001 7.7347023e-39
-0.16517897 0.037086871 1.488 6.9049416e-39
-0.16155501 0.037188459 1.4920001 6.9978589e-39
-0.1576975 0.037240159 1.4940001 7.0900546e-39
-0.1537257 0.037266899 1.4950001 7.2737255e-39
-0.1493475 0.037193883 1.4920001 7.2737255e-39
-0.14498508 0.037120815 1.4890001 6.9978589e-39
-0.14082779 0.037097558 1.488 6.9056633e-39
-0.1368593 0.037124135 1.4890001 6.537601e-39
-0.13333072 0.037275326 1.4950001 6.0773432e-39
-0.24198164 0.032961927 1.4870001 1.3811254e-39
-0.23601969 0.032698147 1.475 1.1988949e-39
-0.23138063 0.032611668 1.4710001 1.1077783e-39
-0.22691721 0.032547321 1.4680001 8.3191166e-40
-0.2229249 0.032549459 1.4680001 9.2410729e-40
-0.21893194 0.032551572 1.4680001 1.1999739e-39
-0.21552399 0.032642361 1.4720001 9.2338702e-40
-0.21309936 0.032888368 1.483 1.0137834e-39
-0.2113191 0.033245273 1.4990001 1.473321e-39
-0.20613299 0.033069879 1.4910001 1.5655166e-39
-0.2019385 0.033049706 1.4900001 4.1426741e-39
-0.19761591 0.033007313 1.488 7.368082e-39
-0.19395402 0.033075802 1.4910001 8.2860782e-39
-0.19002038 0.033099901 1.4920001 8.7470536e-39
-0.18608066 0.03312397 1.493 8.6548579e-39
-0.18189104 0.033103641 1.4920001 9.1158361e-39
-0.17758703 0.03306108 1.4900001 8.6552181e-39
-0.17317685 0.032996293 1.4870001 8.1949602e-39
-0.16900986 0.032975845 1.4860001 7.8261777e-39
-0.16518079 0.033021938 1.488 7.0893329e-39
-0.16144848 0.033090197 1.4910001 6.6290764e-39
-0.15769923 0.033158429 1.4940001 6.3524895e-39
-0.15383022 0.033204429 1.4960001 6.4454054e-39
-0.14964943 0.033183813 1.4950001 6.2610142e-39
-0.14527881 0.033118762 1.4920001 6.0773432e-39
-0.14101866 0.033075865 1.4900001 6.35393e-39
-0.13713655 0.033121724 1.4920001 5.617444e-39
-0.13342139 0.033211946 1.4960001 5.3408571e-39
-0.24784479 0.029116044 1.498 1.5655166e-39
-0.24182101 0.028884789 1.4860001 1.4740413e-39
-0.23650183 0.02873124 1.478 1.0155827e-39
-0.23201185 0.02867485 1.475 8.3191166e-40
-0.22753751 0.028618434 1.4720001 8.3191166e-40
-0.22338247 0.028600873 1.4710001 7.3971603e-40
-0.21938136 0.02860273 1.4710001 1.1077783e-39
-0.21581876 0.028662901 1.4740001 8.3119139e-40
-0.21396351 0.028956419 1.4890001 1.0137834e-39
-0.21103907 0.029113811 1.4970001 1.3811254e-39
-0.20599663 0.028979456 1.4900001 2.1158107e-39
-0.20166928 0.028942313 1.488 6.5397604e-39
-0.19775054 0.028963495 1.4890001 7.3673617e-39
-0.19421601 0.02904301 1.493 8.1016869e-39
-0.19027688 0.029064147 1.4940001 8.5626623e-39
-0.18633169 0.029085256 1.4950001 8.7470536e-39
-0.18189275 0.029028514 1.4920001 8.7470536e-39
-0.17746954 0.028971739 1.4890001 8.8392464e-39
-0.17306203 0.028914927 1.4860001 8.5630224e-39
-0.16912524 0.02893592 1.4870001 8.1027645e-39
-0.16507137 0.028937422 1.4870001 7.9183733e-39
-0.1612335 0.028977817 1.4890001 8.0112906e-39
-0.15727854 0.028998716 1.4900001 8.1034862e-39
-0.15362605 0.029077981 1.4940001 6.537601e-39
-0.14965092 0.029098831 1.4950001 5.616365e-39
-0.14557236 0.029100185 1.4950001 5.0646304e-39
-0.14120933 0.029043101 1.4920001 3.2207178e-39
-0.13750556 0.029122252 1.4960001 2.9448511e-39
-0.13369028 0.029181911 1.4990001 3.4058293e-39
-0.24685396 0.024928264 1.4920001 9.2230802e-40
-0.24149738 0.024796307 1.4840001 1.1988949e-39
-0.23666364 0.024714442 1.4790001 9.2338702e-40
-0.23248552 0.024699396 1.478 8.3191166e-40
-0.22815758 0.024667613 1.4760001 8.3191166e-40
-0.22399163 0.02465252 1.475 9.2410729e-40
-0.21997961 0.024654124 1.475 9.2410729e-40
-0.21655256 0.024722571 1.4790001 6.4680013e-40
-0.21511474 0.025025038 1.4970001 7.3791676e-40
-0.21104077 0.025026603 1.4970001 1.473321e-39
-0.20627481 0.024944549 1.4920001 3.8668074e-39
-0.20194198 0.024912626 1.4900001 7.0003785e-39
-0.19801776 0.024930833 1.4910001 7.735424e-39
-0.19421756 0.024965744 1.493 8.4701093e-39
-0.19040583 0.025000641 1.4950001 8.1938798e-39
-0.18633322 0.025002062 1.4950001 8.8392492e-39
-0.18201616 0.024970014 1.493 8.7470507e-39
-0.17759021 0.024921212 1.4900001 8.8392464e-39
-0.17329641 0.0248891 1.488 8.931442e-39
-0.16924037 0.024890421 1.488 8.3786312e-39
-0.16518375 0.024891712 1.488 8.0105689e-39
-0.16112654 0.024892978 1.488 8.1027659e-39
-0.1571743 0.024910947 1.4890001 7.8268993e-39
-0.15352453 0.024979083 1.493 6.3532098e-39
-0.14965217 0.025013737 1.4950001 5.9851475e-39
-0.14576834 0.025048366 1.4970001 5.0642744e-39
-0.14158912 0.025032766 1.4960001 4.0504784e-39
-0.1377825 0.025084075 1.4990001 4.0511987e-39
-0.13369143 0.025085159 1.4990001 4.0511987e-39
-0.2463592 0.02081508 1.4890001 8.3119139e-40
-0.24166165 0.02076059 1.485 9.2338702e-40
-0.23730525 0.020734042 1.483 7.3971603e-40
-0.23311625 0.020721456 1.4820001 7.3971603e-40
-0.22877741 0.020694871 1.48 7.3971603e-40
-0.22475243 0.02069623 1.48 8.3191166e-40
-0.22102505 0.020725548 1.4820001 7.3899576e-40
-0.21816462 0.020838765 1.4900001 8.3011239e-40
-0.21118316 0.020953286 1.498 1.5651565e-39
-0.20655271 0.020898625 1.4940001 3.6831364e-39
-0.20221442 0.020871917 1.4920001 6.8145453e-39
-0.19841756 0.020901145 1.4940001 7.8261777e-39
-0.19460918 0.020930359 1.4960001 8.1020443e-39
-0.19066186 0.020945564 1.4970001 8.378271e-39
-0.18620989 0.020904781 1.4940001 8.7470507e-39
-0.1817736 0.020863971 1.4910001 9.1158333e-39
-0.17747225 0.020837134 1.4890001 9.0236376e-39
-0.17329763 0.020824261 1.488 9.0236404e-39
-0.16924158 0.020825366 1.488 8.7474137e-39
-0.16507393 0.020812454 1.4870001 8.5626651e-39
-0.16101943 0.020813512 1.4870001 8.0105703e-39
-0.15706986 0.020828545 1.488 8.1949616e-39
-0.15342282 0.020885557 1.4920001 7.2737255e-39
-0.14955315 0.020914549 1.4940001 6.3524895e-39
-0.1457694 0.02095752 1.4970001 5.7078404e-39
-0.1416848 0.02095847 1.4970001 5.1553869e-39
-0.13778351 0.020987401 1.4990001 4.879879e-39
-0.13360323 0.020974305 1.498 4.7866043e-39
-0.24685685 0.016785698 1.4920001 6.464442e-40
-0.24231392 0.0167531 1.4890001 9.2303109e-40
-0.23778658 0.016720487 1.4860001 9.2338702e-40
-0.2335894 0.016710358 1.485 9.2338702e-40
-0.22924238 0.016688965 1.483 1.0155827e-39
-0.22551297 0.016712572 1.485 9.2338702e-40
-0.22251765 0.016792445 1.4920001 7.3899576e-40
-0.21132533 0.01687444 1.4990001 2.116531e-39
-0.20696864 0.016852964 1.4970001 5.9865867e-39
-0.20289321 0.016853988 1.4970001 7.6432269e-39
-0.19868429 0.016843738 1.4960001 7.9183733e-39
-0.19474038 0.016855991 1.4970001 8.2864355e-39
-0.19053556 0.016845707 1.4960001 8.7470536e-39
-0.18621095 0.016824147 1.4940001 8.5626595e-39
-0.18189658 0.016802566 1.4920001 8.7470507e-39
-0.17747328 0.016769703 1.4890001 8.6548579e-39
-0.17318217 0.016748086 1.4870001 8.7470536e-39
-0.16901508 0.016737707 1.4860001 8.7470536e-39
-0.16496387 0.016738579 1.4860001 8.6548607e-39
-0.16102037 0.016750695 1.4870001 8.4715471e-39
-0.1570708 0.016762795 1.488 8.0105689e-39
-0.15342371 0.016808677 1.4920001 7.9183733e-39
-0.14955404 0.016832011 1.4940001 7.4581168e-39
-0.14567289 0.016855327 1.4960001 6.721272e-39
-0.1417803 0.016878629 1.498 6.1680983e-39
-0.13769242 0.016879374 1.498 5.7993157e-39
-0.13369322 0.016891371 1.4990001 6.2602939e-39
-0.24394228 0.012774853 1.4990001 7.3863983e-40
-0.23906772 0.012733108 1.4940001 1.0155827e-39
-0.23469147 0.012716919 1.4920001 1.0155827e-39
-0.2306346 0.012717769 1.4920001 1.1066993e-39
-0.22703253 0.012744178 1.4950001 1.0145037e-39
-0.20724604 0.012782329 1.4990001 6.5383213e-39
-0.20302963 0.012774577 1.498 7.6417878e-39
-0.198818 0.012766817 1.4970001 7.9183733e-39
-0.19487132 0.012776096 1.498 8.1942399e-39
-0.19053641 0.012759779 1.4960001 8.1938798e-39
-0.18633644 0.012751978 1.4950001 8.6548551e-39
-0.18189742 0.012727103 1.4920001 8.8385261e-39
-0.17759328 0.012710742 1.4900001 8.8385289e-39
-0.17318295 0.012685835 1.4870001 9.0229202e-39
-0.16912961 0.012686509 1.4870001 8.4704667e-39
-0.16507564 0.012687168 1.4870001 8.4704667e-39
-0.16123767 0.012704879 1.4890001 8.5626595e-39
-0.15717709 0.012705513 1.4890001 8.2864327e-39
-0.15332159 0.012723198 1.4910001 8.1942371e-39
-0.14935453 0.01273234 1.4920001 7.4573951e-39
-0.14547883 0.012750002 1.4940001 7.1808096e-39
-0.14159167 0.012767649 1.4960001 7.088614e-39
-0.13760115 0.01277675 1.4970001 7.6407088e-39
-0.20303027 0.008683865 1.498 7.9183747e-39
-0.19881865 0.0086785881 1.4970001 7.9183733e-39
-0.19461177 0.0086733019 1.4960001 8.1020443e-39
-0.19053705 0.0086738057 1.4960001 8.2860754e-39
-0.18633704 0.0086685019 1.4950001 8.3782682e-39
-0.18201989 0.0086573903 1.493 8.9307217e-39
-0.17783223 0.0086520696 1.4920001 8.4704667e-39
-0.17341647 0.0086351391 1.4890001 8.7470536e-39
-0.16924392 0.008629797 1.488 8.2860754e-39
-0.1650762 0.0086244456 1.4870001 8.378271e-39
-0.16123822 0.0086364858 1.4890001 8.5626595e-39
-0.15728319 0.0086427173 1.4900001 8.4704639e-39
-0.15332212 0.0086489404 1.4910001 8.193877e-39
-0.14935502 0.0086551532 1.4920001 8.0098486e-39
-0.14538193 0.0086613568 1.493 7.9172957e-39
-0.14149749 0.0086733541 1.4950001 7.9172957e-39
-0.1375097 0.0086795399 1.4960001 8.1928022e-39
-0.13360511 0.0086915186 1.498 8.3771934e-39
-0.12960266 0.0086976867 1.4990001 8.9296469e-39
-0.20303071 0.0045931195 1.498 7.8261791e-39
-0.19881903 0.0045903283 1.4970001 8.4708268e-39
-0.19474226 0.0045905993 1.4970001 8.2860754e-39
-0.19066478 0.0045908657 1.4970001 8.5626595e-39
-0.18633743 0.0045849942 1.4950001 8.7463305e-39
-0.18214218 0.0045821839 1.4940001 8.8385261e-39
-0.17807098 0.0045824363 1.4940001 8.6541349e-39
-0.17364974 0.0045734821 1.4910001 8.6541377e-39
-0.16947174 0.0045706574 1.4900001 8.7463333e-39
-0.16529857 0.0045678276 1.4890001 8.8385289e-39
-0.16134684 0.0045711282 1.4900001 8.3775508e-39
-0.1572835 0.0045713559 1.4900001 8.4697464e-39
-0.15332243 0.0045746472 1.4910001 8.561942e-39
-0.14935535 0.0045779343 1.4920001 8.7463333e-39
-0.14547962 0.004584284 1.4940001 8.3771934e-39
-0.14149779 0.0045875609 1.4950001 8.1928022e-39
-0.13741808 0.0045877644 1.4950001 8.2842775e-39
-0.13351621 0.0045940997 1.4970001 9.1133179e-39
-0.12943001 0.004594293 1.4970001 9.1140382e-39
-0.19895199 0.00050238735 1.498 8.2864355e-39
-0.1947424 0.00050208159 1.4970001 8.6548551e-39
-0.19053757 0.0005017753 1.4960001 8.9307217e-39
-0.18621291 0.00050113304 1.4940001 8.7463291e-39
-0.18214235 0.00050116121 1.4940001 8.7463291e-39
-0.1779519 0.00050085329 1.493 8.9307217e-39
-0.17364988 0.00050020945 1.4910001 8.8385261e-39
-0.16947186 0.00049990049 1.4900001 8.561942e-39
-0.16540971 0.00049992651 1.4900001 8.7463333e-39
-0.16134697 0.000499952 1.4900001 8.6541377e-39
-0.15728363 0.00049997697 1.4900001 9.1140368e-39
-0.15321973 0.00050000136 1.4900001 8.9296469e-39
-0.14935546 0.00050069636 1.4920001 9.0218426e-39
-0.14547974 0.00050139084 1.4940001 8.7452557e-39
-0.14159256 0.00050208491 1.4960001 8.4686688e-39
-0.13751011 0.00050210714 1.4960001 8.6523398e-39
-0.13360551 0.0005028001 1.498 9.0211223e-39
-0.12951656 0.00050282117 1.498 9.3891832e-39
-0.19487239 -0.0035888336 1.498 8.8385247e-39
-0.19053748 -0.0035842503 1.4960001 9.022916e-39
-0.18633747 -0.0035820587 1.4950001 9.1143913e-39
-0.18214226 -0.003579864 1.4940001 8.6534132e-39
-0.17795183 -0.0035776645 1.493 9.1143927e-39
-0.1736498 -0.0035730654 1.4910001 8.561942e-39
-0.16947177 -0.0035708584 1.4900001 8.9296455e-39
-0.16563165 -0.0035758372 1.4920001 9.0229202e-39
-0.16167174 -0.0035784163 1.493 8.8381716e-39
-0.1573891 -0.0035738014 1.4910001 8.745976e-39
-0.15332247 -0.0035739755 1.4910001 9.2062338e-39
-0.14935538 -0.0035765432 1.4920001 8.8374513e-39
-0.14547966 -0.0035815041 1.4940001 8.5608644e-39
-0.14159249 -0.003586462 1.4960001 8.0076906e-39
-0.13769387 -0.0035914157 1.498 8.4679485e-39
-0.19908439 -0.0076847449 1.4990001 8.7474081e-39
-0.19461188 -0.0076698167 1.4960001 8.9307203e-39
-0.19040981 -0.0076651354 1.4950001 8.7463291e-39
-0.18621251 -0.0076604448 1.4940001 8.6541335e-39
-0.18214193 -0.0076608746 1.4940001 9.1143927e-39
-0.17795153 -0.0076561687 1.493 9.0221971e-39
-0.17364949 -0.007646326 1.4910001 8.9296455e-39
-0.1694715 -0.0076416037 1.4900001 8.9296455e-39
-0.16552036 -0.0076471297 1.4910001 9.1140368e-39
-0.16156317 -0.0076526483 1.4920001 8.8374499e-39
-0.1574944 -0.0076530301 1.4920001 8.8385289e-39
-0.15342505 -0.007653404 1.4920001 8.8385289e-39
-0.14945522 -0.0076588974 1.493 8.5615847e-39
-0.1454794 -0.0076643843 1.4940001 8.1920805e-39
-0.1414976 -0.0076698642 1.4950001 7.4545155e-39
-0.13778554 -0.0076907258 1.4990001 7.9147747e-39
-0.19908381 -0.011778444 1.4990001 8.8396037e-39
-0.19474141 -0.011763424 1.4970001 8.8396037e-39
-0.19053659 -0.011756247 1.4960001 8.8385247e-39
-0.18621196 -0.0117412 1.4940001 8.5619378e-39
-0.18214138 -0.011741857 1.4940001 9.0229174e-39
-0.17795099 -0.011734644 1.493 8.561942e-39
-0.17364897 -0.011719559 1.4910001 8.8385289e-39
-0.16958472 -0.011720181 1.4910001 9.0218412e-39
-0.16551983 -0.01172079 1.4910001 8.9296455e-39
-0.1615627 -0.011729249 1.4920001 8.9296455e-39
-0.15749392 -0.011729834 1.4920001 8.6541349e-39
-0.15352739 -0.011738268 1.493 8.561942e-39
-0.14945477 -0.011738828 1.493 8.2853551e-39
-0.14547896 -0.011747238 1.4940001 7.5477901e-39
-0.1415918 -0.011763497 1.4960001 7.6389067e-39
-0.13778512 -0.011787609 1.4990001 7.8225791e-39
-0.19474061 -0.015851857 1.4970001 8.6552125e-39
-0.19053581 -0.015842186 1.4960001 8.8385247e-39
-0.18608652 -0.015811319 1.493 8.5619378e-39
-0.18201871 -0.015812205 1.493 8.6541349e-39
-0.17783105 -0.015802484 1.4920001 8.8385261e-39
-0.17364822 -0.015792746 1.4910001 9.0229202e-39
-0.16935652 -0.015772399 1.4890001 9.2073114e-39
-0.16529712 -0.015773218 1.4890001 8.9307245e-39
-0.16145371 -0.015795209 1.4910001 8.9307217e-39
-0.15738769 -0.015795998 1.4910001 8.6541349e-39
-0.15342392 -0.015807362 1.4920001 8.6541349e-39
-0.14955422 -0.015829306 1.4940001 8.3775508e-39
-0.14567308 -0.015851235 1.4960001 7.8250945e-39
-0.14168583 -0.015862551 1.4970001 7.8250945e-39
-0.1376926 -0.015873849 1.498 7.5485104e-39
-0.19499974 -0.019966874 1.4990001 8.4704639e-39
-0.19053479 -0.019928068 1.4960001 8.6541349e-39
-0.18608554 -0.019889239 1.493 8.5619392e-39
-0.18201771 -0.019890351 1.493 8.5619392e-39
-0.1778301 -0.019878127 1.4920001 8.3775508e-39
-0.17376375 -0.0198792 1.4920001 8.6541377e-39
-0.16958304 -0.019866928 1.4910001 8.5626595e-39
-0.16562924 -0.019881286 1.4920001 8.4704639e-39
-0.16166937 -0.019895623 1.493 8.4704639e-39
-0.15759791 -0.019896615 1.493 8.5619392e-39
-0.15352587 -0.019897586 1.493 8.2860726e-39
-0.14945328 -0.019898532 1.493 8.1016841e-39
-0.1455749 -0.019926118 1.4950001 8.1942371e-39
-0.14168504 -0.019953679 1.4970001 8.1020415e-39
-0.1375999 -0.019954562 1.4970001 7.5495908e-39
-0.19499844 -0.024060637 1.4990001 8.4704667e-39
-0.1905335 -0.024013877 1.4960001 8.561942e-39
-0.18633358 -0.023999194 1.4950001 8.6541377e-39
-0.18213841 -0.023984484 1.4940001 8.6541377e-39
-0.17806728 -0.023985803 1.4940001 8.2860754e-39
-0.17399551 -0.0239871 1.4940001 8.2860754e-39
-0.16980939 -0.02397231 1.493 8.4704639e-39
-0.16573912 -0.023973556 1.493 8.3782682e-39
-0.16166827 -0.023974774 1.493 8.3782682e-39
-0.15770239 -0.023992028 1.4940001 8.3789857e-39
-0.15352482 -0.023977136 1.493 8.379706e-39
-0.14945224 -0.023978278 1.493 7.734338e-39
-0.14537911 -0.023979394 1.493 7.1818844e-39
-0.14149475 -0.024012607 1.4950001 6.8138222e-39
-0.13759895 -0.024045795 1.4970001 6.7223468e-39
-0.13369168 -0.024078956 1.4990001 5.6160021e-39
-0.19078673 -0.02813716 1.498 8.6548579e-39
-0.18645673 -0.028101193 1.4960001 8.2860754e-39
-0.18238078 -0.028102765 1.4960001 8.378271e-39
-0.17818505 -0.028085526 1.4950001 8.1938798e-39
-0.17422703 -0.028105827 1.4960001 8.1020415e-39
-0.17014922 -0.028107315 1.4960001 8.1942371e-39
-0.16595981 -0.028089987 1.4950001 8.1016813e-39
-0.16177525 -0.028072625 1.4940001 8.1031205e-39
-0.1577011 -0.028074022 1.4940001 8.1031191e-39
-0.1536264 -0.028075391 1.4940001 7.0896874e-39
-0.14945102 -0.028057929 1.493 5.7996703e-39
-0.14528055 -0.028040443 1.4920001 5.2472168e-39
-0.14139894 -0.028079303 1.4940001 5.0635458e-39
-0.13741396 -0.028099341 1.4950001 5.0642688e-39
-0.1335122 -0.028138138 1.4970001 4.511095e-39
-0.12959902 -0.028176915 1.4990001 4.4188994e-39
-0.19078499 -0.032228243 1.498 8.3786312e-39
-0.18657967 -0.032208562 1.4970001 8.1942399e-39
-0.18237911 -0.03218884 1.4960001 8.1942399e-39
-0.17842178 -0.032212131 1.4970001 8.1942371e-39
-0.17422543 -0.032192346 1.4960001 8.3786284e-39
-0.17003392 -0.032172531 1.4950001 8.1020415e-39
-0.16584726 -0.032152679 1.4940001 8.2875103e-39
-0.16166544 -0.032132786 1.493 7.9194481e-39
-0.15769963 -0.032155909 1.4940001 6.998212e-39
-0.15362495 -0.032157473 1.4940001 5.5245239e-39
-0.14954971 -0.032159004 1.4940001 4.326701e-39
-0.14537655 -0.03213897 1.493 4.511095e-39
-0.1413976 -0.032161955 1.4940001 4.8798776e-39
-0.13741267 -0.032184906 1.4950001 5.2486615e-39
-0.13351093 -0.032229349 1.4970001 4.6032921e-39
-0.12959777 -0.032273754 1.4990001 4.6032921e-39
-0.1909104 -0.036343444 1.4990001 7.9176502e-39
-0.18670237 -0.036321264 1.498 8.0098458e-39
-0.18237722 -0.036274798 1.4960001 8.2867901e-39
-0.17830072 -0.036276791 1.4960001 8.3789857e-39
-0.17410715 -0.036254499 1.4950001 8.3789857e-39
-0.16991839 -0.036232162 1.4940001 8.1031191e-39
-0.16573448 -0.036209781 1.493 8.1953147e-39
-0.16166373 -0.036211621 1.493 6.9974918e-39
-0.15769795 -0.036237676 1.4940001 5.7996689e-39
-0.15382895 -0.036287948 1.4960001 4.7869589e-39
-0.1498484 -0.036313932 1.4970001 4.326701e-39
-0.14576447 -0.03631562 1.4970001 4.0493966e-39
-0.14177462 -0.036341518 1.498 4.1412349e-39
-0.13777882 -0.036367387 1.4990001 4.1412349e-39
-0.13368782 -0.036368947 1.4990001 3.9568437e-39
-0.19090818 -0.040436998 1.4990001 7.5499467e-39
-0.18657556 -0.040385339 1.4970001 7.9176502e-39
-0.1823751 -0.040360615 1.4960001 8.0102032e-39
-0.17829864 -0.040362831 1.4960001 8.1023988e-39
-0.17422155 -0.040364999 1.4960001 7.9187278e-39
-0.16991639 -0.040313169 1.4940001 8.1031191e-39
-0.16573252 -0.04028827 1.493 7.2747989e-39
-0.1616618 -0.040290311 1.493 5.4308863e-39
-0.15769605 -0.040319301 1.4940001 5.3394124e-39
-0.1537243 -0.04034825 1.4950001 5.8011108e-39
-0.14974651 -0.040377155 1.4960001 6.6301512e-39
-0.14586008 -0.040433008 1.498 6.9978589e-39
-0.18657319 -0.044473521 1.4970001 7.6421423e-39
-0.18237275 -0.044446286 1.4960001 8.0109234e-39
-0.17817715 -0.044419009 1.4950001 8.0102032e-39
-0.17410284 -0.044421401 1.4950001 8.0109234e-39
-0.16991416 -0.044394027 1.4940001 7.7343366e-39
-0.16584137 -0.044396326 1.4940001 6.7216252e-39
-0.16176797 -0.044398576 1.4940001 5.7074732e-39
-0.15769398 -0.044400774 1.4940001 6.169173e-39
-0.15351661 -0.044373207 1.493 6.5379556e-39
-0.14954431 -0.044405036 1.4940001 6.7223468e-39
-0.1456634 -0.04446654 1.4960001 6.9056619e-39
-0.18657057 -0.048561532 1.4970001 7.4577511e-39
-0.18237019 -0.048531797 1.4960001 7.5499467e-39
-0.17817464 -0.048502013 1.4950001 7.734338e-39
-0.1739839 -0.04847217 1.4940001 7.6428626e-39
-0.16991174 -0.048474722 1.4940001 7.366996e-39
-0.16572797 -0.048444778 1.493 5.8933064e-39
-0.16187392 -0.048512131 1.4950001 4.7869589e-39
-0.1576917 -0.048482079 1.4940001 5.7089152e-39
-0.15351439 -0.048451975 1.493 5.8933064e-39
-0.14954214 -0.048486728 1.4940001 6.4457599e-39
-0.14566126 -0.04855388 1.4960001 6.8145425e-39
-0.14176893 -0.048620984 1.498 6.2613715e-39
-0.18669234 -0.052684527 1.498 6.629075e-39
-0.18224552 -0.052581951 1.4950001 6.8131019e-39
-0.17805272 -0.052549649 1.4940001 7.1826047e-39
-0.17398122 -0.052552465 1.4940001 6.7223496e-39
-0.1699091 -0.05255523 1.4940001 6.630154e-39
-0.16572538 -0.05252276 1.493 5.525247e-39
-0.16176312 -0.052560598 1.4940001 4.6954835e-39
-0.15758367 -0.052528009 1.493 4.5110922e-39
-0.15351197 -0.052530557 1.493 5.3408529e-39
-0.14953977 -0.052568227 1.4940001 6.1698933e-39
-0.14556161 -0.052605849 1.4950001 6.3542846e-39
-0.14176668 -0.052713785 1.498 5.4323283e-39
