# .PCD v0.7 - Point Cloud Data file format
VERSION 0.7
FIELDS x y z rgb
SIZE 4 4 4 4
TYPE F F F F
COUNT 1 1 1 1
WIDTH 488
HEIGHT 1
VIEWPOINT 0 0 0 1 0 0 0
POINTS 488
DATA ascii
-0.16627689 0.057794958 1.498 9.2080289e-39
-0.16230105 0.057836462 1.4990001 9.0229174e-39
-0.17036334 0.05370079 1.498 8.9307217e-39
-0.16616875 0.053667717 1.4970001 9.115113e-39
-0.16230384 0.053742122 1.4990001 9.115113e-39
-0.18681915 0.049631763 1.4990001 9.2083918e-39
-0.18261333 0.04960141 1.498 9.3002273e-39
-0.17865071 0.049637243 1.4990001 9.2080289e-39
-0.17456554 0.049639907 1.4990001 9.3002245e-39
-0.17025231 0.049576286 1.4970001 9.115113e-39
-0.16617139 0.049578853 1.4970001 9.0229174e-39
-0.16219814 0.049614474 1.498 8.9307217e-39
-0.15811332 0.049616933 1.498 8.8385261e-39
-0.15413076 0.049652465 1.4990001 9.0229174e-39
-0.19090512 0.045535747 1.4990001 8.6559383e-39
-0.18657257 0.045477573 1.4970001 9.2083918e-39
-0.18261595 0.045510486 1.498 9.2083918e-39
-0.17865327 0.045543361 1.4990001 9.1158333e-39
-0.17445162 0.045515429 1.498 9.1158333e-39
-0.17036851 0.045517828 1.498 8.931442e-39
-0.16617382 0.045489796 1.4970001 8.931442e-39
-0.16209225 0.045492098 1.4970001 8.7470507e-39
-0.15801011 0.045494359 1.4970001 8.931442e-39
-0.15392737 0.045496564 1.4970001 8.7474081e-39
-0.19090763 0.041442376 1.4990001 8.8403296e-39
-0.18657501 0.041389436 1.4970001 9.4849759e-39
-0.18249647 0.041391745 1.4970001 9.1161934e-39
-0.17853646 0.041421663 1.498 9.0239978e-39
-0.17457038 0.041451547 1.4990001 9.1158333e-39
-0.17025706 0.041398432 1.4970001 8.931442e-39
-0.16617602 0.04140057 1.4970001 8.8392464e-39
-0.16198614 0.041375011 1.4960001 8.8392464e-39
-0.15780114 0.041349407 1.4950001 8.9317993e-39
-0.15382664 0.041379075 1.4960001 8.7474081e-39
-0.15004632 0.041464023 1.4990001 8.7474081e-39
-0.20315613 0.037342276 1.4990001 8.471903e-39
-0.19907469 0.0373445 1.4990001 8.6562943e-39
-0.19473247 0.037296873 1.4970001 8.9328811e-39
-0.19052778 0.037274107 1.4960001 9.0250768e-39
-0.18645258 0.037276227 1.4960001 8.9328797e-39
-0.18249865 0.037303228 1.4970001 9.117271e-39
-0.17841943 0.037305277 1.4970001 8.8399638e-39
-0.1742231 0.037282359 1.4960001 8.9321595e-39
-0.17014538 0.03728433 1.4960001 8.8392464e-39
-0.16606703 0.037286263 1.4960001 8.931442e-39
-0.16187985 0.037263237 1.4950001 9.115113e-39
-0.15780306 0.037265085 1.4950001 9.2995043e-39
-0.1537257 0.037266899 1.4950001 9.2995029e-39
-0.14974788 0.037293594 1.4960001 9.023995e-39
-0.27188933 0.033145037 1.4960001 4.6240888e-40
-0.26693311 0.033036657 1.4910001 1.1077783e-39
-0.26270857 0.033016868 1.4900001 1.3843652e-39
-0.25935668 0.033107866 1.4940001 1.1077783e-39
-0.20710075 0.033225138 1.498 8.3797074e-39
-0.20288719 0.033204973 1.4970001 8.7484899e-39
-0.19881117 0.033206955 1.4970001 9.0250768e-39
-0.19460444 0.033186723 1.4960001 9.1172724e-39
-0.19052981 0.033188641 1.4960001 8.7484899e-39
-0.18657921 0.033212718 1.4970001 8.8406841e-39
-0.18237868 0.033192389 1.4960001 9.117271e-39
-0.17818296 0.033172023 1.4950001 8.8399638e-39
-0.17399208 0.033151619 1.4940001 8.7474109e-39
-0.16991974 0.033153374 1.4940001 8.931442e-39
-0.16584684 0.033155095 1.4940001 8.9314448e-39
-0.16188161 0.03317897 1.4950001 9.2995043e-39
-0.15780479 0.033180624 1.4950001 9.2073086e-39
-0.15372738 0.033182234 1.4950001 9.4838941e-39
-0.14974952 0.033206005 1.4960001 9.2083862e-39
-0.14596041 0.033274144 1.4990001 8.9317993e-39
-0.27116463 0.028987072 1.4920001 9.2338702e-40
-0.26621923 0.028892027 1.4870001 1.1999739e-39
-0.26165289 0.028835811 1.4840001 1.3843652e-39
-0.25779647 0.028857302 1.485 1.2928898e-39
-0.25461748 0.028956512 1.4900001 1.0163029e-39
-0.20724091 0.029154498 1.4990001 8.9318049e-39
-0.20288907 0.029117368 1.4970001 9.3005875e-39
-0.19881301 0.029119108 1.4970001 8.8396093e-39
-0.19447619 0.029081918 1.4950001 9.1161962e-39
-0.1905316 0.029103056 1.4960001 9.2083918e-39
-0.18645632 0.02910471 1.4960001 8.8406855e-39
-0.18225849 0.029086882 1.4950001 8.8406855e-39
-0.17794628 0.029049568 1.493 8.9321595e-39
-0.1737608 0.029031677 1.4920001 8.7474109e-39
-0.16969392 0.029033216 1.4920001 8.9318049e-39
-0.16573742 0.029054182 1.493 8.7474137e-39
-0.1617749 0.029075123 1.4940001 9.1161962e-39
-0.15770076 0.029076565 1.4940001 8.9318049e-39
-0.15362605 0.029077981 1.4940001 8.8396065e-39
-0.14955081 0.029079366 1.4940001 8.8396065e-39
-0.14586447 0.029158577 1.498 8.5630196e-39
-0.27503163 0.024899114 1.4910001 9.2338702e-40
-0.27025786 0.024834136 1.4870001 1.1084986e-39
-0.2656841 0.024785833 1.4840001 1.2006942e-39
-0.26112586 0.024737505 1.4810001 1.1084986e-39
-0.25710398 0.024739275 1.4810001 1.2006942e-39
-0.25342315 0.024774434 1.483 1.2928898e-39
-0.2509079 0.024926536 1.4920001 9.2410729e-40
-0.23970392 0.025031935 1.498 1.3818456e-39
-0.23578878 0.025050335 1.4990001 1.9342992e-39
-0.20724258 0.025061581 1.4990001 8.9318049e-39
-0.20289069 0.025029665 1.4970001 8.8396093e-39
-0.19881462 0.025031159 1.4970001 8.7474137e-39
-0.19460782 0.025015911 1.4960001 8.9318049e-39
-0.19066055 0.025034087 1.4970001 8.5637427e-39
-0.18658249 0.025035508 1.4970001 8.7484899e-39
-0.18226001 0.025003465 1.4950001 8.7484899e-39
-0.17806695 0.024988115 1.4940001 8.9328811e-39
-0.17399518 0.024989462 1.4940001 8.6562943e-39
-0.16980906 0.024974057 1.493 8.748134e-39
-0.16584982 0.024992082 1.4940001 8.4715471e-39
-0.16188455 0.025010085 1.4950001 8.0105689e-39
-0.15780765 0.025011329 1.4950001 7.9183733e-39
-0.1537302 0.025012545 1.4950001 8.1949602e-39
-0.14975226 0.025030468 1.4960001 8.2871558e-39
-0.27447993 0.020790704 1.488 1.1999739e-39
-0.2695325 0.020722361 1.483 1.0163029e-39
-0.26514864 0.020695917 1.4810001 1.1084986e-39
-0.2611275 0.020697409 1.4810001 1.1084986e-39
-0.25675842 0.020670937 1.4790001 1.2006942e-39
-0.2529121 0.020686375 1.48 1.2006942e-39
-0.24922779 0.020715784 1.4820001 1.3850854e-39
-0.24652466 0.020829061 1.4900001 1.0155827e-39
-0.23970552 0.020943759 1.498 1.2903703e-39
-0.23547572 0.020931188 1.4970001 1.5655166e-39
-0.23155983 0.020946566 1.498 2.8548163e-39
-0.20724399 0.020968568 1.4990001 8.8396093e-39
-0.20302759 0.020955851 1.498 8.6559383e-39
-0.198816 0.020943116 1.4970001 8.748134e-39
-0.19473928 0.020944349 1.4970001 8.8403296e-39
-0.19066186 0.020945564 1.4970001 8.748134e-39
-0.18658382 0.02094676 1.4970001 8.748134e-39
-0.18238316 0.020933937 1.4960001 9.3016637e-39
-0.17806821 0.020907104 1.4940001 8.6562943e-39
-0.1739964 0.020908231 1.4940001 7.7343366e-39
-0.16992401 0.020909339 1.4940001 7.2740801e-39
-0.16596203 0.020924425 1.4950001 6.8131019e-39
-0.16199398 0.020939484 1.4960001 6.4446837e-39
-0.15801989 0.020954525 1.4970001 5.7081977e-39
-0.15383413 0.02094155 1.4960001 5.4323311e-39
-0.15005367 0.020984543 1.4990001 5.708918e-39
-0.2744813 0.016732326 1.488 1.1988949e-39
-0.26935214 0.016666079 1.4820001 1.3843638e-39
-0.26497096 0.016644796 1.48 1.1084986e-39
-0.26112884 0.016657243 1.4810001 1.2006942e-39
-0.25641251 0.016613442 1.4770001 1.1084986e-39
-0.25222987 0.016603369 1.4760001 1.2006942e-39
-0.24805188 0.016593285 1.475 1.2928898e-39
-0.24503686 0.016661942 1.4810001 9.2410729e-40
-0.235477 0.016845392 1.4970001 1.3818456e-39
-0.23156108 0.016857767 1.498 2.3016425e-39
-0.20710689 0.016864222 1.498 9.0240006e-39
-0.20275767 0.016842728 1.4960001 8.8406855e-39
-0.19868429 0.016843738 1.4960001 8.6562943e-39
-0.19487047 0.01686725 1.498 8.1027645e-39
-0.19091766 0.01687949 1.4990001 8.6559383e-39
-0.18262807 0.016870137 1.498 8.4715471e-39
-0.17830759 0.01684854 1.4960001 8.0109248e-39
-0.17411388 0.016838189 1.4950001 7.2733598e-39
-0.17003873 0.01683908 1.4950001 6.9052976e-39
-0.16618502 0.016862486 1.4970001 6.8131019e-39
-0.16221149 0.016874606 1.498 6.169173e-39
-0.15823196 0.016886713 1.4990001 5.6159993e-39
-0.27558917 0.012724996 1.4940001 1.8428224e-39
-0.26971671 0.012640749 1.4840001 1.2914479e-39
-0.264972 0.012607593 1.48 1.2921695e-39
-0.26077726 0.012599984 1.4790001 1.2006942e-39
-0.25623992 0.012575324 1.4760001 1.0163029e-39
-0.25206 0.012567695 1.475 1.2006942e-39
-0.24788475 0.012560057 1.4740001 1.2928898e-39
-0.24470697 0.012603539 1.4790001 1.2928898e-39
-0.2431286 0.012732242 1.4940001 7.3971603e-40
-0.23156206 0.012768911 1.498 1.4729609e-39
-0.20683128 0.012756747 1.4960001 8.5640986e-39
-0.20275857 0.012757522 1.4960001 8.3797074e-39
-0.19868518 0.012758288 1.4960001 8.1031205e-39
-0.19500141 0.012784625 1.4990001 8.0112892e-39
-0.19091851 0.012785367 1.4990001 7.6425067e-39
-0.1826289 0.012778284 1.498 7.2737241e-39
-0.17854679 0.012778987 1.498 7.3659198e-39
-0.17423113 0.012762615 1.4960001 7.4584713e-39
-0.17003953 0.012754762 1.4950001 7.550667e-39
-0.16607474 0.012763956 1.4960001 7.4584713e-39
-0.16210397 0.012773139 1.4970001 7.2748003e-39
-0.27062622 0.0086218389 1.4890001 1.6584311e-39
-0.26497278 0.0085703498 1.48 1.1999725e-39
-0.26042536 0.0085535944 1.4770001 1.1077783e-39
-0.2558935 0.0085368315 1.4740001 1.2006942e-39
-0.25171897 0.008531644 1.473 1.1084986e-39
-0.24771732 0.0085322438 1.473 1.2006942e-39
-0.24421133 0.0085502164 1.4760001 1.5687564e-39
-0.24182743 0.008608737 1.4860001 1.0155827e-39
-0.23171736 0.0086858068 1.4990001 1.7495478e-39
-0.21118593 0.0086828005 1.498 8.8396093e-39
-0.20669366 0.0086659472 1.4950001 8.5640986e-39
-0.20248814 0.0086606769 1.4940001 8.3797074e-39
-0.19855303 0.0086669931 1.4950001 8.2875117e-39
-0.19487195 0.0086848969 1.498 7.6425067e-39
-0.17458111 0.0086931316 1.4990001 7.7350582e-39
-0.17015383 0.0086761946 1.4960001 7.7350582e-39
-0.1660753 0.0086766444 1.4960001 7.6425067e-39
-0.16210452 0.008682888 1.4970001 7.3662757e-39
-0.27099022 0.0045664371 1.4910001 1.8428224e-39
-0.26497325 0.0045330776 1.48 1.3836435e-39
-0.26024953 0.0045211525 1.4760001 1.2921695e-39
-0.25606754 0.0045184121 1.475 1.0163029e-39
-0.25189033 0.0045156698 1.4740001 1.0163029e-39
-0.24771778 0.0045129233 1.473 1.0163029e-39
-0.24404633 0.0045193648 1.475 1.2928898e-39
-0.24052599 0.0045288689 1.478 9.2338702e-40
-0.23938891 0.0045843367 1.4960001 1.0155827e-39
-0.23140866 0.0045880168 1.4970001 1.5651565e-39
-0.21118633 0.0045925565 1.498 8.7474109e-39
-0.20683233 0.0045867083 1.4960001 8.5640986e-39
-0.20262411 0.0045839213 1.4950001 8.471903e-39
-0.19855341 0.0045841956 1.4950001 8.2875117e-39
-0.19448209 0.0045844661 1.4950001 7.9190936e-39
-0.19066478 0.0045908657 1.4970001 7.0893329e-39
-0.17026791 0.0045921304 1.4970001 6.6297967e-39
-0.16607566 0.0045893015 1.4960001 6.5383213e-39
-0.16221312 0.0045956708 1.498 6.35393e-39
-0.2717174 0.00050077873 1.4950001 1.6584311e-39
-0.26533151 0.0004964603 1.4820001 1.1070566e-39
-0.26024967 0.00049448601 1.4760001 1.1999739e-39
-0.25606772 0.00049418636 1.475 9.2410729e-40
-0.2520614 0.0004942214 1.475 1.0163029e-39
-0.24788612 0.00049392105 1.4740001 1.1084986e-39
-0.24404649 0.00049429055 1.475 1.0163029e-39
-0.24036342 0.00049499486 1.4770001 9.2338702e-40
-0.23874903 0.00050005596 1.4920001 1.0155827e-39
-0.23125422 0.00050146389 1.4960001 1.6577123e-39
-0.22733758 0.00050183217 1.4970001 3.7760523e-39
-0.22356391 0.00050253532 1.4990001 6.8149082e-39
-0.21118648 0.00050229562 1.498 8.6552153e-39
-0.20669425 0.0005013207 1.4950001 8.9321595e-39
-0.20235316 0.00050068041 1.493 8.4711813e-39
-0.19828793 0.00050071051 1.493 8.1953161e-39
-0.19422203 0.00050074002 1.493 7.8265336e-39
-0.19041021 0.00050143991 1.4950001 7.4581154e-39
-0.18671146 0.00050247478 1.498 6.7212706e-39
-0.27244428 -0.0035867032 1.4990001 1.5662369e-39
-0.26604754 -0.0035558559 1.4860001 9.2230802e-40
-0.26077855 -0.0035393613 1.4790001 1.1999739e-39
-0.25641486 -0.0035348283 1.4770001 1.1084986e-39
-0.25240308 -0.0035350786 1.4770001 1.0163029e-39
-0.24805419 -0.0035305398 1.475 9.2410729e-40
-0.24421185 -0.0035331794 1.4760001 1.1084986e-39
-0.24052604 -0.0035382104 1.478 9.2410729e-40
-0.23890892 -0.0035743627 1.493 1.1077783e-39
-0.23125412 -0.0035820259 1.4960001 1.5655166e-39
-0.22718559 -0.003582262 1.4960001 3.1306829e-39
-0.22356379 -0.0035896793 1.4990001 6.9071038e-39
-0.20683238 -0.0035833982 1.4960001 8.6548551e-39
-0.20248862 -0.0035788249 1.4940001 8.8396037e-39
-0.19828784 -0.0035766442 1.493 8.2867901e-39
-0.19409187 -0.0035744593 1.4920001 8.1031191e-39
-0.19002803 -0.003574667 1.4920001 7.6425067e-39
-0.1864621 -0.0035844545 1.4960001 7.36664e-39
-0.18262991 -0.0035894485 1.498 8.0120094e-39
-0.17866698 -0.0035920423 1.4990001 7.1829704e-39
-0.26676327 -0.0076299836 1.4900001 1.0137834e-39
-0.26095447 -0.007579322 1.48 1.2910905e-39
-0.25624084 -0.0075593786 1.4760001 1.0163029e-39
-0.25240269 -0.0075650369 1.4770001 9.2410589e-40
-0.24822199 -0.0075604459 1.4760001 1.0163029e-39
-0.24454236 -0.0075712171 1.478 1.0163029e-39
-0.24085113 -0.0075819846 1.48 1.0163029e-39
-0.23874854 -0.0076439814 1.4920001 1.0155827e-39
-0.23140833 -0.007670626 1.4970001 1.6577123e-39
-0.22733709 -0.0076711318 1.4970001 3.0392076e-39
-0.22356342 -0.0076818801 1.4990001 6.5394003e-39
-0.2066938 -0.0076633128 1.4950001 8.7470507e-39
-0.20248827 -0.0076586525 1.4940001 8.8392464e-39
-0.1982875 -0.0076539852 1.493 8.4711813e-39
-0.19409153 -0.0076493095 1.4920001 8.6555726e-39
-0.18990034 -0.0076446263 1.4910001 8.471903e-39
-0.18621251 -0.0076604448 1.4940001 7.9194495e-39
-0.18226385 -0.0076660025 1.4950001 8.0116451e-39
-0.17842831 -0.007676681 1.4970001 7.6432269e-39
-0.26712066 -0.011710212 1.4920001 1.1981746e-39
-0.26113012 -0.011624715 1.4810001 1.1988949e-39
-0.25641376 -0.011594147 1.4770001 1.0163029e-39
-0.25240201 -0.011594969 1.4770001 8.3191166e-40
-0.24822131 -0.011587934 1.4760001 1.0163029e-39
-0.24437626 -0.011596591 1.4770001 1.0163029e-39
-0.24052501 -0.011605241 1.478 8.3191166e-40
-0.2389079 -0.011723819 1.493 8.3119139e-40
-0.20696971 -0.011761309 1.4970001 8.4704639e-39
-0.20275876 -0.011754166 1.4960001 8.8385289e-39
-0.19828694 -0.011731299 1.493 8.931442e-39
-0.19409098 -0.011724134 1.4920001 8.8392464e-39
-0.18989977 -0.011716954 1.4910001 9.0239978e-39
-0.18596268 -0.011725482 1.4920001 8.5640986e-39
-0.18214138 -0.011741857 1.4940001 8.3797074e-39
-0.17830858 -0.011758223 1.4960001 8.2875117e-39
-0.17458069 -0.011782441 1.4990001 7.9183733e-39
-0.26676157 -0.015759008 1.4900001 1.0137834e-39
-0.26112911 -0.015664946 1.4810001 1.2910905e-39
-0.25658637 -0.015634332 1.478 6.475204e-40
-0.2527428 -0.01564602 1.4790001 9.2410729e-40
-0.2485567 -0.015636539 1.478 7.3971603e-40
-0.24470624 -0.015648207 1.4790001 9.2410729e-40
-0.24084954 -0.015659863 1.48 7.3971603e-40
-0.23954704 -0.015840821 1.4970001 8.3119139e-40
-0.20710713 -0.015859596 1.498 8.7463305e-39
-0.20275792 -0.015839385 1.4960001 9.0229202e-39
-0.19855171 -0.015829744 1.4950001 8.8392464e-39
-0.19422026 -0.015809501 1.493 9.0236376e-39
-0.19015372 -0.015810417 1.493 9.1158333e-39
-0.1859619 -0.015800729 1.4920001 8.9318021e-39
-0.18201871 -0.015812205 1.493 8.5640972e-39
-0.17830782 -0.01584485 1.4960001 8.1953161e-39
-0.17446347 -0.015866891 1.498 8.0105689e-39
-0.1704939 -0.015878325 1.4990001 7.9183733e-39
-0.26676029 -0.019823447 1.4900001 9.2230802e-40
-0.26148048 -0.019731738 1.483 1.1077783e-39
-0.25727955 -0.019719841 1.4820001 1.0155827e-39
-0.25342512 -0.019734547 1.483 1.0155827e-39
-0.24905996 -0.019709313 1.4810001 1.0155827e-39
-0.2450359 -0.019710686 1.4810001 1.0155827e-39
-0.24117382 -0.019725351 1.4820001 8.3119139e-40
-0.20275685 -0.019924546 1.4960001 8.7470536e-39
-0.19841787 -0.019899102 1.4940001 8.7470536e-39
-0.19421922 -0.019886952 1.493 8.4704667e-39
-0.19028006 -0.019901427 1.4940001 8.5626623e-39
-0.18608554 -0.019889239 1.493 8.6541377e-39
-0.18201771 -0.019890351 1.493 8.6541349e-39
-0.17806847 -0.019904772 1.4940001 8.7463333e-39
-0.17434607 -0.019945819 1.4970001 8.7463333e-39
-0.17037921 -0.019960199 1.498 8.4697464e-39
-0.26729578 -0.023935918 1.493 9.2230802e-40
-0.2621842 -0.023841443 1.4870001 9.2338702e-40
-0.25797242 -0.023827111 1.4860001 8.3119139e-40
-0.25393623 -0.023828797 1.4860001 1.0155827e-39
-0.24956298 -0.023798395 1.4840001 9.2338702e-40
-0.2456962 -0.023816084 1.485 1.1999739e-39
-0.24231145 -0.023881879 1.4890001 7.3899576e-40
-0.20275553 -0.024009636 1.4960001 8.4704667e-39
-0.19854936 -0.023995021 1.4950001 8.6548579e-39
-0.19421792 -0.023964331 1.493 8.6545006e-39
-0.19027878 -0.023981772 1.4940001 8.8385289e-39
-0.18608429 -0.023967085 1.493 8.7463333e-39
-0.18213841 -0.023984484 1.4940001 8.4697464e-39
-0.17806728 -0.023985803 1.4940001 8.9296455e-39
-0.1743449 -0.024035266 1.4970001 8.8374499e-39
-0.17037807 -0.024052594 1.498 8.560863e-39
-0.267652 -0.028045915 1.4950001 9.2338702e-40
-0.26271132 -0.027954131 1.4900001 9.2338702e-40
-0.258665 -0.027956123 1.4900001 1.0155827e-39
-0.25444707 -0.027939338 1.4890001 9.2338702e-40
-0.25023383 -0.02792253 1.488 9.2338702e-40
-0.24635623 -0.027943237 1.4890001 1.1077783e-39
-0.2432861 -0.028057763 1.4950001 7.3899576e-40
-0.20302501 -0.028132193 1.498 8.7470507e-39
-0.19854783 -0.028077535 1.4950001 8.5626623e-39
-0.19421639 -0.02804162 1.493 8.378271e-39
-0.19027729 -0.028062029 1.4940001 8.5615847e-39
-0.18608281 -0.02804484 1.493 8.8381716e-39
-0.18213697 -0.028065195 1.4940001 9.2062324e-39
-0.17794666 -0.028047953 1.493 8.9296455e-39
-0.1743435 -0.028124616 1.4970001 9.2055122e-39
-0.17049043 -0.028163681 1.4990001 9.2055122e-39
-0.2681869 -0.032188222 1.498 8.3119139e-40
-0.26359075 -0.032126069 1.4950001 1.0155827e-39
-0.25953087 -0.032128364 1.4950001 9.2338702e-40
-0.25512847 -0.032087643 1.493 8.3119139e-40
-0.25107259 -0.032089893 1.493 9.2338702e-40
-0.24734685 -0.03213511 1.4950001 1.0155827e-39
-0.20315874 -0.032244068 1.4990001 8.5626595e-39
-0.19881165 -0.032202967 1.4970001 8.8385289e-39
-0.19434474 -0.032140326 1.4940001 8.9307245e-39
-0.19040293 -0.032163702 1.4950001 8.6537803e-39
-0.18633041 -0.032165531 1.4950001 8.9303672e-39
-0.18237911 -0.03218884 1.4960001 9.0218426e-39
-0.17818341 -0.032169096 1.4950001 9.2062338e-39
-0.17422543 -0.032192346 1.4960001 9.3899034e-39
-0.17037511 -0.03223709 1.498 9.3899034e-39
-0.1664023 -0.032260284 1.4990001 9.4820991e-39
-0.26429352 -0.036300965 1.4990001 9.2338702e-40
-0.26022282 -0.03630355 1.4990001 8.3119139e-40
-0.25598049 -0.036281891 1.498 8.3119139e-40
-0.19894244 -0.036314968 1.498 8.8378058e-39
-0.19473298 -0.036292858 1.4970001 9.0218412e-39
-0.19065568 -0.036294956 1.4970001 8.7452543e-39
-0.1864531 -0.036272772 1.4960001 8.9296455e-39
-0.18249914 -0.036299046 1.4970001 9.4828193e-39
-0.17830072 -0.036276791 1.4960001 9.0218412e-39
-0.1742236 -0.036278747 1.4960001 9.0211209e-39
-0.17025959 -0.036304917 1.4970001 9.3899034e-39
-0.16640054 -0.036355302 1.4990001 9.3899034e-39
-0.19894016 -0.040405318 1.498 9.0221971e-39
-0.19486083 -0.040407687 1.498 8.7456102e-39
-0.19065347 -0.040383048 1.4970001 8.6530587e-39
-0.18657556 -0.040385339 1.4970001 9.0218412e-39
-0.18249701 -0.040387597 1.4970001 9.3906237e-39
-0.178537 -0.040416792 1.498 9.1140368e-39
-0.17433801 -0.040391985 1.4970001 9.2065884e-39
-0.17014386 -0.040367134 1.4960001 9.0221971e-39
-0.16617654 -0.04039621 1.4970001 8.8378058e-39
-0.16220321 -0.040425241 1.498 8.3768277e-39
-0.19893764 -0.044495527 1.498 9.115113e-39
-0.19498843 -0.044527836 1.4990001 8.9300015e-39
-0.19065104 -0.044470996 1.4970001 9.1151158e-39
-0.18644856 -0.044443808 1.4960001 9.3906237e-39
-0.18237275 -0.044446286 1.4960001 9.2995071e-39
-0.17853469 -0.044508144 1.498 9.575015e-39
-0.1744522 -0.044510536 1.498 8.9300015e-39
-0.17014162 -0.044453457 1.4960001 8.9300001e-39
-0.16595238 -0.044426046 1.4950001 8.9300015e-39
-0.1620928 -0.04448773 1.4970001 8.0087654e-39
-0.1989349 -0.048585571 1.498 9.115113e-39
-0.19485568 -0.048588417 1.498 8.8385261e-39
-0.19039369 -0.048493903 1.4950001 9.115113e-39
-0.18632132 -0.048496656 1.4950001 9.2995071e-39
-0.18224829 -0.048499357 1.4950001 9.115113e-39
-0.178413 -0.048566896 1.4970001 9.1151116e-39
-0.17433327 -0.048569504 1.4970001 8.5630168e-39
-0.17002547 -0.048507169 1.4950001 8.4708184e-39
-0.16583899 -0.048477229 1.4940001 8.6555726e-39
-0.16187392 -0.048512131 1.4950001 7.9187278e-39
-0.15821946 -0.048644338 1.4990001 8.2875117e-39
-0.19906473 -0.0527106 1.4990001 8.4697436e-39
-0.19485272 -0.052678518 1.498 9.115113e-39
-0.19051816 -0.052611213 1.4960001 9.0229202e-39
-0.18631847 -0.052579019 1.4950001 8.7470536e-39
-0.18224552 -0.052581951 1.4950001 8.7470507e-39
-0.17829108 -0.052619994 1.4960001 8.6548551e-39
-0.17433058 -0.052657992 1.4970001 8.1945944e-39
-0.17002285 -0.052590411 1.4950001 8.5640972e-39
-0.16583639 -0.052557942 1.4940001 8.379706e-39
-0.16197966 -0.052630957 1.4960001 6.8123803e-39
-0.15821697 -0.05273911 1.4990001 6.536515e-39
-0.19906147 -0.056803007 1.4990001 8.6541349e-39
-0.19484954 -0.056768425 1.498 8.7463305e-39
-0.19064239 -0.056733795 1.4970001 8.5626595e-39
-0.18644002 -0.056699101 1.4960001 8.2860726e-39
-0.1822425 -0.056664355 1.4950001 8.3782682e-39
-0.17816894 -0.05666744 1.4950001 8.1942371e-39
-0.17409478 -0.056670479 1.4950001 8.5640986e-39
-0.17002001 -0.05667346 1.4950001 7.8272525e-39
-0.1660556 -0.056714281 1.4960001 5.8007479e-39
-0.16219346 -0.056792971 1.498 4.8791545e-39
-0.19497621 -0.060898762 1.4990001 8.5626595e-39
-0.19076638 -0.060861632 1.498 8.193877e-39
-0.18643676 -0.060783803 1.4960001 8.3782682e-39
-0.18236116 -0.060787179 1.4960001 8.2867901e-39
-0.17828496 -0.060790494 1.4960001 8.4711813e-39
-0.17444101 -0.060875017 1.498 7.9194495e-39
-0.17035811 -0.060878213 1.498 6.2606484e-39
-0.16638562 -0.060921989 1.4990001 4.8791545e-39
-0.19089013 -0.064994708 1.4990001 8.4704639e-39
-0.18668246 -0.064955004 1.498 8.4704639e-39
-0.18247961 -0.064915247 1.4970001 8.2875103e-39
-0.17863907 -0.065005511 1.4990001 8.2875103e-39
-0.17455412 -0.065008983 1.4990001 6.9982135e-39
-0.1662714 -0.064972349 1.498 4.6947632e-39
-0.16229568 -0.065018997 1.4990001 5.0628255e-39
-0.15810281 -0.064978823 1.498 5.4308877e-39
-0.18667872 -0.069044709 1.498 8.3786284e-39
-0.18271972 -0.069094628 1.4990001 8.2875103e-39
-0.16626801 -0.06906312 1.498 6.169173e-39
-0.16218406 -0.069066584 1.498 6.9060178e-39
-0.15809953 -0.069069982 1.498 7.3662757e-39
-0.15411726 -0.069119416 1.4990001 7.5499467e-39
-0.18679939 -0.073182993 1.4990001 7.9187278e-39
-0.18259394 -0.073138207 1.498 8.1031191e-39
-0.17863163 -0.073190995 1.4990001 7.7350568e-39
-0.17443037 -0.07314606 1.498 6.260647e-39
-0.1704614 -0.073198721 1.4990001 6.260647e-39
-0.16615342 -0.073104799 1.4970001 6.8138208e-39
-0.16218053 -0.073157296 1.498 7.6428612e-39
-0.15820163 -0.073209733 1.4990001 7.2740787e-39
-0.19087805 -0.077270575 1.4990001 7.8265336e-39
-0.18667059 -0.077223353 1.498 7.8265322e-39
-0.18246792 -0.077176049 1.4970001 7.8272525e-39
-0.17827009 -0.077128671 1.4960001 7.4584699e-39
-0.17419355 -0.077132776 1.4960001 6.4461173e-39
-0.17034379 -0.077239908 1.498 5.3397697e-39
-0.16637158 -0.077295437 1.4990001 5.8007479e-39
-0.16228507 -0.077299297 1.4990001 6.9060164e-39
-0.19087356 -0.081361994 1.4990001 7.7350568e-39
-0.18679079 -0.081366539 1.4990001 7.9194481e-39
-0.18258548 -0.081316732 1.498 7.7357771e-39
-0.17850417 -0.08132112 1.498 7.4602692e-39
-0.17430583 -0.081271157 1.4970001 5.7099928e-39
-0.17045343 -0.081383966 1.4990001 4.7880365e-39
-0.16636756 -0.081388116 1.4990001 4.6962024e-39
-0.16217288 -0.081337884 1.498 5.8018311e-39
-0.15819414 -0.081396163 1.4990001 6.5379556e-39
