# .PCD v0.7 - Point Cloud Data file format
VERSION 0.7
FIELDS x y z rgb
SIZE 4 4 4 4
TYPE F F F F
COUNT 1 1 1 1
WIDTH 494
HEIGHT 1
VIEWPOINT 0 0 0 1 0 0 0
POINTS 494
DATA ascii
-0.094989985 0.25562537 1.103 2.4878219e-39
-0.089106098 0.26491663 1.143 2.3034362e-39
-0.070072994 0.26356226 1.1370001 2.2105245e-39
-0.061108492 0.26496834 1.143 1.841742e-39
-0.051319782 0.26266322 1.133 2.1186848e-39
-0.041953057 0.26197863 1.13 2.211235e-39
-0.033039723 0.26453778 1.141 3.0402712e-39
-0.02369638 0.26431268 1.1400001 4.1473292e-39
-0.09449435 0.24532954 1.097 2.3027201e-39
-0.08943814 0.25653249 1.1470001 1.6577123e-39
-0.079584152 0.25498599 1.1400001 2.2108846e-39
-0.070212416 0.2547794 1.1390001 1.7495478e-39
-0.060053162 0.25121534 1.123 2.0261332e-39
-0.050788093 0.25078079 1.1210001 2.4863883e-39
-0.042185728 0.25414741 1.136 2.7633297e-39
-0.032786846 0.2532613 1.1320001 3.3161378e-39
-0.023556449 0.25349164 1.133 4.6987037e-39
-0.014422666 0.25573352 1.143 5.1593189e-39
-0.10469603 0.23919965 1.11 1.4733196e-39
-0.097789355 0.24460958 1.1350001 2.1183289e-39
-0.08719641 0.24096622 1.118 1.7499065e-39
-0.078345321 0.24184699 1.1220001 1.8421035e-39
-0.069488585 0.24294157 1.1270001 1.841742e-39
-0.060601883 0.24424985 1.133 2.1176058e-39
-0.05079988 0.24167566 1.1210001 2.6704166e-39
-0.041564118 0.24125516 1.1190001 3.3154175e-39
-0.032475851 0.24169502 1.1210001 4.7891029e-39
-0.023437213 0.2429952 1.1270001 6.5411701e-39
-0.014274611 0.24386208 1.131 8.2925186e-39
-0.0050595673 0.24537367 1.138 8.7531422e-39
0.0043297326 0.25033298 1.161 8.3847268e-39
0.023312248 0.25032648 1.161 1.8327473e-38
-0.11326608 0.22912006 1.105 2.1186848e-39
-0.10651129 0.23412031 1.1290001 2.2105245e-39
-0.097552337 0.23476464 1.1320001 2.1183289e-39
-0.087683879 0.23312584 1.1240001 2.1186848e-39
-0.078362927 0.23272946 1.1220001 2.7615333e-39
-0.069195978 0.23274602 1.1220001 2.8540848e-39
-0.059706215 0.2315159 1.1160001 3.8675137e-39
-0.050675571 0.23194338 1.118 3.5912841e-39
-0.04153657 0.23195393 1.118 6.1709569e-39
-0.032454409 0.2323774 1.12 9.2112491e-39
-0.023401063 0.23342127 1.125 1.1054807e-38
-0.014252692 0.23425558 1.1290001 1.0963686e-38
-0.0050518545 0.23571025 1.136 1.0872214e-38
0.0042934413 0.23882271 1.151 1.1238478e-38
0.013657697 0.23799068 1.1470001 1.0950724e-38
0.02327751 0.24047627 1.159 1.5929304e-38
0.032810315 0.24088474 1.161 1.5284643e-38
-0.12109042 0.21792135 1.0940001 2.0268479e-39
-0.11359768 0.22073478 1.108 2.0268493e-39
-0.10549618 0.22275029 1.118 2.578584e-39
-0.096366815 0.22277197 1.118 2.3934752e-39
-0.087313011 0.22299118 1.1190001 2.0254102e-39
-0.077611879 0.22141497 1.1110001 2.6696936e-39
-0.068964705 0.22282627 1.118 3.7742363e-39
-0.05955914 0.22184403 1.113 1.169838e-38
-0.05050572 0.22205572 1.1140001 1.0224315e-38
-0.0413974 0.22206609 1.1140001 1.0132119e-38
-0.032374892 0.22267251 1.1170001 1.2805448e-38
-0.023323216 0.22347623 1.1210001 1.3911441e-38
-0.014192837 0.22407858 1.1240001 1.4833752e-38
-0.0050441222 0.22607437 1.1340001 1.2254791e-38
0.0042645829 0.22786871 1.143 1.1516492e-38
0.013637021 0.22826537 1.1450001 1.3999305e-38
0.023262769 0.23085283 1.1580001 1.5746347e-38
0.032902636 0.23204254 1.164 1.2422274e-38
0.042493943 0.23243266 1.166 1.0762034e-38
-0.12742576 0.21991439 1.151 1.933939e-39
-0.1157749 0.21573578 1.1290001 2.2098042e-39
-0.10646233 0.21556783 1.128 2.3019971e-39
-0.096818522 0.21463372 1.123 2.1176058e-39
-0.087253861 0.21369769 1.118 2.4860226e-39
-0.077768564 0.21275969 1.113 4.0522623e-39
-0.068424612 0.21201093 1.1090001 4.9691753e-39
-0.059465308 0.21240731 1.1110001 1.4367013e-38
-0.050562333 0.21318418 1.115 1.4737945e-38
-0.041258007 0.21223836 1.11 1.234086e-38
-0.032237232 0.21262898 1.1120001 1.4647557e-38
-0.023224434 0.21340004 1.1160001 1.6676944e-38
-0.01415816 0.21436033 1.1210001 1.7506345e-38
-0.0050096735 0.21531861 1.126 1.6216686e-38
0.0042431587 0.21742217 1.1370001 1.299055e-38
0.013652023 0.21914117 1.146 1.5110693e-38
0.023227839 0.22104923 1.156 1.8885319e-38
0.033051416 0.22352877 1.169 1.4085746e-38
0.042612839 0.22352035 1.169 1.2050599e-38
-0.12983014 0.19973098 1.092 1.9342935e-39
-0.12711936 0.20999981 1.148 2.0261332e-39
-0.11559355 0.20618264 1.1270001 2.4863883e-39
-0.10554045 0.2045586 1.118 2.3941927e-39
-0.096321486 0.2043965 1.1170001 2.5778637e-39
-0.086647898 0.20313466 1.11 2.9459245e-39
-0.077435806 0.20278592 1.108 4.694029e-39
-0.068377681 0.20280148 1.108 1.2248664e-38
-0.059371177 0.20299822 1.1090001 1.3814914e-38
-0.050301272 0.20301008 1.1090001 1.5012734e-38
-0.041304272 0.20338614 1.1110001 1.5475157e-38
-0.032215357 0.20339414 1.1110001 1.5843939e-38
-0.023146324 0.20358332 1.1120001 1.7042127e-38
-0.014123407 0.20468588 1.118 1.7780412e-38
-0.0050063366 0.20596954 1.125 1.8058075e-38
0.0042067748 0.20633581 1.1270001 1.7321953e-38
0.013559732 0.20834775 1.138 1.6582948e-38
0.023072205 0.21017456 1.148 1.8242469e-38
0.03263453 0.21126693 1.154 1.8428661e-38
0.042439919 0.21308944 1.164 1.2421185e-38
0.052229121 0.21417753 1.1700001 1.7501676e-38
-0.12315746 0.19436155 1.1120001 2.0264892e-39
-0.11592451 0.19753143 1.13 1.8417434e-39
-0.10556191 0.19545574 1.118 1.7499079e-39
-0.09591005 0.1944271 1.1120001 2.0250556e-39
-0.086353593 0.19339658 1.1060001 3.2210709e-39
-0.077452041 0.19376321 1.108 7.7339596e-39
-0.068392135 0.19377838 1.108 1.2155024e-38
-0.059223168 0.19344194 1.1060001 1.3261742e-38
-0.050175942 0.19345349 1.1060001 1.455248e-38
-0.041127227 0.19346318 1.1060001 1.5843584e-38
-0.032106303 0.19364586 1.107 1.5197139e-38
-0.023151338 0.19452645 1.1120001 1.6580428e-38
-0.014101204 0.1952302 1.1160001 1.6675143e-38
-0.0049851695 0.19593199 1.12 1.7319434e-38
0.0042039556 0.1969817 1.126 1.8426136e-38
0.01349117 0.19802946 1.1320001 1.842686e-38
0.022856086 0.19890024 1.1370001 1.9441733e-38
0.032443583 0.20064364 1.1470001 1.8336105e-38
0.042303186 0.20290972 1.1600001 1.9810158e-38
0.051838461 0.20307466 1.161 1.823995e-38
-0.12550752 0.18880354 1.133 1.6577109e-39
-0.11574201 0.18799345 1.128 1.7495478e-39
-0.10586617 0.1868483 1.1210001 1.5655166e-39
-0.096101813 0.18570134 1.1140001 1.8417434e-39
-0.086839646 0.18538611 1.1120001 3.5898534e-39
-0.077467866 0.18473569 1.108 9.851578e-39
-0.068282746 0.18441698 1.1060001 1.2155027e-38
-0.05912834 0.18409647 1.1040001 1.2708566e-38
-0.050141033 0.18427442 1.105 1.3630168e-38
-0.041098658 0.18428382 1.105 1.4828357e-38
-0.032113064 0.18462496 1.107 1.4830153e-38
-0.023052106 0.18463069 1.107 1.5476966e-38
-0.014040994 0.18530171 1.1110001 1.6123416e-38
-0.00497287 0.18630444 1.1170001 1.5939019e-38
0.0041899085 0.18713847 1.1220001 1.6490028e-38
0.013386738 0.18730342 1.123 1.7319435e-38
0.022740271 0.18863395 1.131 1.870381e-38
0.032139208 0.18946217 1.136 1.8613052e-38
0.041728444 0.19078873 1.1440001 1.8613052e-38
0.051670652 0.19294712 1.1570001 1.8705968e-38
-0.12619588 0.18052147 1.1390001 2.0261332e-39
-0.11566143 0.17864199 1.1270001 1.2885738e-39
-0.10711452 0.17977263 1.1340001 1.5651607e-39
-0.096638232 0.17757252 1.12 1.8406644e-39
-0.086934842 0.17648031 1.113 4.2330536e-39
-0.077553183 0.17586204 1.1090001 1.0496226e-38
-0.068419911 0.17571779 1.108 1.1049045e-38
-0.059300955 0.1755718 1.107 1.1601499e-38
-0.050196573 0.17542407 1.1060001 1.2339785e-38
-0.041069828 0.17511599 1.1040001 1.4091867e-38
-0.032148644 0.1757578 1.108 1.4368453e-38
-0.023119316 0.17608063 1.11 1.4370253e-38
-0.014119725 0.17719483 1.1170001 1.5662433e-38
-0.0049827974 0.17751402 1.1190001 1.3263902e-38
0.0041795648 0.17751411 1.1190001 1.4829066e-38
0.013365641 0.17782959 1.1210001 1.6766616e-38
0.022704715 0.17909503 1.1290001 1.8151715e-38
0.032060888 0.17972404 1.133 1.8796006e-38
0.04151804 0.18050976 1.138 1.8336105e-38
0.051234439 0.18192804 1.1470001 1.8520858e-38
0.06136084 0.18413736 1.161 1.8429381e-38
-0.12788108 0.17349012 1.154 2.1183289e-39
-0.11907009 0.17441444 1.1600001 1.7499079e-39
-0.10836267 0.17248039 1.1470001 1.5655166e-39
-0.097260572 0.16949166 1.1270001 2.392755e-39
-0.08718577 0.1678544 1.1160001 8.0112766e-39
-0.077638015 0.16696741 1.11 9.9430492e-39
-0.068556674 0.16698125 1.11 1.0219284e-38
-0.059419677 0.16684304 1.1090001 1.0771381e-38
-0.05011563 0.16610131 1.1040001 1.1601864e-38
-0.041152328 0.16641101 1.1060001 1.2892603e-38
-0.03218402 0.16686952 1.1090001 1.1233433e-38
-0.023144729 0.16717584 1.1110001 1.3537998e-38
-0.01413517 0.16823278 1.118 1.6398919e-38
-0.0049837888 0.16838515 1.1190001 1.261889e-38
0.004180396 0.16838524 1.1190001 1.3353581e-38
0.01330867 0.16793208 1.1160001 1.584214e-38
0.022588531 0.16898192 1.123 1.7411631e-38
0.032010622 0.17018038 1.131 1.8056999e-38
0.041416749 0.17077513 1.1350001 1.8887839e-38
0.051065773 0.17196986 1.143 1.8243915e-38
0.061002772 0.17361407 1.154 1.8336111e-38
0.071545258 0.17630933 1.1720001 1.8337186e-38
-0.11939925 0.16537803 1.1630001 1.7495464e-39
-0.10847666 0.16326486 1.148 2.3934752e-39
-0.097796135 0.16114976 1.133 4.0497512e-39
-0.087748736 0.15974398 1.123 8.7466822e-39
-0.078002177 0.15862089 1.115 9.1133039e-39
-0.068693019 0.15820746 1.1120001 9.4813648e-39
-0.059538011 0.15807694 1.1110001 1.0126734e-38
-0.050261296 0.15751792 1.107 1.1325277e-38
-0.041197352 0.15752642 1.107 1.0314365e-38
-0.032306254 0.15838708 1.113 9.1161906e-39
-0.023190826 0.1583923 1.113 1.2065007e-38
-0.014125232 0.15896504 1.1170001 1.2341592e-38
-0.0049936529 0.15953609 1.1210001 1.4278071e-38
0.0041886698 0.15953617 1.1210001 1.1693705e-38
0.013347002 0.1592499 1.1190001 1.4090426e-38
0.022552609 0.15953115 1.1210001 1.6119452e-38
0.03184687 0.16009529 1.125 1.75953e-38
0.041242119 0.16079998 1.13 1.870237e-38
0.050851997 0.16192983 1.138 1.8519419e-38
0.060644131 0.16320014 1.1470001 1.7784013e-38
0.071192272 0.16589133 1.166 1.8152794e-38
0.082187682 0.16886501 1.187 1.7876562e-38
-0.12106254 0.15803066 1.179 3.9600667e-39
-0.10934597 0.15510102 1.1570001 5.8000108e-39
-0.098244861 0.15257142 1.138 8.1027421e-39
-0.088467561 0.15178296 1.1320001 9.2065744e-39
-0.078715734 0.1508588 1.125 9.1133039e-39
-0.068952456 0.14966476 1.1160001 9.4828067e-39
-0.059655938 0.14927371 1.113 9.9427115e-39
-0.050542876 0.14928344 1.113 1.0311494e-38
-0.041577078 0.14982817 1.1170001 7.5495768e-39
-0.032631505 0.15077373 1.1240001 8.1023904e-39
-0.023340955 0.15024216 1.12 7.4588231e-39
-0.014229007 0.15091625 1.125 5.5234379e-39
-0.0049990262 0.15051556 1.1220001 1.0774633e-38
0.0041819653 0.1501132 1.1190001 1.0494087e-38
0.013349453 0.1501116 1.1190001 1.3904966e-38
0.022556745 0.15037668 1.1210001 1.4920198e-38
0.031711124 0.15023766 1.12 1.6119096e-38
0.041249633 0.15157254 1.13 1.750203e-38
0.050682444 0.15210091 1.1340001 1.805628e-38
0.060390659 0.15316409 1.1420001 1.8242469e-38
0.070594355 0.15503016 1.156 1.824499e-38
0.081648275 0.15810128 1.179 1.7599621e-38
0.092456609 0.16009755 1.194 1.7968403e-38
0.10427809 0.16329859 1.2180001 1.8247864e-38
0.13767175 0.16752721 1.25 1.8442531e-39
0.14776392 0.16736981 1.2490001 2.3981472e-39
0.16137682 0.17096263 1.276 2.1201169e-39
0.17098333 0.17013237 1.2700001 1.7509813e-39
0.17877388 0.16769382 1.2520001 2.4896225e-39
0.18717197 0.16605851 1.24 2.6740138e-39
0.19552885 0.16455665 1.2290001 5.5335216e-39
-0.11134899 0.14829643 1.1780001 7.646087e-39
-0.099556416 0.14516608 1.153 8.1038267e-39
-0.089185931 0.1436706 1.141 8.3789773e-39
-0.079288937 0.14267711 1.133 8.5626483e-39
-0.069705799 0.14205983 1.128 8.930356e-39
-0.060202289 0.14144096 1.123 8.746685e-39
-0.050824139 0.14094651 1.1190001 9.0236404e-39
-0.041844908 0.14158417 1.1240001 9.1161878e-39
-0.032637201 0.14159048 1.1240001 6.7198161e-39
-0.02349095 0.1419732 1.1270001 5.062094e-39
-0.014231502 0.14172444 1.125 6.7201846e-39
-0.0050132717 0.14172609 1.125 9.1151158e-39
0.0041901749 0.14122225 1.1210001 1.0033464e-38
0.013339861 0.14084281 1.118 1.2982288e-38
0.022520442 0.14096573 1.1190001 1.3720574e-38
0.031801615 0.14146499 1.123 1.5473003e-38
0.041256808 0.14234056 1.13 1.6763745e-38
0.050601821 0.14258471 1.1320001 1.6579351e-38
0.060295276 0.143583 1.1400001 1.8148476e-38
0.070301041 0.14495747 1.151 1.7321599e-38
0.081454344 0.14809322 1.176 1.7322682e-38
0.09200751 0.14959002 1.1880001 1.7414155e-38
0.10301105 0.15146273 1.2030001 1.8520857e-38
0.11435064 0.15345949 1.2190001 1.8521578e-38
0.12829405 0.15834945 1.258 1.6125935e-38
0.1365924 0.15606289 1.24 1.8421021e-39
0.14506596 0.15427899 1.2260001 1.9368173e-39
0.15684845 0.15601733 1.24 2.5829084e-39
0.17033644 0.15913779 1.2650001 9.2158776e-40
0.18037193 0.15886 1.263 1.0137834e-39
0.18855856 0.15707216 1.2490001 1.3818442e-39
0.19396624 0.15327218 1.2190001 2.7654891e-39
0.20155649 0.15148407 1.205 5.2565816e-39
0.21294846 0.15258673 1.2140001 5.9948655e-39
0.22521636 0.15419091 1.2270001 5.811905e-39
-0.10155845 0.1384533 1.176 8.3804136e-39
-0.090607382 0.13646662 1.159 8.1953021e-39
-0.079931669 0.13447818 1.1420001 8.6559187e-39
-0.069902547 0.1331946 1.131 8.8392352e-39
-0.060587455 0.13308717 1.13 8.7470507e-39
-0.051332191 0.1330961 1.13 8.7474081e-39
-0.041702874 0.13192569 1.12 1.0957926e-38
-0.032642614 0.13240285 1.1240001 1.1140897e-38
-0.02336977 0.13205397 1.1210001 1.2617091e-38
-0.014183266 0.13205703 1.1210001 1.1970647e-38
-0.0049918229 0.13194078 1.12 1.0124934e-38
0.0041983505 0.13229425 1.123 1.0493006e-38
0.013401752 0.13229282 1.123 9.9405535e-39
0.022644958 0.1325255 1.125 1.0771397e-38
0.03189186 0.1326389 1.126 1.1694426e-38
0.041263632 0.13310419 1.13 1.519786e-38
0.050744273 0.13368575 1.1350001 1.5290055e-38
0.060305145 0.1342658 1.1400001 1.5659917e-38
0.070190296 0.13531539 1.149 1.7228328e-38
0.081051849 0.13777649 1.1700001 1.7414157e-38
0.091480024 0.13905829 1.1810001 1.6860975e-38
0.1024279 0.14080936 1.1960001 1.7874407e-38
0.11296127 0.14173464 1.2040001 1.8428301e-38
0.12494802 0.14418852 1.225 1.7690736e-38
0.13551164 0.14475745 1.23 3.4965746e-39
0.14319442 0.14238319 1.21 1.6591528e-39
0.1533296 0.14259684 1.212 2.2141244e-39
0.16605189 0.14504437 1.233 1.7531477e-39
0.17968383 0.14796053 1.258 2.1204883e-39
0.19009519 0.14805236 1.2590001 2.2119594e-39
0.19462979 0.143793 1.223 2.3045082e-39
0.20024565 0.14070988 1.197 4.1502201e-39
0.21069621 0.14115307 1.2010001 4.9817898e-39
0.22065637 0.14124288 1.202 5.0736309e-39
0.23158655 0.14191949 1.2080001 5.4416932e-39
0.24181022 0.14212549 1.21 4.8892396e-39
0.25289354 0.14280075 1.2160001 5.8111847e-39
-0.092419438 0.12951213 1.182 7.736119e-39
-0.081413932 0.12744299 1.1630001 8.1034708e-39
-0.070840508 0.12559131 1.146 8.3804262e-39
-0.061293956 0.12527241 1.143 7.735424e-39
-0.052476019 0.1265962 1.1550001 5.6156447e-39
-0.042565923 0.12528805 1.143 7.0893203e-39
-0.032618683 0.12310144 1.123 1.1694416e-38
-0.023394294 0.12299608 1.1220001 1.5380805e-38
-0.014172843 0.1227797 1.12 1.5104221e-38
-0.0050059827 0.12311003 1.123 1.316631e-38
0.0042139688 0.1235486 1.1270001 1.0122414e-38
0.01343967 0.12343763 1.126 1.0494079e-38
0.022648519 0.12332524 1.125 1.0220739e-38
0.031981841 0.12375957 1.1290001 9.6700762e-39
0.041379638 0.12419247 1.133 8.6570005e-39
0.050707445 0.12429514 1.1340001 1.6308882e-38
0.060367376 0.125054 1.141 1.4741185e-38
0.070017792 0.12559223 1.146 1.6399998e-38
0.08078707 0.12777279 1.166 1.7045727e-38
0.091416389 0.12929417 1.1800001 1.6307801e-38
0.10175802 0.13015658 1.1880001 1.6676584e-38
0.11241502 0.13123661 1.1980001 1.7229759e-38
0.12374219 0.13286281 1.2130001 1.7321953e-38
0.1344294 0.1336112 1.22 4.6021991e-39
0.14238639 0.13173021 1.2030001 1.5662369e-39
0.15195942 0.13149095 1.2010001 1.937539e-39
0.16311175 0.13256429 1.2110001 1.6609521e-39
0.17585136 0.1347308 1.2310001 9.2194509e-40
0.18785556 0.13612959 1.2440001 7.0061224e-39
0.1933821 0.13293184 1.215 1.936083e-39
0.19926763 0.13028143 1.1910001 3.2279078e-39
0.20844188 0.12992802 1.1880001 3.5981351e-39
0.21866405 0.13023022 1.1910001 4.3360645e-39
0.22893019 0.13053171 1.194 4.7963237e-39
0.23904049 0.13072333 1.1960001 4.7966783e-39
0.25021848 0.13146083 1.2030001 4.0591132e-39
0.25869596 0.13077742 1.197 5.1654608e-39
0.26707143 0.13009408 1.1910001 5.442412e-39
-0.084156103 0.12188558 1.202 8.1999824e-39
-0.072272688 0.11855002 1.169 7.4602636e-39
-0.062321886 0.11784954 1.1620001 4.6036452e-39
-0.052211031 0.11653908 1.149 5.8933064e-39
-0.042907376 0.11685009 1.1520001 4.6958478e-39
-0.033407845 0.11665266 1.1500001 6.4435977e-39
-0.023272624 0.11320775 1.1160001 1.1600064e-38
-0.014124314 0.11321042 1.1160001 1.5655592e-38
-0.0049933479 0.11361755 1.12 1.2427306e-38
0.004218332 0.11442918 1.128 1.0214255e-38
0.013453596 0.11432648 1.1270001 1.1047607e-38
0.022712266 0.11442533 1.128 8.2871418e-39
0.03209988 0.11492863 1.133 6.9042073e-39
0.041422237 0.11502483 1.1340001 7.4584573e-39
0.050670125 0.11491688 1.133 8.1045498e-39
0.060270313 0.11551762 1.1390001 1.3451172e-38
0.069905683 0.1160156 1.1440001 1.3082035e-38
0.080660053 0.11803328 1.164 1.5479477e-38
0.091429383 0.11964378 1.1800001 1.4371693e-38
0.10134403 0.11993477 1.1830001 1.6675506e-38
0.112243 0.12123819 1.1960001 1.7229403e-38
0.12294304 0.12213469 1.205 1.695247e-38
0.13389669 0.12313116 1.215 5.5241554e-39
0.14157692 0.12118778 1.1960001 1.473321e-39
0.15020792 0.12025705 1.187 2.1204883e-39
0.16151652 0.12145287 1.199 1.936097e-39
0.17401662 0.12335631 1.2180001 1.105979e-39
0.1859159 0.12465064 1.2310001 7.0986837e-39
0.19054079 0.12118536 1.197 1.2076892e-38
0.19845515 0.12004875 1.1860001 2.6725831e-39
0.20741378 0.11962032 1.182 4.426821e-39
0.21722049 0.11969738 1.1830001 2.9524111e-39
0.22665507 0.11957156 1.182 3.1371569e-39
0.23626845 0.11954648 1.182 4.7966783e-39
0.24587701 0.11952106 1.182 4.7041267e-39
0.25440013 0.11898986 1.177 5.4420477e-39
0.26395878 0.11896405 1.177 4.9814339e-39
-0.074879393 0.11289994 1.2110001 7.8322831e-39
-0.063564062 0.11048488 1.1850001 7.0003644e-39
-0.053308863 0.10937364 1.1730001 6.0784081e-39
-0.043770019 0.1095665 1.1750001 2.9448497e-39
-0.034167837 0.10966489 1.176 5.8940267e-39
-0.024047514 0.10752389 1.153 7.8258049e-39
-0.014113604 0.10398266 1.115 1.1322754e-38
-0.0049762018 0.10407719 1.1160001 1.6393879e-38
0.0042114337 0.10500983 1.126 1.4918749e-38
0.01345545 0.10510192 1.1270001 8.2842523e-39
0.022816081 0.10565905 1.133 1.0589507e-38
0.032047611 0.10546891 1.131 1.4830153e-38
0.041354842 0.10555733 1.1320001 1.1791296e-38
0.050632302 0.10555128 1.1320001 7.2769387e-39
0.060066797 0.10582376 1.1350001 9.4903541e-39
0.070281789 0.10721379 1.1500001 9.3959921e-39
0.081155978 0.10916173 1.171 1.3082389e-38
0.091364011 0.10989641 1.179 1.2527782e-38
0.10127166 0.11016379 1.182 1.5201102e-38
0.1122576 0.1114551 1.1960001 1.7045015e-38
0.12275477 0.11209273 1.2030001 1.6677666e-38
0.13347286 0.11282232 1.2110001 5.3401214e-39
0.14112112 0.11103562 1.192 1.473321e-39
0.14921403 0.10980733 1.179 1.752426e-39
0.16032366 0.11081344 1.1900001 1.752426e-39
0.1726086 0.11247008 1.2080001 1.2903703e-39
0.18291689 0.11272903 1.2110001 5.7179101e-39
0.18928921 0.11066034 1.189 1.3554187e-38
0.19780825 0.10998757 1.182 9.9582042e-39
0.20726132 0.10987264 1.1810001 2.9516895e-39
0.21650949 0.10966418 1.179 3.3208279e-39
0.2255284 0.10936232 1.176 3.4119474e-39
0.23389395 0.10878125 1.1700001 4.2424283e-39
0.24382135 0.10894371 1.1720001 3.7818061e-39
0.25247952 0.10854822 1.1680001 2.0376665e-38
0.26286238 0.10889601 1.1720001 5.164386e-39
-0.055270027 0.10342772 1.2160001 6.9096065e-39
-0.044855975 0.10241307 1.2040001 7.2762297e-39
-0.034491815 0.10097181 1.187 7.182239e-39
-0.024467761 0.099784479 1.1730001 7.5499467e-39
-0.01452051 0.097575061 1.1470001 8.561942e-39
-0.0050303512 0.095959909 1.128 1.0866841e-38
0.0042793034 0.097321108 1.1440001 7.8265336e-39
0.013588513 0.096809581 1.138 5.7985815e-39
0.022980111 0.097062558 1.141 6.3467134e-39
0.03222172 0.09671893 1.1370001 1.2341238e-38
0.041579295 0.0967995 1.138 8.1031191e-39
0.050549209 0.096113466 1.13 7.1836795e-39
0.060074322 0.096532077 1.1350001 8.4765693e-39
0.070290543 0.097799972 1.1500001 9.6740251e-39
0.081789844 0.10034212 1.1800001 1.0962966e-38
0.091452725 0.10033189 1.1800001 1.0682427e-38
0.10119829 0.10040563 1.1810001 1.4369175e-38
0.11152014 0.10098839 1.1880001 1.6306006e-38
0.12236118 0.10190998 1.199 1.2159358e-38
0.13304764 0.10257541 1.207 5.6163426e-39
0.14019027 0.10060561 1.184 1.473321e-39
0.14923114 0.10016479 1.179 1.5669572e-39
0.16074599 0.10133721 1.1930001 1.7513484e-39
0.17148452 0.10191392 1.2 1.1066993e-39
0.18097301 0.10172549 1.1980001 2.0300877e-39
0.18819496 0.10034787 1.182 1.4384668e-38
0.19699217 0.099903837 1.177 1.7702636e-38
0.20552745 0.099374548 1.171 2.6736621e-39
0.21451105 0.099099509 1.1680001 3.8729227e-39
0.22382444 0.098993778 1.1670001 3.3197489e-39
0.23211697 0.098463655 1.161 3.6892545e-39
0.24072321 0.098103024 1.1570001 1.7795908e-38
0.25034058 0.098166153 1.1580001 1.8348727e-38
0.26198828 0.098991841 1.1680001 1.1617001e-38
-0.03525142 0.093248241 1.2130001 6.1709583e-39
-0.024929568 0.091867819 1.1950001 7.8268839e-39
-0.014965341 0.090870634 1.182 7.734338e-39
-0.0052584023 0.090641119 1.179 6.9070954e-39
0.0043733306 0.089872368 1.169 3.6824022e-39
0.013900597 0.089486957 1.164 6.0758914e-39
0.023284931 0.088869855 1.156 6.7201846e-39
0.032707293 0.088712998 1.154 5.0628143e-39
0.041839913 0.088017024 1.1450001 7.3659058e-39
0.050957702 0.087550685 1.1390001 6.9067241e-39
0.060240023 0.087467708 1.138 7.1851088e-39
0.070848718 0.089074574 1.159 6.5382961e-39
0.081937738 0.090833865 1.182 1.0131775e-38
0.091540523 0.090747692 1.1810001 8.9307203e-39
0.10129526 0.090814233 1.182 1.2709301e-38
0.11153244 0.09126395 1.1880001 1.492344e-38
0.12206835 0.091866255 1.1960001 8.8406715e-39
0.13229029 0.092160314 1.2 4.8791405e-39
0.14079729 0.091301627 1.189 3.4101495e-39
0.15241149 0.092438571 1.2040001 3.1335626e-39
0.16251442 0.092576459 1.2060001 4.0562392e-39
0.17107323 0.091869324 1.197 1.1988949e-39
0.17917822 0.091008306 1.1860001 4.1505886e-39
0.18773575 0.090453841 1.179 9.9585588e-39
0.19617425 0.089899041 1.1720001 1.7149828e-38
0.20484474 0.089497313 1.1670001 1.7333499e-38
0.21324512 0.089018613 1.161 3.5030682e-39
0.22288553 0.089076303 1.1620001 2.3052425e-39
0.2301379 0.088213913 1.151 1.8163982e-38
0.23991151 0.088347726 1.153 1.7887393e-38
0.25036138 0.088711068 1.1580001 1.1156747e-38
0.26043913 0.088920861 1.161 1.5858369e-38
-0.026496988 0.087227747 1.2700001 2.9473553e-39
