# .PCD v0.7 - Point Cloud Data file format
VERSION 0.7
FIELDS x y z rgb
SIZE 4 4 4 4
TYPE F F F F
COUNT 1 1 1 1
WIDTH 616
HEIGHT 1
VIEWPOINT 0 0 0 1 0 0 0
POINTS 616
DATA ascii
0.11028923 0.3309117 0.93700004 4.9749248e-39
0.073092073 0.32753474 0.94900006 2.5803692e-39
0.081755437 0.33131897 0.96000004 3.0402726e-39
0.08947745 0.33096072 0.95900005 2.211235e-39
0.096573666 0.32853115 0.95200002 2.3030747e-39
0.10399337 0.3274813 0.94900006 2.6704138e-39
0.11077473 0.32470563 0.94100004 3.4998088e-39
0.1189353 0.32607025 0.94500005 4.4221168e-39
0.058375366 0.3239249 0.96100003 3.4086879e-39
0.067166738 0.32863289 0.97500002 3.2232219e-39
0.074644707 0.3265985 0.96900004 3.5912841e-39
0.081768565 0.32355207 0.96000004 3.7745978e-39
0.089211524 0.32218993 0.95600003 3.4058181e-39
0.096385509 0.32015306 0.95000005 2.7615347e-39
0.10357042 0.31845251 0.94500005 3.2228674e-39
0.11149707 0.31911016 0.94700003 3.4065355e-39
0.11920354 0.31909326 0.94700003 4.0522623e-39
0.12757905 0.32076055 0.95200002 5.2515145e-39
0.13461342 0.31905812 0.94700003 7.4652816e-39
0.051819526 0.32405844 0.98500007 3.7760299e-39
0.059661705 0.32306117 0.98200005 5.155719e-39
0.067040816 0.32008877 0.97300005 6.9963834e-39
0.073964268 0.31579956 0.96000004 9.0236012e-39
0.081356555 0.31414104 0.95500004 1.0405092e-38
0.08875975 0.31281057 0.95100003 1.1142303e-38
0.096096776 0.31147921 0.94700003 1.1325266e-38
0.10380606 0.31146267 0.94700003 1.2711083e-38
0.111632 0.31177422 0.94800007 1.0405838e-38
0.11959899 0.3124139 0.95000005 8.1881022e-39
0.12773143 0.31338176 0.95300007 5.4294318e-39
0.13605368 0.3146778 0.95700002 4.6050619e-39
0.14413935 0.31531578 0.95900005 6.4504108e-39
0.043936223 0.31706446 0.98800004 3.5912813e-39
0.052197739 0.31833869 0.99200004 6.1687919e-39
0.059551414 0.31447706 0.98000002 1.0405444e-38
0.066019565 0.30740547 0.95800006 1.160399e-38
0.073438369 0.30578798 0.95300007 1.2525226e-38
0.080859937 0.30449021 0.94900006 1.3263509e-38
0.088215269 0.30319142 0.94500005 1.372449e-38
0.095707342 0.30253339 0.94300002 1.5014508e-38
0.10327531 0.30219525 0.94200003 1.575173e-38
0.11106134 0.30249783 0.94300002 1.6121942e-38
0.11898836 0.3031204 0.94500005 1.7966237e-38
0.12721477 0.30438367 0.94900006 1.7691818e-38
0.13578941 0.30628768 0.95500004 1.8890008e-38
0.14446047 0.308191 0.96100003 5.888266e-39
0.043811604 0.30813539 0.98500007 2.3023544e-39
0.051418673 0.30562314 0.97700006 1.1236634e-38
0.058469102 0.30091989 0.96200007 1.1050813e-38
0.065687723 0.29809234 0.95300007 1.1879512e-38
0.072758727 0.29526368 0.94400007 1.2340479e-38
0.080278561 0.29462335 0.94200003 1.298657e-38
0.087764688 0.29398188 0.94000006 1.4184757e-38
0.095217042 0.29333937 0.93800002 1.4646443e-38
0.10263558 0.29269591 0.93600005 1.5660595e-38
0.11060925 0.29361507 0.93900007 1.6118744e-38
0.11837854 0.29390791 0.94000006 1.6952082e-38
0.12669908 0.29545057 0.94500005 1.7968403e-38
0.1349574 0.29667976 0.94900006 1.935278e-38
0.14403121 0.29947126 0.95800006 1.8706693e-38
0.15404248 0.30382487 0.97200006 7.6435716e-39
0.03604465 0.30230966 0.99200004 2.6700593e-39
0.043731727 0.29955855 0.98300004 9.3967151e-39
0.050955493 0.29497755 0.96800005 1.1144087e-38
0.058116253 0.29130954 0.95600003 1.1327049e-38
0.065356232 0.28885919 0.94800007 1.1235205e-38
0.072850235 0.28793105 0.94500005 1.3447903e-38
0.080294222 0.2870017 0.94200003 1.4185468e-38
0.087501347 0.2854619 0.93700004 1.5290044e-38
0.094828807 0.28453034 0.93400002 1.5106004e-38
0.10254476 0.28481629 0.93500006 1.5290752e-38
0.11039343 0.28540581 0.93700004 1.5752097e-38
0.11789539 0.28508061 0.93600005 1.6860238e-38
0.12631826 0.28688651 0.94200003 1.7783292e-38
0.13441065 0.28777796 0.94500005 1.870669e-38
0.14330222 0.29019111 0.95300007 1.8614494e-38
0.15343203 0.29473484 0.96800005 1.9168025e-38
0.16363776 0.29897299 0.98200005 6.5400939e-39
0.036016073 0.29398772 0.99100006 3.4061698e-39
0.043385103 0.28923261 0.97500002 9.9469994e-39
0.050597742 0.28506944 0.96100003 1.0407243e-38
0.057885237 0.28238815 0.95200002 1.1144452e-38
0.065093964 0.28000221 0.94400007 1.1881297e-38
0.072171189 0.27761504 0.93600005 1.252453e-38
0.079372592 0.27611649 0.93100005 1.3907097e-38
0.086958267 0.27609962 0.93100005 1.4092562e-38
0.094441041 0.27578497 0.93000007 1.6028317e-38
0.10201582 0.27576581 0.93000007 1.3539742e-38
0.10935344 0.27515256 0.92800003 1.5660254e-38
0.1171609 0.27572438 0.93000007 1.7227594e-38
0.12540174 0.27718461 0.93500006 1.8336465e-38
0.13372239 0.27864388 0.94000006 1.8337907e-38
0.14272442 0.28128788 0.94900006 1.8429381e-38
0.15234688 0.28482002 0.96100003 1.7784368e-38
0.16282964 0.2895366 0.97700006 1.4929176e-38
0.028222585 0.28886142 1.001 2.4863785e-39
0.035914976 0.28510284 0.98800004 6.9063471e-39
0.043305606 0.28076562 0.97300005 1.0590202e-38
0.050345436 0.27584991 0.95600003 1.0406178e-38
0.057776075 0.27410686 0.95000005 1.0592735e-38
0.06483195 0.27120829 0.94000006 9.8551681e-39
0.07210923 0.26975107 0.93500006 1.0316501e-38
0.079389036 0.26858109 0.93100005 1.0869321e-38
0.086789131 0.26798683 0.92900002 1.141995e-38
0.094358377 0.26796833 0.92900002 1.28933e-38
0.10159697 0.26708335 0.92600006 1.21561e-38
0.10913871 0.26706263 0.92600006 1.3078777e-38
0.11693086 0.26761767 0.92800003 1.335753e-38
0.1252905 0.26932514 0.93400002 1.5018853e-38
0.13346155 0.27045482 0.93800002 1.7139722e-38
0.14214732 0.27244863 0.94500005 1.8152794e-38
0.15126236 0.27501795 0.95400006 1.7968393e-38
0.16185567 0.27989239 0.97100008 1.6862056e-38
0.027918775 0.27767396 0.99000007 4.512516e-39
0.035850354 0.27654478 0.98600006 9.5785714e-39
0.043092716 0.27148744 0.96800005 1.0867514e-38
0.050251272 0.26755053 0.95400006 1.0406899e-38
0.057362974 0.26445362 0.94300002 8.3796723e-39
0.064501129 0.26219672 0.93500006 8.0094633e-39
0.07220187 0.2624622 0.93600005 6.9052821e-39
0.079491146 0.26132426 0.93200004 6.6290512e-39
0.086900696 0.26074582 0.93000007 9.2065491e-39
0.094174534 0.25988582 0.92700005 1.1050797e-38
0.10194661 0.26042634 0.92900002 1.1786962e-38
0.10951386 0.26040506 0.92900002 8.7463025e-39
0.11745749 0.26122358 0.93200004 8.1016561e-39
0.12517986 0.26148048 0.93300003 8.1956482e-39
0.13305904 0.26201671 0.93500006 9.9480939e-39
0.14217257 0.26479378 0.94500005 1.4190522e-38
0.15160556 0.2678498 0.95600003 1.7692893e-38
0.16154915 0.27146503 0.96900004 1.8522656e-38
0.17187725 0.27535927 0.98300004 8.6616542e-39
0.028235482 0.27265427 1.001 5.340476e-39
0.035749465 0.26774406 0.98300004 1.0592369e-38
0.043147054 0.2639218 0.96900004 1.0316135e-38
0.050157245 0.25928101 0.95200002 9.7607949e-39
0.057314966 0.25654539 0.94200003 9.7586579e-39
0.064860418 0.25598702 0.94000006 1.0404383e-38
0.072371975 0.25542715 0.93800002 9.9434051e-39
0.079764239 0.25459361 0.93500006 8.1938545e-39
0.087479934 0.25484779 0.93600005 8.1005701e-39
0.094499081 0.25319487 0.93000007 1.2985859e-38
0.10229684 0.25371876 0.93200004 1.3169899e-38
0.11036126 0.25478581 0.93600005 8.9306825e-39
0.11773274 0.25421852 0.93400002 9.8508676e-39
0.12547235 0.25446677 0.93500006 1.2064982e-38
0.13336867 0.25498623 0.93700004 1.4739387e-38
0.1415966 0.25604898 0.94100004 1.4279498e-38
0.15131517 0.25955951 0.95400006 1.8060248e-38
0.16124333 0.26306877 0.96700007 1.7784734e-38
0.17190568 0.26739287 0.98300004 1.3082391e-38
0.028044568 0.26269633 0.99400002 7.1861906e-39
0.035466749 0.25766766 0.97500002 1.0958998e-38
0.042889778 0.25448731 0.96300006 9.3002021e-39
0.05032682 0.25236243 0.95500004 9.4831472e-39
0.057449684 0.2494434 0.94400007 9.6668168e-39
0.064598911 0.24731568 0.93600005 1.0128505e-38
0.072233699 0.24730031 0.93600005 9.115085e-39
0.080037698 0.24781181 0.93800002 6.166271e-39
0.087779276 0.24805765 0.93900007 6.4439312e-39
0.094010994 0.24433978 0.92500007 1.4184404e-38
0.10264755 0.24696031 0.93500006 1.8055913e-38
0.11038388 0.24720226 0.93600005 7.6381584e-39
0.11788245 0.24691486 0.93500006 8.4661156e-39
0.12522851 0.24636242 0.93300003 1.3079497e-38
0.13339418 0.24739334 0.93700004 1.6030506e-38
0.14252599 0.25000718 0.94700003 1.4647914e-38
0.15134257 0.25182784 0.95400006 1.5571317e-38
0.16143841 0.25549507 0.96800005 1.7878007e-38
0.17228465 0.25995275 0.98500007 1.5665677e-38
0.028135831 0.25541049 0.99700004 9.4852996e-39
0.035438668 0.24951093 0.97400004 9.4845766e-39
0.042899765 0.24668396 0.96300006 9.2094442e-39
0.050654713 0.2461607 0.96100003 8.6562592e-39
0.057767209 0.24307449 0.94900006 6.3520957e-39
0.065510973 0.24306035 0.94900006 2.7608046e-39
0.073021799 0.24227633 0.94600004 3.9618631e-39
0.080140769 0.24046652 0.93900007 5.4287059e-39
0.087611437 0.23993583 0.93700004 9.0225236e-39
0.093116313 0.23453894 0.91600007 1.3355338e-38
0.10190061 0.23759048 0.92800003 1.7317995e-38
0.11087862 0.24064025 0.94000006 6.9924345e-39
0.11866304 0.24087252 0.94100004 6.8120033e-39
0.1274014 0.24289529 0.94900006 3.0359622e-39
0.13427445 0.2413338 0.94300002 9.4867598e-39
0.14315513 0.24335428 0.95100003 1.3725618e-38
0.1515291 0.24435005 0.95500004 1.4188382e-38
0.16113366 0.24713577 0.96600002 1.7138644e-38
0.17248943 0.2522226 0.98600006 1.5665666e-38
0.028057804 0.24658397 0.99400002 1.0226448e-38
0.035337836 0.24087089 0.97100008 1.012886e-38
0.042820685 0.2383811 0.96100003 9.8537024e-39
0.050402876 0.23712996 0.95600003 9.2090673e-39
0.057780523 0.23538116 0.94900006 8.0102032e-39
0.065249749 0.23437491 0.94500005 7.6417668e-39
0.072575048 0.23311917 0.94000006 7.6392346e-39
0.080500118 0.23384593 0.94300002 7.5463173e-39
0.087069593 0.23085167 0.93100005 1.0128135e-38
0.092628121 0.22587296 0.91100007 1.2154281e-38
0.10060439 0.22709177 0.91600007 1.7778265e-38
0.11054789 0.23227538 0.93700004 1.2984076e-38
0.11793064 0.23175584 0.93500006 9.0207285e-39
0.1260843 0.23272236 0.93900007 9.4849339e-39
0.13401602 0.23319201 0.94100004 1.1697314e-38
0.14318259 0.23564298 0.95100003 1.7047143e-38
0.15124004 0.23611051 0.95300007 1.6216686e-38
0.16116291 0.23930219 0.96600002 1.7692527e-38
0.17286973 0.24472179 0.98800004 1.7140076e-38
0.028149161 0.23924223 0.99700004 1.0226451e-38
0.035382576 0.23323573 0.97200006 1.0497652e-38
0.04278617 0.23034714 0.96000004 1.0589848e-38
0.05036189 0.22913656 0.95500004 9.6696769e-39
0.057915684 0.22816427 0.95100003 9.4856513e-39
0.065195635 0.22647069 0.94400007 9.6685993e-39
0.072668724 0.22573529 0.94100004 9.4831346e-39
0.079920456 0.22451869 0.93600005 9.943038e-39
0.086434036 0.22162183 0.92400002 9.4820514e-39
0.091631308 0.21608596 0.90100002 1.2340126e-38
0.099197872 0.21654494 0.90300006 1.8333586e-38
0.10974517 0.22299714 0.93000007 1.6859535e-38
0.1183335 0.22489144 0.93800002 1.6213086e-38
0.12610982 0.22510611 0.93900007 1.547803e-38
0.13446991 0.22627853 0.94400007 1.8891793e-38
0.14290911 0.22744973 0.94900006 1.750959e-38
0.15190347 0.22933877 0.95700002 1.870741e-38
0.16135935 0.23170583 0.96700007 1.7968393e-38
0.1729005 0.23670703 0.98800004 1.5849689e-38
0.012434368 0.24229102 1.0450001 9.5767862e-39
0.020712225 0.23927295 1.0320001 9.4835046e-39
0.028325273 0.23254344 1.003 1.068312e-38
0.035318106 0.22488506 0.97000003 1.0221053e-38
0.042617887 0.2216302 0.95600003 1.0681325e-38
0.050109889 0.22022842 0.95000005 1.1049387e-38
0.057502676 0.21882507 0.94400007 1.0588763e-38
0.06479609 0.21742021 0.93800002 1.0587682e-38
0.072298989 0.21694106 0.93600005 9.9412373e-39
0.079169735 0.2148381 0.92700005 1.0403663e-38
0.086266033 0.21366097 0.92200005 6.0744383e-39
0.092465073 0.2106289 0.90900004 8.7473773e-39
0.099878438 0.21060809 0.90900004 1.2340874e-38
0.1088241 0.21359771 0.92200005 1.4368099e-38
0.11747476 0.2156589 0.93100005 1.6858456e-38
0.12573248 0.21679211 0.93600005 1.7136122e-38
0.13378429 0.21746078 0.93900007 1.7505636e-38
0.14218381 0.2185915 0.94400007 1.8982205e-38
0.15129724 0.22064717 0.95300007 1.8429381e-38
0.16188981 0.22455354 0.97000003 1.7230474e-38
0.17433178 0.23054148 0.99600005 1.5202536e-38
0.012496828 0.23492609 1.0500001 7.1717993e-39
0.020857653 0.23246101 1.039 1.0035955e-38
0.028642679 0.22686186 1.0140001 1.0037396e-38
0.035362829 0.21723412 0.97100008 1.0865349e-38
0.04276162 0.21454038 0.95900005 1.0127784e-38
0.050121527 0.21251622 0.95000005 1.0034516e-38
0.057637777 0.21160899 0.94600004 1.0863194e-38
0.064741798 0.20958188 0.93700004 1.1323814e-38
0.071929038 0.20822442 0.93100005 9.8483186e-39
0.079016581 0.20686558 0.92500007 9.0203726e-39
0.086097904 0.20572914 0.92000002 4.8733797e-39
0.09299393 0.20436791 0.91400003 8.3753717e-39
0.10077908 0.20501778 0.91700006 1.4182264e-38
0.10849289 0.20544267 0.91900003 1.0951466e-38
0.1172467 0.20765448 0.92900002 1.5657023e-38
0.1252206 0.20830016 0.93200004 1.7226518e-38
0.13366842 0.20961507 0.93800002 1.7135047e-38
0.14221147 0.21092868 0.94400007 1.6490395e-38
0.1511672 0.21268789 0.95200002 1.7506699e-38
0.16158594 0.21623294 0.96800005 1.7046081e-38
0.17733921 0.22625342 1.013 1.7874407e-38
0.18740994 0.2284544 1.023 1.4179022e-38
0.012475963 0.22596617 1.0480001 6.9899122e-39
0.020922795 0.22466856 1.0420001 8.6515817e-39
0.028734155 0.21927252 1.0170001 1.0496932e-38
0.035480358 0.20999405 0.97400004 1.0037385e-38
0.042771548 0.20675106 0.95900005 9.85155e-39
0.050238632 0.20523126 0.95200002 1.0864641e-38
0.057346273 0.20284766 0.94100004 1.0681304e-38
0.064618275 0.20154046 0.93500006 1.0770641e-38
0.072022475 0.20087846 0.93200004 1.0402936e-38
0.079546802 0.20064606 0.93100005 7.5466733e-39
0.08564879 0.19717976 0.91500002 6.7194447e-39
0.092810541 0.19651391 0.91200006 9.2998476e-39
0.10047081 0.19692414 0.91400003 1.0499819e-38
0.10934224 0.1994873 0.92600006 1.6675495e-38
0.11714465 0.19989462 0.92800003 1.538296e-38
0.12484282 0.20008536 0.92900002 1.6119802e-38
0.13340989 0.20156708 0.93600005 1.6673344e-38
0.14163637 0.20240149 0.94000006 1.6949931e-38
0.15135469 0.20517243 0.95300007 1.6306361e-38
0.16228364 0.20923336 0.97200006 1.7045366e-38
0.178947 0.21996455 1.0220001 1.6120895e-38
0.18945824 0.22251448 1.034 1.53718e-38
0.012407429 0.21620426 1.0420001 1.0124917e-38
0.020887498 0.21578544 1.0400001 6.5300102e-39
0.028882124 0.21204497 1.0220001 1.0221053e-38
0.035561431 0.20249361 0.97600007 9.851564e-39
0.042825989 0.19916512 0.96000004 9.9437596e-39
0.050091758 0.1968725 0.94900006 1.0496212e-38
0.057359274 0.19520077 0.94100004 9.9434051e-39
0.064563669 0.19373505 0.93400002 9.4831346e-39
0.071961224 0.19309762 0.93100005 7.7332253e-39
0.078795172 0.19121441 0.92200005 6.7197979e-39
0.085667431 0.18974482 0.91500002 8.2835419e-39
0.093034059 0.18951826 0.91400003 9.5753429e-39
0.10049208 0.18949772 0.91400003 1.133064e-38
0.10865639 0.19071975 0.92000002 1.0962598e-38
0.11742119 0.19276944 0.93000007 1.7137194e-38
0.12527116 0.19315943 0.93200004 1.5658841e-38
0.13357876 0.19416997 0.93700004 1.6949563e-38
0.14241725 0.19580086 0.94500005 1.7319082e-38
0.15138324 0.19743039 0.95300007 1.695174e-38
0.16381642 0.2032014 0.98100007 1.6677299e-38
0.17932932 0.21207656 1.024 1.39082e-38
0.18894148 0.21349375 1.031 1.8235286e-38
0.012446015 0.20832953 1.0450001 9.3833986e-39
0.020952564 0.20792703 1.0430001 7.4490924e-39
0.029171409 0.20572844 1.0320001 1.0220347e-38
0.035751767 0.19555442 0.98100007 9.7597341e-39
0.042746466 0.19096078 0.95800006 1.0127796e-38
0.050050266 0.1889571 0.94800007 1.0220333e-38
0.057372119 0.1875499 0.94100004 9.9437596e-39
0.064370587 0.18554342 0.93100005 6.5354052e-39
0.071590498 0.18453206 0.92600006 6.9963946e-39
0.078812331 0.18371864 0.92200005 7.638527e-39
0.085873157 0.18270469 0.91700006 6.8073398e-39
0.093359247 0.18268567 0.91700006 6.8988095e-39
0.10106297 0.18306372 0.91900003 8.0984317e-39
0.10856067 0.18304209 0.91900003 9.0200433e-39
0.11643472 0.18361673 0.92200005 1.0682782e-38
0.12502724 0.18518575 0.93000007 1.5660609e-38
0.13374744 0.18675326 0.93800002 1.5659192e-38
0.14244448 0.18812031 0.94500005 1.7503825e-38
0.1525237 0.19107842 0.96000004 1.7044278e-38
0.16518247 0.19682094 0.98900002 1.7044635e-38
0.17988674 0.20435186 1.0270001 1.3257065e-38
0.1884243 0.20451862 1.028 1.8140909e-38
0.012508398 0.2007838 1.0500001 9.3895111e-39
0.020836739 0.19829418 1.0370001 1.0311477e-38
0.029234529 0.19771492 1.034 9.6678916e-39
0.035686888 0.18719113 0.97900003 1.0497652e-38
0.042800646 0.18335837 0.95900005 1.0312188e-38
0.050219793 0.18181857 0.95100003 1.0127076e-38
0.057262797 0.17951262 0.93900007 9.2998308e-39
0.064315505 0.17777888 0.93000007 7.8268741e-39
0.071760654 0.17738189 0.92800003 7.1779146e-39
0.078829221 0.176219 0.92200005 8.9285455e-39
0.08598502 0.17543712 0.91800004 9.661433e-39
0.093480609 0.17541841 0.91800004 1.0494082e-38
0.10064385 0.17482516 0.91500002 1.4736517e-38
0.10905536 0.17633229 0.92300004 1.3538324e-38
0.11683693 0.17669177 0.92500007 8.9282022e-39
0.1250518 0.17762305 0.93000007 1.0959718e-38
0.13348798 0.17874396 0.93600005 1.5659913e-38
0.1429237 0.18100923 0.94800007 1.5843939e-38
0.1528697 0.18365474 0.96200007 1.6768048e-38
0.16721688 0.19107062 1.001 1.7138268e-38
0.17904243 0.19504815 1.0220001 1.6949579e-38
0.18863989 0.19635227 1.029 1.7872608e-38
0.021042334 0.19168361 1.0470001 8.8388806e-39
0.029410671 0.19039655 1.0400001 8.9285455e-39
0.035877045 0.18013746 0.98400003 1.0590204e-38
0.042943947 0.17610154 0.96200007 1.0035601e-38
0.050125092 0.17371178 0.94900006 1.0312202e-38
0.057214178 0.1716868 0.93800002 8.1934832e-39
0.064467639 0.17057568 0.93200004 8.8392212e-39
0.071621224 0.16946322 0.92600006 9.3009056e-39
0.079016834 0.16908145 0.92400002 8.1953021e-39
0.086283967 0.1685154 0.92100006 6.4439495e-39
0.093703508 0.16831401 0.92000002 5.798936e-39
0.10132436 0.16847727 0.92100006 1.0409427e-38
0.10884079 0.16845635 0.92100006 1.2986961e-38
0.11711256 0.16953152 0.92700005 1.1605101e-38
0.12547942 0.17060536 0.93300003 8.5633405e-39
0.13408387 0.17186067 0.94000006 1.5750316e-38
0.14340261 0.17384586 0.95100003 1.6027254e-38
0.15353324 0.17656066 0.96600002 1.6859166e-38
0.16908449 0.18493894 1.0120001 1.7136473e-38
0.17924868 0.18691865 1.023 1.6304563e-38
0.036030643 0.1728231 0.98800004 9.486387e-39
0.043221042 0.16931635 0.96800005 1.0588775e-38
0.050241429 0.16633303 0.95100003 9.6668462e-39
0.057348307 0.16439788 0.94000006 7.8257923e-39
0.064550355 0.16316099 0.93300003 7.3662477e-39
0.071868204 0.16244745 0.92900002 8.5622685e-39
0.079033107 0.16155776 0.92400002 9.8511983e-39
0.086395234 0.16119133 0.92200005 8.00765e-39
0.093926102 0.16117333 0.92200005 1.1604004e-38
0.10134446 0.16097926 0.92100006 1.1604736e-38
0.10898027 0.16113356 0.92200005 1.2527781e-38
0.1171351 0.16198564 0.92700005 1.1424288e-38
0.12590672 0.16353528 0.93600005 1.1790925e-38
0.13425146 0.16438469 0.94100004 1.5289715e-38
0.1438812 0.16663022 0.95400006 1.6396757e-38
0.1546734 0.16992199 0.97300005 1.6214162e-38
0.03651239 0.16694014 1.001 8.7517115e-39
0.043230068 0.16142853 0.96800005 9.9452002e-39
0.050199013 0.15841725 0.95000005 9.3019832e-39
0.057482164 0.15707226 0.94200003 8.104533e-39
0.064494357 0.15539253 0.93200004 6.7215985e-39
0.071650639 0.15437853 0.92600006 6.9985428e-39
0.078450114 0.15286323 0.91700006 9.945203e-39
0.086131223 0.15318042 0.91900003 1.1971343e-38
0.093638852 0.15316294 0.91900003 1.3539744e-38
0.1010339 0.15297757 0.91800004 1.1698372e-38
0.10900106 0.15362419 0.92200005 1.437385e-38
0.1172835 0.15460271 0.92800003 1.0594538e-38
0.12606452 0.15607961 0.93700004 1.1976043e-38
0.13527468 0.15788819 0.94800007 1.4554644e-38
0.1452644 0.16036133 0.96300006 1.4923426e-38
0.15629028 0.16366532 0.98300004 1.5388005e-38
0.037577845 0.1633788 1.0300001 1.3362544e-38
0.044132192 0.15670872 0.98800004 8.6559187e-39
0.051107612 0.1533685 0.96700007 8.7484745e-39
0.058165044 0.15113734 0.95300007 6.9989057e-39
0.064645596 0.14811215 0.93400002 5.1564392e-39
0.071432568 0.14635462 0.92300004 6.261712e-39
0.078636549 0.14570592 0.91900003 8.0105549e-39
0.085960343 0.14537312 0.91700006 9.1151018e-39
0.093249053 0.14503916 0.91500002 9.8526668e-39
0.10094283 0.14533807 0.91700006 9.3945543e-39
0.10866655 0.14563575 0.91900003 1.0042425e-38
0.11755774 0.14735833 0.93000007 1.1332835e-38
0.12649086 0.14892094 0.94000006 1.2346978e-38
0.13672575 0.15174933 0.95800006 1.372776e-38
0.14785437 0.15520938 0.98000002 1.3912872e-38
0.046642754 0.15707484 1.044 7.4584699e-39
0.052967746 0.15074636 1.0020001 7.919804e-39
0.059763491 0.14727546 0.97900003 6.0787613e-39
0.066319473 0.14410451 0.95800006 4.9745843e-39
0.072297655 0.1404815 0.93400002 4.3277716e-39
0.079678394 0.14001615 0.93100005 5.3394012e-39
0.08682023 0.13924886 0.92600006 7.3655512e-39
0.094591364 0.13953306 0.92800003 7.8258231e-39
0.10140162 0.13846295 0.92100006 6.8141627e-39
0.10975046 0.13949649 0.92800003 7.1833362e-39
0.11909569 0.14158078 0.94200003 9.4896198e-39
0.13001218 0.14516616 0.96600002 9.4885422e-39
0.14046051 0.14784797 0.98400003 1.1976057e-38
0.15346241 0.15278141 1.0170001 1.2071123e-38
0.047321849 0.15068866 1.059 8.1985279e-39
0.055832777 0.15025225 1.056 6.6304917e-39
0.063315943 0.14753802 1.0370001 6.4478955e-39
0.070486151 0.14482273 1.018 4.51253e-39
0.076104552 0.13983053 0.98300004 3.4994542e-39
0.083288059 0.13839383 0.97300005 3.9586359e-39
0.091149516 0.13823614 0.97200006 4.9727879e-39
0.098380283 0.13722402 0.96500003 5.3412173e-39
0.10604443 0.13692193 0.96300006 4.6958408e-39
0.11532893 0.13860905 0.97500002 4.9724151e-39
0.12556498 0.14114749 0.99300003 5.9879964e-39
0.13770683 0.14538959 1.023 6.4489745e-39
0.14819318 0.14749791 1.0380001 8.4747729e-39
0.013432962 0.15105064 1.126 8.482693e-39
0.022637233 0.15091325 1.125 2.3052313e-39
0.031314734 0.1483597 1.1060001 9.2230802e-40
0.040264025 0.1479509 1.103 9.2086749e-40
0.047196347 0.14163893 1.056 7.4606069e-39
0.055684205 0.14122748 1.0530001 7.000363e-39
0.063388363 0.13920531 1.0380001 7.3684225e-39
0.070775695 0.13704793 1.0220001 6.1716786e-39
0.079215333 0.13716902 1.023 6.0791466e-39
0.087412089 0.13688658 1.021 5.618523e-39
0.095948629 0.13713913 1.023 5.8029157e-39
0.10482094 0.13779248 1.028 6.3546741e-39
0.11278071 0.13723831 1.024 6.6315945e-39
0.12031698 0.1362811 1.0170001 6.7245048e-39
0.12925324 0.1369309 1.0220001 7.4602916e-39
0.13961394 0.1389191 1.0370001 9.0286683e-39
0.14778832 0.13862868 1.0350001 1.3454059e-38
0.16000184 0.14195324 1.0600001 1.3824279e-38
-0.0049241469 0.13920653 1.105 2.0279143e-39
0.0041415822 0.13958453 1.108 1.9353725e-39
0.013315998 0.14059086 1.1160001 1.105979e-39
0.02233931 0.13983195 1.11 9.2159056e-40
0.030980382 0.13781185 1.0940001 6.4464634e-40
0.040599622 0.1400732 1.1120001 8.2867466e-40
0.047293928 0.13326381 1.0580001 8.3822087e-39
0.055270668 0.13161775 1.0450001 7.0918384e-39
0.064071059 0.13211155 1.049 6.2624323e-39
0.070926234 0.12895192 1.024 7.3684225e-39
0.07868655 0.12793219 1.016 6.8152515e-39
0.086656012 0.12741503 1.0120001 6.9996568e-39
0.095120214 0.12765211 1.0140001 7.0929328e-39
0.10330832 0.12751032 1.013 6.4479179e-39
0.11158718 0.12749331 1.013 7.6453807e-39
0.12033612 0.12797859 1.0170001 7.5542585e-39
0.13041189 0.12972087 1.031 9.1201423e-39
0.13963547 0.13045524 1.0370001 1.0594915e-38
0.14838198 0.1306853 1.039 1.317675e-38
0.163196 0.13594475 1.0810001 1.4100148e-38
0.17646313 0.13944122 1.1090001 3.8711136e-39
0.19034961 0.1430613 1.138 5.2583655e-39
0.20137133 0.14429122 1.148 6.2707322e-39
-0.013778392 0.12828735 1.0890001 2.7647661e-39
-0.0048848558 0.12911348 1.0960001 1.7499079e-39
0.0041647041 0.13123402 1.1140001 8.290376e-40
0.01336595 0.13193941 1.12 4.6097815e-40
0.021859935 0.1279313 1.0860001 7.3684197e-40
0.030702291 0.12769145 1.0840001 6.4464914e-40
0.0405333 0.13074836 1.11 1.0119883e-39
0.047346413 0.1247341 1.059 8.2892928e-39
0.055173919 0.12284143 1.0430001 6.999277e-39
0.063898213 0.12318528 1.046 7.1843886e-39
0.071907543 0.12223249 1.0380001 6.3567761e-39
0.078776613 0.11974791 1.0170001 6.7237916e-39
0.086412832 0.11879317 1.0090001 7.5539124e-39
0.094666049 0.11877928 1.0090001 7.6457535e-39
0.10301837 0.11888196 1.01 7.0003785e-39
0.11193481 0.11957201 1.016 7.9212558e-39
0.12165608 0.12096687 1.028 7.8297692e-39
0.13144344 0.12224267 1.039 9.5814861e-39
0.13898261 0.12139968 1.0320001 1.1238844e-38
0.14883192 0.12255554 1.0420001 1.2898354e-38
0.16472904 0.12829638 1.0910001 9.0286823e-39
0.17314571 0.12792052 1.0880001 1.28965e-39
0.18619333 0.1308355 1.113 3.7800068e-39
0.19824038 0.13280845 1.13 5.0725435e-39
0.20872405 0.13360496 1.1370001 6.548747e-39
-0.031689212 0.11959366 1.0910001 1.0417712e-38
-0.022664525 0.1191593 1.087 2.4885365e-39
-0.013704633 0.11872359 1.0830001 2.118689e-39
-0.0048945406 0.12036939 1.098 1.1041826e-39
0.0041728388 0.12234271 1.1160001 6.4464914e-40
0.013308376 0.12223174 1.115 4.6097815e-40
0.021662051 0.11795375 1.0760001 7.3684197e-40
0.030565459 0.11827862 1.079 9.2051296e-40
0.040028319 0.12013677 1.0960001 3.1295955e-39
0.047443211 0.11629378 1.0610001 8.288927e-39
0.055235352 0.11442277 1.044 7.9201585e-39
0.06341926 0.11375633 1.0380001 7.736133e-39
0.071918517 0.11374629 1.0380001 7.000363e-39
0.079330832 0.11220104 1.024 6.9070954e-39
0.086768404 0.11098368 1.013 7.3673617e-39
0.094680093 0.11053234 1.0090001 7.0907748e-39
0.10333952 0.11095632 1.013 7.4602664e-39
0.11272235 0.11203628 1.023 8.104561e-39
0.12238365 0.11322447 1.034 9.0272404e-39
0.13082933 0.11320702 1.034 1.004211e-38
0.1392713 0.11318867 1.034 1.0502013e-38
0.14928082 0.11437342 1.0450001 1.2713252e-38
0.16565718 0.12004353 1.097 8.7510024e-39
0.17189521 0.11816164 1.08 1.1059818e-39
0.18153264 0.11868627 1.085 2.1204855e-39
0.19738814 0.1230379 1.125 1.2910821e-39
0.20691383 0.12323212 1.1270001 2.305597e-39
0.21665922 0.12353504 1.13 4.612273e-39
-0.040598124 0.11056128 1.09 2.857319e-39
-0.03143242 0.10975493 1.082 1.2900031e-39
-0.022438481 0.10915013 1.0760001 2.1190449e-39
-0.013643379 0.10935559 1.0780001 1.6577123e-39
-0.0048952647 0.11138579 1.098 1.4740413e-39
0.004177196 0.11331329 1.1170001 9.2123323e-40
0.013011907 0.11057308 1.09 7.3684477e-40
0.021484032 0.10823744 1.067 8.290404e-40
0.030286646 0.10843663 1.069 1.0119883e-39
0.039741971 0.11035892 1.0880001 3.9579073e-39
0.047494859 0.10771556 1.062 7.3662477e-39
0.05545504 0.10628839 1.0480001 7.9190795e-39
0.063489519 0.10536731 1.039 7.184034e-39
0.07206741 0.1054593 1.0400001 7.1836795e-39
0.079574555 0.10413065 1.0270001 6.9074471e-39
0.087123305 0.10310538 1.0170001 7.367719e-39
0.095068693 0.10268752 1.013 7.6432269e-39
0.10396595 0.10328236 1.0190001 7.8276224e-39
0.11295813 0.10387609 1.0250001 1.0040313e-38
0.12180823 0.10426606 1.029 1.1053731e-38
0.13059358 0.10455374 1.0320001 1.0684242e-38
0.13982832 0.10514436 1.0380001 1.1054101e-38
0.1501572 0.10644292 1.051 1.2528862e-38
0.16462091 0.11037303 1.09 3.2207108e-39
0.17096139 0.10873273 1.074 9.2051296e-40
0.17904469 0.10830704 1.0700001 1.2914479e-39
0.19477944 0.1123338 1.11 2.0290101e-39
0.20546892 0.11322179 1.1190001 1.1070538e-39
0.21342394 0.1125915 1.113 2.2133916e-39
0.22107691 0.11185991 1.1060001 4.2416912e-39
-0.076604903 0.10198286 1.0940001 2.027201e-39
-0.068634287 0.10348383 1.11 2.0275682e-39
-0.059970144 0.10423805 1.118 1.2907248e-39
-0.049991257 0.10256692 1.1 2.4878261e-39
-0.040193912 0.10061468 1.079 2.1190435e-39
-0.0312043 0.10015314 1.074 2.2119608e-39
-0.02235814 0.099970177 1.072 1.4743958e-39
-0.013569312 0.099972568 1.072 2.0275696e-39
-0.0048781047 0.10202549 1.0940001 5.1625867e-39
0.0041029686 0.10230531 1.097 4.6097815e-40
0.012822673 0.10015923 1.074 5.5317098e-40
0.021386301 0.099037878 1.062 5.5317098e-40
0.030290801 0.099687234 1.069 1.104184e-39
0.039637811 0.10117465 1.085 3.4058181e-39
0.047635514 0.099303983 1.0650001 6.8141613e-39
0.055621319 0.097991869 1.051 7.6439262e-39
0.063742526 0.09723825 1.0430001 7.5510187e-39
0.072284959 0.097229458 1.0430001 7.0907636e-39
0.080050059 0.096287519 1.033 6.7237916e-39
0.087477468 0.095158406 1.021 7.6435941e-39
0.095362641 0.094680913 1.016 8.1042093e-39
0.10459156 0.095507115 1.0250001 8.65666e-39
0.11352357 0.095959529 1.0300001 9.671151e-39
0.12241547 0.096317813 1.034 1.1885631e-38
0.13124254 0.096582018 1.0370001 1.0778943e-38
0.1406537 0.097217835 1.044 1.1607984e-38
0.15117541 0.098504432 1.0580001 1.317388e-38
0.16403612 0.10109308 1.0860001 6.5361451e-39
0.17082198 0.099864222 1.0730001 9.2051296e-40
0.17822824 0.099100478 1.0650001 1.1988949e-39
0.19058916 0.10103445 1.0860001 1.8439014e-39
0.20549121 0.10408331 1.1190001 1.0130659e-39
0.21267945 0.10313164 1.1090001 1.3818484e-39
0.21930055 0.10199404 1.097 2.6740138e-39
0.2273863 0.10160024 1.0930001 3.5981211e-39
0.23605105 0.10148515 1.092 5.7171898e-39
-0.068828352 0.094652638 1.113 8.3011239e-40
-0.059816714 0.094830438 1.115 9.2230802e-40
0.20459358 0.094517849 1.1140001 3.6888888e-39
0.21365932 0.094497919 1.1140001 4.5186494e-39
