# .PCD v0.7 - Point Cloud Data file format
VERSION 0.7
FIELDS x y z rgb
SIZE 4 4 4 4
TYPE F F F F
COUNT 1 1 1 1
WIDTH 692
HEIGHT 1
VIEWPOINT 0 0 0 1 0 0 0
POINTS 692
DATA ascii
0.12250242 0.31436458 0.93300003 2.6732935e-39
0.12786232 0.30895644 0.91700006 2.3963507e-39
0.13827349 0.31567714 0.93700004 2.5800217e-39
0.14387083 0.31127974 0.92400002 2.7644129e-39
0.15056656 0.30957773 0.91900003 3.0413558e-39
0.15821201 0.30989715 0.92000002 3.4101383e-39
0.16551279 0.30954307 0.91900003 3.2253841e-39
0.1000605 0.30785039 0.93600005 1.9350082e-39
0.10698926 0.30586022 0.93000007 2.3956304e-39
0.11406561 0.30452728 0.92600006 1.6587871e-39
0.12002519 0.30056313 0.91400003 2.1197638e-39
0.12788023 0.30153134 0.91700006 2.2119608e-39
0.13489747 0.30052623 0.91400003 1.8431783e-39
0.14170913 0.29919222 0.91000003 2.2119594e-39
0.14714392 0.29522818 0.89800006 2.6729376e-39
0.15496239 0.29619575 0.90100002 2.7647689e-39
0.16463009 0.30045062 0.91400003 3.1339059e-39
0.1726259 0.30141824 0.91700006 3.5930806e-39
0.085649997 0.3031967 0.94500005 2.2112406e-39
0.09265399 0.30093485 0.93800002 1.7509827e-39
0.098901317 0.29674739 0.92500007 1.6584311e-39
0.10689182 0.29801294 0.92900002 2.3038005e-39
0.11457667 0.29831529 0.93000007 1.8428224e-39
0.12017512 0.29348487 0.91500002 2.0275696e-39
0.12775989 0.2937862 0.91600007 1.8439014e-39
0.13314556 0.28927645 0.90200007 1.4751161e-39
0.14048271 0.28925651 0.90200007 2.3970724e-39
0.14732714 0.28827444 0.89900005 2.489268e-39
0.15480976 0.28857499 0.90000004 2.1197652e-39
0.16140698 0.28727251 0.89600003 3.225747e-39
0.17113888 0.29142055 0.90900004 3.2246624e-39
0.17951016 0.2930038 0.91400003 4.1466187e-39
0.1893938 0.29683125 0.92600006 4.146253e-39
0.077390663 0.29337734 0.93800002 1.7509813e-39
0.084306106 0.29085982 0.93000007 1.8428224e-39
0.090694889 0.28709048 0.91800004 1.5673145e-39
0.097742535 0.28582227 0.91400003 1.8435441e-39
0.10518413 0.28580412 0.91400003 1.3825659e-39
0.11213154 0.28453436 0.91000003 1.4751189e-39
0.11927526 0.28388935 0.90800005 1.5673117e-39
0.12526914 0.28074273 0.89800006 1.7524232e-39
0.13272297 0.2810348 0.89900005 2.1212085e-39
0.13941295 0.27976349 0.89500004 2.0282926e-39
0.14620057 0.27880463 0.89200002 2.3963507e-39
0.15259412 0.27722073 0.88700002 2.4885463e-39
0.15944575 0.27657458 0.88500005 2.7647689e-39
0.1679585 0.27874109 0.89200002 2.9487972e-39
0.1763877 0.28059509 0.89800006 3.3168595e-39
0.18573187 0.28369907 0.90800005 3.500529e-39
0.1963013 0.28836527 0.92300004 4.8830978e-39
0.069985911 0.28671712 0.94100004 2.6722173e-39
0.077405848 0.28578824 0.93800002 1.9353739e-39
0.083506338 0.28059295 0.92100006 1.4751189e-39
0.09249071 0.28514561 0.93600005 1.6595101e-39
0.097011924 0.27629319 0.90700006 1.4751189e-39
0.10462763 0.27688363 0.90900004 1.6595101e-39
0.11202805 0.2768639 0.90900004 2.1204883e-39
0.11890154 0.27562514 0.90500003 1.5673145e-39
0.12515044 0.27316776 0.89700001 1.8446189e-39
0.13126771 0.27071014 0.88900006 2.0282926e-39
0.13974613 0.27312428 0.89700001 1.8439014e-39
0.14589445 0.2709707 0.89000005 2.0282898e-39
0.15192761 0.26881734 0.88300002 2.0268493e-39
0.15838628 0.26757744 0.87900007 2.3956304e-39
0.16685024 0.26968604 0.88600004 2.6722131e-39
0.17405181 0.26966399 0.88600004 3.4090551e-39
0.18432108 0.27420735 0.90100002 2.6714886e-39
0.19376981 0.27722895 0.91100007 4.3302897e-39
0.20338039 0.28025073 0.92100006 4.1462544e-39
0.069777131 0.27821314 0.93800002 2.3963521e-39
0.076761216 0.27582523 0.93000007 1.8431783e-39
0.083885722 0.27432594 0.92500007 1.5673145e-39
0.089148447 0.26748776 0.90200007 1.6595101e-39
0.098528236 0.27310356 0.92100006 1.2914479e-39
0.10499262 0.27041528 0.91200006 1.3829232e-39
0.11019958 0.26505807 0.89400005 1.4751189e-39
0.11747726 0.26503715 0.89400005 1.936097e-39
0.12489302 0.26531193 0.89500004 2.1204855e-39
0.13143742 0.26380754 0.89000005 2.2119594e-39
0.13805479 0.26259929 0.88600004 2.4885477e-39
0.14558932 0.26316896 0.88800007 2.5800231e-39
0.15212248 0.2619603 0.88400006 2.4878261e-39
0.15931007 0.26193693 0.88400006 1.9346537e-39
0.16649637 0.26191354 0.88400006 1.9346537e-39
0.17407438 0.26248279 0.88600004 3.2246638e-39
0.18250224 0.26423711 0.89200002 3.5012493e-39
0.19060117 0.26539916 0.89600003 3.6849203e-39
0.20119365 0.26981962 0.91100007 4.3302897e-39
0.063469924 0.27640629 0.95800006 3.1328409e-39
0.069643058 0.27004462 0.93600005 2.0290101e-39
0.076116741 0.26599014 0.92200005 1.8446217e-39
0.083993621 0.26712734 0.92600006 1.568032e-39
0.090451494 0.26393625 0.91500002 1.751703e-39
0.097263686 0.26218665 0.90900004 1.4751189e-39
0.10282516 0.25755206 0.89300007 1.7517058e-39
0.11083684 0.25926176 0.89900005 1.4751161e-39
0.11723604 0.25722149 0.89200002 2.1197652e-39
0.12477584 0.2577759 0.89400005 2.5807434e-39
0.13146029 0.25659961 0.89000005 2.5800217e-39
0.13807805 0.25542292 0.88600004 2.4878261e-39
0.14479311 0.25453424 0.88300002 2.6722187e-39
0.1523184 0.25508663 0.88500005 2.4878261e-39
0.15933399 0.25477403 0.88400006 2.1190449e-39
0.16670862 0.25503772 0.88500005 2.3034362e-39
0.17409818 0.25530151 0.88600004 1.9346523e-39
0.18191202 0.25614163 0.88900006 2.4874659e-39
0.19126272 0.25899863 0.89900005 3.5023339e-39
0.20077494 0.2618556 0.90900004 2.9495147e-39
0.20976181 0.2638486 0.91600007 4.0551434e-39
0.063086189 0.26696864 0.95200002 3.2257582e-39
0.069062717 0.26022401 0.92800003 2.3959962e-39
0.075472362 0.25628272 0.91400003 1.6598731e-39
0.083194718 0.25710693 0.91700006 1.752426e-39
0.088888161 0.2520422 0.89900005 1.936097e-39
0.095785066 0.25090173 0.89500004 1.6595101e-39
0.10319107 0.2511619 0.89600003 2.2116049e-39
0.11011849 0.25029981 0.89300007 2.5800217e-39
0.11725827 0.24999745 0.89200002 2.7644129e-39
0.12410089 0.24913386 0.88900006 2.5807434e-39
0.13089293 0.24826962 0.88600004 3.0409998e-39
0.13763446 0.24740495 0.88300002 2.7644087e-39
0.1449815 0.24766062 0.88400006 2.3959864e-39
0.15182671 0.24707538 0.88200003 2.3956304e-39
0.15845753 0.24620995 0.87900007 2.0268493e-39
0.16616836 0.24702491 0.88200003 1.9346537e-39
0.17373 0.24755973 0.88400006 2.3034348e-39
0.18255067 0.24977461 0.89200002 2.6722173e-39
0.1904362 0.2505894 0.89500004 3.1335514e-39
0.19903204 0.25224435 0.90100002 3.1342689e-39
0.2107017 0.25753868 0.92000002 2.7654891e-39
0.06323278 0.2598044 0.95400006 2.7655004e-39
0.069152333 0.25298154 0.92900002 2.0279353e-39
0.075736508 0.24969792 0.91700006 2.1212085e-39
0.082395807 0.24723016 0.90800005 1.936097e-39
0.089401349 0.24612272 0.90400004 2.2134042e-39
0.096018955 0.24419743 0.89700001 2.1204855e-39
0.10344238 0.24444909 0.89800006 2.9484511e-39
0.11051035 0.243883 0.89600003 4.8841978e-39
0.11701805 0.24222739 0.89000005 3.3172322e-39
0.12412438 0.24193192 0.88900006 3.0410012e-39
0.1310648 0.2413636 0.88700002 2.4878261e-39
0.13797088 0.24079469 0.88500005 2.3037907e-39
0.14517064 0.24076946 0.88500005 2.3956304e-39
0.15064694 0.23802355 0.87500006 2.5800231e-39
0.15812248 0.23854186 0.87700003 2.5800217e-39
0.16638254 0.24014769 0.88300002 2.4878261e-39
0.1731661 0.23957765 0.88100004 2.6725732e-39
0.18052968 0.23982351 0.88200003 2.8566044e-39
0.18939778 0.24197268 0.89000005 2.3959864e-39
0.19839457 0.24412173 0.89800006 4.1477005e-39
0.20912354 0.24817358 0.91300005 3.3179427e-39
0.062981844 0.25101969 0.95000005 2.5818294e-39
0.069242202 0.2457203 0.93000007 2.3974409e-39
0.075422734 0.24121265 0.91300005 2.9506119e-39
0.082413681 0.23987435 0.90800005 2.674025e-39
0.089222617 0.23827076 0.90200007 2.1201309e-39
0.096360333 0.23772269 0.90000004 2.7647801e-39
0.10323327 0.23664527 0.89600003 9.121971e-39
0.1101626 0.23583104 0.89300007 6.8174361e-39
0.1175672 0.23607218 0.89400005 5.1589868e-39
0.12428796 0.23499216 0.89000005 3.5012647e-39
0.13079387 0.23364753 0.88500005 2.4878275e-39
0.13830794 0.23415035 0.88700002 2.7644129e-39
0.14437608 0.23227692 0.88000005 1.9353739e-39
0.1505006 0.23066726 0.87400001 2.2119608e-39
0.15814868 0.23143271 0.87700003 2.1190449e-39
0.16603217 0.23246153 0.88100004 2.6722173e-39
0.17279944 0.23190704 0.87900007 2.3956304e-39
0.18117024 0.23346306 0.88500005 2.6722131e-39
0.19006269 0.23554642 0.89300007 2.6722103e-39
0.19775791 0.23604715 0.89500004 4.1473404e-39
0.20983689 0.2415587 0.91600007 3.7789208e-39
0.056290541 0.24794552 0.96800005 3.8711276e-39
0.063195117 0.24408978 0.95300007 3.2272016e-39
0.069779083 0.23997673 0.93700004 3.7792978e-39
0.075687401 0.23458225 0.91600007 3.3183196e-39
0.082794905 0.2335403 0.91200006 2.9506147e-39
0.089538723 0.231729 0.90500003 2.5803888e-39
0.096702106 0.23119685 0.90300006 7.3727735e-39
0.10360056 0.23015155 0.89900005 8.4748037e-39
0.11030854 0.22884932 0.89400005 8.475161e-39
0.11706465 0.22780225 0.89000005 9.0268957e-39
0.12431231 0.2277782 0.89000005 8.014536e-39
0.13126232 0.22724146 0.88800007 4.7902071e-39
0.13833366 0.22695999 0.88700002 3.1335626e-39
0.14473034 0.22565454 0.88200003 2.7644129e-39
0.15035473 0.22332561 0.87300003 2.2112406e-39
0.15817544 0.22432201 0.87700003 1.9342977e-39
0.16549379 0.22455062 0.87800002 2.3956318e-39
0.17262992 0.22452328 0.87800002 2.1190449e-39
0.18201648 0.22730851 0.88900006 2.0268479e-39
0.18987711 0.22804782 0.89200002 2.3959836e-39
0.19911088 0.23032102 0.90100002 3.4101355e-39
0.21009316 0.2343832 0.91700006 4.239899e-39
0.04120928 0.24433777 0.98500007 1.2619997e-38
0.048851363 0.24234277 0.97700006 9.849804e-39
0.056710709 0.24183442 0.97500002 3.4094292e-39
0.063209593 0.23636396 0.95300007 4.6090612e-39
0.069794901 0.23238054 0.93700004 6.3607782e-39
0.076282881 0.2288921 0.92300004 4.8852922e-39
0.082904026 0.22639456 0.91300005 3.8714962e-39
0.089954078 0.22538371 0.90900004 3.8707759e-39
0.096294396 0.22288416 0.89900005 1.1888207e-38
0.1032766 0.22211912 0.89600003 1.1055201e-38
0.11008453 0.22110522 0.89200002 1.1423618e-38
0.11708836 0.22058614 0.89000005 1.1607654e-38
0.12419725 0.22031403 0.88900006 1.0593501e-38
0.13069633 0.21904992 0.88400006 7.460649e-39
0.13820377 0.21951969 0.88600004 3.9611639e-39
0.14393626 0.21726356 0.87700003 2.4881918e-39
0.15089825 0.21698907 0.87600005 2.2112406e-39
0.15784189 0.21671417 0.87500006 2.0272136e-39
0.16514428 0.21693432 0.87600005 1.7506268e-39
0.17246091 0.21715418 0.87700003 2.2112406e-39
0.18183967 0.21984968 0.88800007 2.3956304e-39
0.18947928 0.2203166 0.89000005 2.4878261e-39
0.19891779 0.22276369 0.90000004 3.9629561e-39
0.21080858 0.22768532 0.92000002 5.2547683e-39
0.034184452 0.2435566 1.0150001 1.4102675e-38
0.041762974 0.23946843 0.99800003 8.4575369e-39
0.048562702 0.23297936 0.97100008 1.2886879e-38
0.056782037 0.23416677 0.97600007 8.5579904e-39
0.063489482 0.22959442 0.95700002 4.8845719e-39
0.070108801 0.2257407 0.94100004 5.4381016e-39
0.076382704 0.22164606 0.92400002 6.6359344e-39
0.083285727 0.21994913 0.91700006 5.2522796e-39
0.089973778 0.21801123 0.90900004 6.6352155e-39
0.096743703 0.21655197 0.90300006 1.3732488e-38
0.10341378 0.21509171 0.89700001 1.3544851e-38
0.11060121 0.21482943 0.89600003 1.3082429e-38
0.11737543 0.21384688 0.89200002 1.1330347e-38
0.12450151 0.21358266 0.89100003 1.1421818e-38
0.13101757 0.21235891 0.88600004 1.003924e-38
0.13823006 0.21233292 0.88600004 8.2900411e-39
0.14478368 0.2113477 0.88200003 3.5012647e-39
0.15178683 0.21108092 0.88100004 2.0268493e-39
0.15768898 0.20937636 0.87400001 1.935018e-39
0.16517211 0.20982765 0.87600005 1.4740413e-39
0.173079 0.21075754 0.88000005 1.6577109e-39
0.18125367 0.21192649 0.88500005 2.5800231e-39
0.19078526 0.21453173 0.89600003 2.9488042e-39
0.20049368 0.21713644 0.90700006 3.4097824e-39
0.21106653 0.22045876 0.92100006 5.530635e-39
0.033956718 0.23369777 1.008 1.3449772e-38
0.041730933 0.23113863 0.99700004 1.4733685e-38
0.049424462 0.2290415 0.98800004 1.2617504e-38
0.056853391 0.22647916 0.97700006 1.1331433e-38
0.063902222 0.22321999 0.96300006 6.0823962e-39
0.070273794 0.21856888 0.94300002 8.9401062e-39
0.076730624 0.21507567 0.92800003 1.1151728e-38
0.083031707 0.21181329 0.91400003 9.0312313e-39
0.090389512 0.21156244 0.91300005 1.1612712e-38
0.096764594 0.20922497 0.90300006 1.4191312e-38
0.10366638 0.20827673 0.89900005 1.317643e-38
0.11050083 0.20732756 0.89500004 1.2992032e-38
0.116873 0.20568259 0.88800007 1.2896594e-38
0.12396743 0.20542656 0.88700002 1.2250139e-38
0.13089535 0.20493813 0.88500005 1.068281e-38
0.13732022 0.20375437 0.88000005 8.932891e-39
0.14513902 0.20465375 0.88400006 5.3426578e-39
0.15198664 0.20416342 0.88200003 2.3030761e-39
0.15952124 0.20459849 0.88400006 2.0264934e-39
0.16633172 0.20410737 0.88200003 1.9342977e-39
0.17448442 0.20523575 0.88700002 1.9342977e-39
0.18333077 0.2070577 0.89500004 2.3034348e-39
0.19358277 0.21026698 0.90900004 2.6722173e-39
0.20207044 0.21139388 0.91400003 3.5948953e-39
0.033998404 0.2257383 1.0090001 1.2986643e-38
0.042117503 0.22505824 1.006 1.0306846e-38
0.050336629 0.22504748 1.006 1.1140927e-38
0.057797808 0.22212687 0.99300003 1.4282777e-38
0.063717745 0.21473129 0.96000004 6.3582671e-39
0.070215203 0.21069001 0.94200003 1.0506359e-38
0.077078663 0.20843689 0.93200004 1.2717616e-38
0.083413586 0.20528814 0.91800004 1.2626141e-38
0.09060733 0.20459814 0.91500002 1.2902727e-38
0.096999817 0.2023419 0.90500003 1.4929955e-38
0.10391905 0.20142616 0.90100002 1.4098031e-38
0.11052386 0.20006236 0.89500004 1.3267907e-38
0.11729185 0.1991448 0.89100003 1.3173904e-38
0.12385249 0.19800293 0.88600004 1.2434533e-38
0.13092102 0.19775425 0.88500005 1.1420018e-38
0.13797082 0.19750474 0.88400006 1.0130715e-38
0.14647985 0.19926511 0.89200002 5.9865867e-39
0.15528893 0.20124769 0.90100002 3.4998228e-39
0.16135426 0.19965591 0.89400005 2.3030761e-39
0.16862357 0.19962721 0.89400005 2.2108846e-39
0.17648073 0.20026797 0.89700001 1.9346537e-39
0.18561359 0.20224772 0.90600002 2.6718572e-39
0.19616842 0.20556602 0.92100006 3.0409998e-39
0.20409024 0.20598221 0.92300004 4.239543e-39
0.034141164 0.2184052 1.013 1.381783e-38
0.042043552 0.21645598 1.0040001 9.7504225e-39
0.050148077 0.21601416 1.0020001 1.2249787e-38
0.058276832 0.21578614 1.001 1.4651914e-38
0.063665859 0.20671859 0.95900005 1.1149922e-38
0.070007376 0.20239252 0.93900007 1.4468608e-38
0.076930419 0.20043632 0.93000007 1.4560805e-38
0.083613731 0.19826344 0.92000002 1.4652648e-38
0.090627052 0.19716696 0.91500002 1.3915803e-38
0.097342253 0.19563842 0.90800005 1.4561529e-38
0.10405637 0.19432439 0.90200007 1.391436e-38
0.11079384 0.1932248 0.89700001 1.2991323e-38
0.11784241 0.19277056 0.89500004 1.2896963e-38
0.12457633 0.19188468 0.89100003 1.2527814e-38
0.13124256 0.19099808 0.88700002 1.1789881e-38
0.13877772 0.19140264 0.88900006 1.0591337e-38
0.14585018 0.19116056 0.88800007 9.3935174e-39
0.15480001 0.19328548 0.89800006 4.4185449e-39
0.16300741 0.19433318 0.90300006 2.7622577e-39
0.17129354 0.19538011 0.90800005 2.3030761e-39
0.17946167 0.19621122 0.91200006 2.5789413e-39
0.18830706 0.19768713 0.91900003 3.6834938e-39
0.19768986 0.19959265 0.92800003 4.6065333e-39
0.20810114 0.20235774 0.94100004 1.0507777e-38
0.035227817 0.21681204 1.0450001 1.4379615e-38
0.042262662 0.20933418 1.0090001 1.5015298e-38
0.05040985 0.20890868 1.0070001 1.187668e-38
0.057940692 0.20640698 0.99500006 1.3084233e-38
0.063746616 0.19913295 0.96000004 1.3821798e-38
0.070470452 0.19600666 0.94500005 1.5020343e-38
0.077195644 0.19350144 0.93300003 1.4929235e-38
0.083904728 0.19140996 0.92300004 1.4837039e-38
0.090745687 0.18993953 0.91600007 1.4561173e-38
0.097684652 0.18888271 0.91100007 1.4468977e-38
0.10453971 0.18782483 0.90600002 1.3453382e-38
0.11143439 0.1869733 0.90200007 1.2345231e-38
0.11839305 0.18632811 0.89900005 1.2804767e-38
0.12585968 0.18651101 0.90000004 1.2620011e-38
0.13215601 0.18503521 0.89300007 1.1790246e-38
0.13942865 0.1850092 0.89300007 1.1052318e-38
0.14686291 0.18518956 0.89400005 1.0774654e-38
0.15379353 0.18474786 0.89200002 1.0129276e-38
0.16213334 0.18596235 0.89800006 8.840331e-39
0.17019071 0.18676192 0.90200007 8.6559383e-39
0.17772007 0.18693976 0.90300006 8.9318049e-39
0.18669771 0.18856619 0.91100007 1.0868635e-38
0.19772036 0.19205457 0.92800003 1.483738e-38
0.21321921 0.19947331 0.96400005 9.1248436e-39
0.042691227 0.20312341 1.0190001 1.4186629e-38
0.050471313 0.20092027 1.008 1.474195e-38
0.057429489 0.19652316 0.98600006 1.455684e-38
0.063960068 0.19192563 0.96300006 1.4742674e-38
0.070635177 0.18872215 0.94700003 1.5021063e-38
0.077874571 0.1875103 0.94100004 1.4468977e-38
0.084195621 0.18450396 0.92600006 1.4376783e-38
0.091161385 0.18328984 0.92000002 1.4006921e-38
0.098134197 0.18227385 0.91500002 1.4283865e-38
0.10502302 0.18125679 0.91000003 1.326827e-38
0.11170425 0.18003963 0.90400004 1.298988e-38
0.11841679 0.17902079 0.89900005 1.2344145e-38
0.12574454 0.17899671 0.89900005 1.2343068e-38
0.13292158 0.17877261 0.89800006 1.1697333e-38
0.14039192 0.17894578 0.89900005 1.1328551e-38
0.14738287 0.17852107 0.89700001 1.1235635e-38
0.15571803 0.17968769 0.90300006 1.068245e-38
0.16306457 0.17965961 0.90300006 1.0221106e-38
0.17116317 0.18042672 0.90700006 1.0036715e-38
0.17932408 0.18119319 0.91100007 9.8534011e-39
0.18877713 0.18315229 0.92100006 1.2529962e-38
0.20179956 0.18829183 0.94700003 1.4839176e-38
0.042910296 0.19578946 1.024 1.4191998e-38
0.050432462 0.19252883 1.0070001 1.5109658e-38
0.057500437 0.18869327 0.98700005 1.4740875e-38
0.06443911 0.18543002 0.97000003 1.4373535e-38
0.071023546 0.18197455 0.95200002 1.4928868e-38
0.078636296 0.18157622 0.95000005 1.3454825e-38
0.085032031 0.17869201 0.93500006 1.4377858e-38
0.091378763 0.17618915 0.92200005 1.4560095e-38
0.098476358 0.17540517 0.91800004 1.3637418e-38
0.10539079 0.17442907 0.91300005 1.3637053e-38
0.1119739 0.17306994 0.90600002 1.2898404e-38
0.11896717 0.17247406 0.90300006 1.262001e-38
0.12632854 0.17245026 0.90300006 1.1605135e-38
0.13383514 0.17261642 0.90400004 1.1788806e-38
0.1413552 0.17278165 0.90500003 1.0774294e-38
0.14888869 0.17294605 0.90600002 1.1051244e-38
0.15678053 0.1734914 0.90900004 1.0313667e-38
0.16417642 0.17346348 0.90900004 1.0313302e-38
0.17307939 0.17496143 0.91700006 1.0221106e-38
0.18151896 0.17588618 0.92200005 1.0499498e-38
0.191882 0.17852689 0.93600005 1.2716157e-38
0.2039616 0.18250138 0.95700002 1.3548072e-38
0.050543655 0.18469836 1.0090001 1.3637047e-38
0.057338089 0.18011059 0.98400003 1.4649045e-38
0.064386539 0.17735212 0.96900004 1.4557926e-38
0.071262553 0.17477545 0.95500004 1.4651205e-38
0.078901276 0.17439368 0.95300007 1.3455181e-38
0.087414809 0.17584029 0.96100003 1.3087839e-38
0.092388913 0.17051578 0.93200004 1.2900928e-38
0.098496415 0.16793516 0.91800004 1.1424712e-38
0.1055274 0.16718304 0.91400003 1.2991683e-38
0.11286134 0.16697861 0.91300005 1.2899488e-38
0.11925382 0.16549307 0.90500003 1.3081355e-38
0.1267724 0.16565247 0.90600002 1.1604417e-38
0.1343044 0.16581087 0.90700006 1.1512213e-38
0.14231844 0.16651669 0.91100007 1.0774648e-38
0.1492441 0.16594221 0.90800005 1.0867207e-38
0.15698044 0.16628084 0.91000003 1.0497341e-38
0.16510762 0.16698413 0.91400003 1.0496252e-38
0.17367442 0.16805197 0.92000002 1.0865754e-38
0.18332033 0.17003219 0.93100005 1.16062e-38
0.19683273 0.17529821 0.96000004 1.3270406e-38
0.050504334 0.17630616 1.008 1.446645e-38
0.057525102 0.17262188 0.98700005 1.4742684e-38
0.064599462 0.1699858 0.97200006 1.5019271e-38
0.07150133 0.16752344 0.95800006 1.4466816e-38
0.078751966 0.16628402 0.95100003 1.3084599e-38
0.08715973 0.16749109 0.95800006 1.1886776e-38
0.094787173 0.16712317 0.95600003 1.3914726e-38
0.10066237 0.16395731 0.93800002 1.1148491e-38
0.10728032 0.1623639 0.92900002 8.9361518e-39
0.11374865 0.16076976 0.92000002 1.1425432e-38
0.1208581 0.16022329 0.91700006 1.151475e-38
0.12819563 0.16002536 0.91600007 1.188137e-38
0.13551386 0.15982653 0.91500002 1.1051244e-38
0.142969 0.15980153 0.91500002 1.0405874e-38
0.15025669 0.15960112 0.91400003 1.0958691e-38
0.15804259 0.15992385 0.91600007 1.0589537e-38
0.16585794 0.16024584 0.91800004 1.0773204e-38
0.17615719 0.16283606 0.93300003 1.1052316e-38
0.18728812 0.16594844 0.95100003 1.2623604e-38
0.044447433 0.17677404 1.0600001 1.4562927e-38
0.050715294 0.16875961 1.0120001 1.3914714e-38
0.057886757 0.16558021 0.99300003 1.4650844e-38
0.065078035 0.16323332 0.97900003 1.4743046e-38
0.071739823 0.16021846 0.96100003 1.4743046e-38
0.078685001 0.1583696 0.95000005 1.3083164e-38
0.086904101 0.15918672 0.95500004 1.3176077e-38
0.094905011 0.15950231 0.95700002 9.0294348e-39
0.1014333 0.15748346 0.94500005 9.950668e-39
0.10926443 0.15763003 0.94600004 1.0041063e-38
0.11785103 0.15877503 0.95300007 8.9350672e-39
0.12470338 0.15758646 0.94600004 7.8290769e-39
0.13129851 0.15623063 0.93800002 9.5797163e-39
0.13790819 0.15504079 0.93100005 1.0867938e-38
0.14455688 0.15401697 0.92500007 1.0959414e-38
0.15225558 0.15415801 0.92600006 1.0314044e-38
0.16013989 0.15446474 0.92800003 1.0405871e-38
0.16823424 0.15493716 0.93100005 1.1236707e-38
0.17750715 0.15640721 0.94000006 1.1054832e-38
0.19105956 0.16136988 0.97000003 1.3270041e-38
0.044624224 0.1687663 1.064 1.410232e-38
0.050825786 0.16082625 1.0140001 1.4376048e-38
0.05807329 0.15796065 0.99600005 1.5112183e-38
0.06535694 0.15588684 0.98300004 1.5111828e-38
0.072500646 0.15397048 0.97100008 1.465049e-38
0.079280287 0.15173593 0.95700002 1.4280266e-38
0.086647876 0.15092731 0.95200002 1.252927e-38
0.095319927 0.15233682 0.96100003 1.2531071e-38
0.10284811 0.15184273 0.95800006 7.5528642e-39
0.10997793 0.15087213 0.95200002 7.2748284e-39
0.11651213 0.14926682 0.94200003 6.8124069e-39
0.12433039 0.14940365 0.94300002 9.6733637e-39
0.13174185 0.14906423 0.94100004 1.326827e-38
0.14015456 0.14983264 0.94600004 1.1329637e-38
0.15005223 0.15202518 0.96000004 8.4733688e-39
0.15721457 0.1513662 0.95600003 7.7368841e-39
0.16534388 0.15165657 0.95800006 7.2762633e-39
0.17386375 0.15226272 0.96200007 7.0000281e-39
0.18433395 0.1544506 0.97600007 8.2914774e-39
0.029409559 0.17304128 1.1500001 1.3182521e-38
0.039129518 0.17438887 1.159 1.3643853e-38
0.04526221 0.16234376 1.079 1.2996336e-38
0.051136523 0.15345775 1.0200001 1.4192023e-38
0.058084562 0.14983663 0.99600005 1.5019987e-38
0.065436035 0.14801969 0.98400003 1.5111828e-38
0.072663866 0.14635205 0.97300005 1.4466459e-38
0.079875305 0.14498414 0.96400005 1.4280267e-38
0.086937226 0.1436152 0.95500004 1.3171398e-38
0.09474235 0.14359854 0.95500004 1.2158688e-38
0.10265218 0.14373106 0.95600003 1.0685358e-38
0.10965116 0.14265975 0.94900006 9.3946188e-39
0.11665656 0.14173792 0.94300002 1.1792786e-38
0.12408841 0.14141646 0.94100004 1.2069372e-38
0.13022423 0.13974175 0.93000007 1.3726369e-38
0.14047462 0.14242356 0.94800007 9.8534207e-39
0.14929545 0.14345126 0.95500004 5.7085775e-39
0.15904932 0.14522879 0.96700007 2.9452295e-39
0.16744153 0.14565356 0.97000003 6.4475788e-39
0.17822891 0.14802922 0.98600006 8.475161e-39
0.18832859 0.14965294 0.99700004 1.1978947e-38
-0.026040867 0.15725227 1.105 5.6250194e-39
-0.017005807 0.1573986 1.1060001 3.4123243e-39
-0.0079825558 0.15811253 1.1110001 2.6747495e-39
0.001127896 0.15953633 1.1210001 3.1357262e-39
0.010374542 0.16053146 1.128 2.6740278e-39
0.019787692 0.16195178 1.138 2.5818294e-39
0.029236117 0.16265874 1.143 2.4889135e-39
0.038799275 0.16350622 1.149 2.4892708e-39
0.046571419 0.15794858 1.11 1.2904154e-38
0.051747866 0.14684072 1.0320001 1.3363703e-38
0.058445405 0.14256211 1.0020001 1.4836319e-38
0.065514714 0.14013214 0.98500007 1.501999e-38
0.072901346 0.13883924 0.97600007 1.5019272e-38
0.080138512 0.13754527 0.96700007 1.4833441e-38
0.087499231 0.13667695 0.96100003 1.3632378e-38
0.094759278 0.13580762 0.95500004 1.2893011e-38
0.10224072 0.13536386 0.95200002 1.2248362e-38
0.10978582 0.13506129 0.95000005 1.4187715e-38
0.11667658 0.13404696 0.94300002 1.4834525e-38
0.1237137 0.1333162 0.93800002 1.5110028e-38
0.13038592 0.13230051 0.93100005 1.1051244e-38
0.14242418 0.13654132 0.96100003 1.086685e-38
0.15229009 0.1383649 0.97400004 7.9180342e-39
0.1621998 0.14004503 0.98600006 8.2868153e-39
0.17092013 0.14058776 0.99000007 1.0500585e-38
0.1793403 0.14084572 0.99200004 1.1701277e-38
-0.035065111 0.14808893 1.1040001 4.1506138e-39
-0.025809927 0.14688709 1.095 3.1371878e-39
-0.016916655 0.14756165 1.1 2.3992514e-39
-0.0080558863 0.15038101 1.1210001 1.7527918e-39
0.0011421922 0.15225974 1.1350001 1.4754818e-39
0.010459239 0.15252699 1.1370001 1.5669572e-39
0.019913061 0.15359744 1.1450001 1.5669572e-39
0.029343804 0.15386133 1.1470001 1.7506282e-39
0.038603708 0.1533187 1.143 9.6776615e-39
0.046244167 0.14781162 1.102 1.2719045e-38
0.052459344 0.1402918 1.046 1.3547377e-38
0.059039291 0.13572201 1.0120001 1.4558654e-38
0.066258155 0.13356531 0.99600005 1.4834881e-38
0.073362477 0.13167585 0.98200005 1.4927077e-38
0.080649883 0.13045584 0.97300005 1.4372463e-38
0.088060804 0.12963705 0.96700007 1.3263595e-38
0.095569462 0.12908533 0.96300006 1.2614981e-38
0.10300994 0.12853263 0.95900005 1.2248718e-38
0.11026651 0.12784497 0.95400006 1.4280267e-38
0.11719081 0.1268885 0.94700003 1.4465743e-38
0.12346996 0.12539546 0.93600005 1.4186272e-38
0.13110708 0.12537542 0.93600005 1.0127482e-38
0.14392878 0.13004193 0.97100008 9.9441646e-39
0.15153161 0.12975165 0.96900004 1.0126039e-38
0.16107254 0.13106728 0.97900003 1.0127115e-38
0.17111801 0.13264944 0.99100006 1.105195e-38
-0.044234544 0.13944033 1.107 4.7037876e-39
-0.034721784 0.13768351 1.0930001 3.0468012e-39
-0.025578693 0.13668087 1.085 3.0439159e-39
-0.016811948 0.1376923 1.0930001 2.2141385e-39
-0.0081147999 0.14222965 1.1290001 2.0286584e-39
0.0011514513 0.14411992 1.1440001 1.0137862e-39
0.010553081 0.14449686 1.1470001 8.2939213e-40
0.019951336 0.14449424 1.1470001 4.7815639e-39
0.029118642 0.14335629 1.138 1.1704159e-38
0.037563257 0.14007542 1.1120001 1.2996352e-38
0.046000361 0.13805288 1.0960001 1.2718688e-38
0.053070337 0.13325816 1.0580001 1.2442824e-38
0.059807956 0.12909238 1.0250001 1.4743766e-38
0.067200921 0.12719269 1.01 1.4743046e-38
0.074346222 0.12529208 0.99500006 1.4280987e-38
0.081575297 0.12389421 0.98400003 1.3265036e-38
0.088804044 0.12274724 0.97500002 1.2526029e-38
0.096379191 0.12222881 0.97100008 1.1694821e-38
0.10377864 0.12158354 0.96600002 1.2525662e-38
0.11039973 0.12018234 0.95500004 1.326107e-38
0.11745681 0.11940967 0.94900006 1.4830921e-38
0.12348912 0.11775567 0.93600005 1.3816769e-38
0.13196765 0.11849125 0.94200003 1.0956166e-38
0.14513634 0.12312452 0.97900003 9.112253e-39
0.15327433 0.12322864 0.98000002 1.0493747e-38
0.16356404 0.12496636 0.99400002 1.1326023e-38
-0.053550657 0.13097323 1.1120001 3.7814754e-39
-0.043962087 0.12956759 1.1 2.4932757e-39
-0.034600444 0.12827821 1.0890001 2.7698598e-39
-0.02544147 0.12710507 1.079 2.3996227e-39
-0.016722444 0.12805091 1.087 1.8449986e-39
-0.0079076774 0.12958434 1.1 3.0413698e-39
0.0011466099 0.13417926 1.1390001 2.3009223e-39
0.010361594 0.13264687 1.126 3.8621215e-39
0.019519726 0.13217324 1.1220001 1.022362e-38
0.028534863 0.13134475 1.115 1.2348463e-38
0.037231613 0.1298081 1.102 1.3087473e-38
0.045714103 0.12827018 1.0890001 1.2809809e-38
0.053329878 0.12519987 1.0630001 1.1980771e-38
0.060167849 0.12142202 1.031 1.3545943e-38
0.067611083 0.11964543 1.016 1.3914005e-38
0.074881285 0.11798567 1.0020001 1.4282068e-38
0.081671193 0.11597184 0.98500007 1.2715099e-38
0.088726938 0.11466366 0.97400004 1.1147765e-38
0.095997125 0.11382557 0.96700007 1.2343789e-38
0.10390207 0.11381049 0.96700007 1.2066847e-38
0.11087899 0.11285301 0.95900005 1.5476291e-38
0.11710306 0.11130658 0.94600004 1.4369223e-38
0.12377125 0.11034792 0.93800002 1.2984483e-38
0.13338794 0.11197644 0.95200002 1.1969955e-38
0.14649151 0.1161909 0.98800004 9.2984435e-39
0.15611142 0.11734597 0.99800003 1.0035653e-38
0.17132145 0.12237941 1.041 1.1512939e-38
-0.1032661 0.12697318 1.159 2.5818294e-39
-0.094349265 0.12775448 1.166 2.7662234e-39
-0.085387588 0.12864424 1.174 2.8584163e-39
-0.074614018 0.12668359 1.156 2.3981724e-39
-0.062723897 0.12198135 1.113 2.677667e-39
-0.053318135 0.12133245 1.107 3.0471698e-39
-0.043928973 0.12046294 1.0990001 2.4936442e-39
-0.03457408 0.11926312 1.0880001 2.5861916e-39
-0.025303973 0.1176234 1.0730001 3.136836e-39
-0.016601983 0.11828431 1.079 1.937197e-39
-0.0078585939 0.11982093 1.0930001 2.3034474e-39
0.0011226262 0.12223322 1.115 2.667544e-39
0.010234377 0.12190349 1.1120001 3.6773757e-39
0.019261794 0.1213531 1.107 7.2730053e-39
0.028257789 0.12102062 1.1040001 1.253249e-38
0.03703469 0.1201387 1.0960001 1.2258433e-38
0.045679234 0.11925555 1.0880001 1.2626141e-38
0.053388316 0.11661752 1.064 1.1243206e-38
0.0605857 0.11375941 1.0380001 1.3454105e-38
0.068220437 0.11232515 1.0250001 1.3454105e-38
0.075565331 0.11078039 1.011 1.2255194e-38
0.083507888 0.11033046 1.0070001 7.4606546e-39
0.090744555 0.10911267 0.99600005 8.2900607e-39
0.097798452 0.10789414 0.98500007 8.3822535e-39
0.10456198 0.10656539 0.97300005 8.2904152e-39
0.11286073 0.10687868 0.97600007 1.2161562e-38
0.11860532 0.10489167 0.95800006 1.464797e-38
0.12405247 0.10290443 0.94000006 1.2153637e-38
0.1364892 0.10660869 0.97400004 1.3077375e-38
0.14888392 0.10987319 1.0040001 9.5757492e-39
0.16254635 0.11368287 1.039 1.0037812e-38
0.18401757 0.12230386 1.118 1.0685698e-38
0.19295238 0.12217095 1.1170001 2.5796686e-39
0.2025899 0.12247489 1.12 4.425742e-39
0.22115576 0.12791669 1.1700001 2.6736593e-39
-0.10203301 0.11607654 1.1450001 2.8602295e-39
-0.093957976 0.11771201 1.161 9.230325e-40
-0.084890597 0.11833268 1.1670001 6.4680994e-40
-0.073333673 0.11520011 1.136 2.4907422e-39
-0.062169347 0.11186294 1.103 2.8620554e-39
-0.052699685 0.11095823 1.0940001 2.6776642e-39
-0.043695536 0.1108636 1.0930001 2.586193e-39
-0.03448382 0.11005768 1.085 2.6783886e-39
-0.025236946 0.10854036 1.0700001 3.2304722e-39
-0.01645055 0.10844188 1.069 2.2145056e-39
-0.0077662733 0.10955949 1.08 2.2126951e-39
0.0011107087 0.11189319 1.103 2.3931207e-39
0.010171455 0.11209528 1.105 3.3100337e-39
0.019142821 0.11158597 1.1 4.7819184e-39
0.028082753 0.11127827 1.097 1.0781124e-38
0.036938746 0.11086791 1.0930001 1.3272227e-38
0.045517951 0.10994918 1.0840001 1.3178958e-38
0.053546641 0.10821794 1.067 1.1703108e-38
0.061061468 0.10608011 1.046 1.2993847e-38
0.068363376 0.10414429 1.0270001 1.179638e-38
0.075202338 0.10200492 1.006 1.1150642e-38
0.082939103 0.10138571 1 8.6602837e-39
0.091303989 0.10157664 1.0020001 1.2162646e-38
0.098705694 0.10075291 0.99400002 1.0961224e-38
0.1065109 0.10043519 0.99100006 9.0247475e-39
0.11391686 0.099812664 0.98500007 8.0127479e-39
0.12270723 0.10040526 0.99100006 8.013471e-39
0.12974425 0.099578649 0.98300004 1.013217e-38
0.1416924 0.10239775 1.011 6.6294449e-39
0.15498354 0.10582273 1.0450001 8.0120137e-39
0.17383209 0.11248567 1.1110001 8.6563055e-39
0.18618006 0.11448893 1.131 1.196018e-39
0.19349374 0.11335331 1.12 2.2116063e-39
0.20044275 0.11211639 1.108 2.7662206e-39
0.21513161 0.11512846 1.138 4.5186607e-39
0.22872661 0.11732968 1.1600001 9.2230802e-40
0.23548889 0.1159902 1.1470001 2.0290129e-39
0.24374269 0.11545981 1.1420001 2.3048767e-39
-0.097679317 0.1021434 1.0960001 3.2319169e-39
-0.088628404 0.10206198 1.095 3.3219476e-39
-0.079663746 0.10207274 1.095 3.0446404e-39
-0.070954695 0.10245532 1.0990001 3.3212259e-39
-0.061670408 0.10199778 1.0940001 2.1226841e-39
-0.052465957 0.10153904 1.0890001 2.3074397e-39
-0.043501589 0.10145208 1.0880001 2.4925554e-39
-0.034329612 0.10071122 1.08 1.9404677e-39
-0.025193237 0.099596113 1.0680001 3.2301177e-39
-0.016391255 0.0993191 1.0650001 2.3063509e-39
-0.0077098096 0.099973515 1.072 2.2134182e-39
0.0010967623 0.10155937 1.0890001 2.3027257e-39
0.010108415 0.10239796 1.098 3.4937047e-39
0.019075843 0.1022095 1.0960001 4.6886466e-39
0.027856188 0.10146034 1.0880001 7.0788946e-39
0.036707208 0.10126957 1.0860001 1.3180021e-38
0.045398172 0.10079794 1.0810001 1.2994567e-38
0.053252768 0.098926626 1.0610001 1.2901653e-38
0.062003851 0.099012345 1.062 1.0135784e-38
0.069504306 0.09732572 1.044 7.4646202e-39
0.14731617 0.097858429 1.051 7.0904203e-39
0.16301158 0.10230947 1.0990001 5.058871e-39
0.17463472 0.10387281 1.1160001 5.607719e-39
0.18537813 0.10478348 1.126 3.8603278e-39
0.19420651 0.10457673 1.1240001 1.6577123e-39
0.19956003 0.10260211 1.103 2.8569757e-39
0.20815924 0.10239485 1.1010001 3.6881769e-39
0.22263727 0.10497672 1.1290001 3.9647638e-39
0.23571812 0.10672048 1.148 9.2230802e-40
0.24312636 0.10586081 1.1390001 1.2910905e-39
0.24883278 0.10435085 1.123 3.5034227e-39
0.24400251 0.096901715 1.143 8.3011239e-40
