# .PCD v0.7 - Point Cloud Data file format
VERSION 0.7
FIELDS x y z rgb
SIZE 4 4 4 4
TYPE F F F F
COUNT 1 1 1 1
WIDTH 917
HEIGHT 1
VIEWPOINT 0 0 0 1 0 0 0
POINTS 917
DATA ascii
-0.23282157 0.26165801 1.118 3.4065355e-39
-0.22818598 0.26332065 1.125 4.051542e-39
-0.22268371 0.26404724 1.128 4.4203217e-39
-0.21637979 0.26383743 1.1270001 4.0515392e-39
-0.21008545 0.26362747 1.126 3.9593464e-39
-0.20452534 0.26435387 1.1290001 3.6827567e-39
-0.19752555 0.26320684 1.1240001 4.696903e-39
-0.25706726 0.26170671 1.1450001 4.6043388e-39
-0.25108805 0.26196003 1.146 5.8003625e-39
-0.24210541 0.25901306 1.133 6.2606232e-39
-0.23513682 0.25812322 1.1290001 7.0903811e-39
-0.22861612 0.25769049 1.1270001 6.9049094e-39
-0.22211583 0.25725761 1.125 6.3517356e-39
-0.21544397 0.25659588 1.1220001 6.8127138e-39
-0.21048273 0.2579923 1.128 8.010901e-39
-0.20491165 0.25870261 1.131 9.9466449e-39
-0.19807643 0.25781152 1.1270001 8.5644307e-39
-0.19281623 0.25897896 1.1320001 8.9332203e-39
-0.18733552 0.25991753 1.136 6.6294057e-39
-0.26305917 0.25526139 1.1440001 7.7364707e-39
-0.25619388 0.25461668 1.141 1.0775684e-38
-0.24826443 0.25285617 1.133 1.2156809e-38
-0.24084789 0.25154173 1.1270001 1.2895083e-38
-0.23370342 0.25045025 1.1220001 1.3263157e-38
-0.22722051 0.25002828 1.12 1.4092562e-38
-0.22115296 0.25005269 1.12 1.5014163e-38
-0.21508414 0.25007698 1.12 1.5382946e-38
-0.20938724 0.25054774 1.1220001 1.5014874e-38
-0.20384848 0.25124168 1.125 1.6303841e-38
-0.19792436 0.25148886 1.126 1.6673685e-38
-0.19301008 0.25307599 1.133 1.7133602e-38
-0.18785356 0.25443968 1.1390001 1.750275e-38
-0.18263055 0.25580332 1.1450001 1.5016331e-38
-0.17672469 0.25627303 1.1470001 8.4722533e-39
-0.27045122 0.25013199 1.149 8.5665859e-39
-0.26216403 0.24819738 1.1400001 1.1974579e-38
-0.25419775 0.24648029 1.1320001 1.2709627e-38
-0.24631688 0.24476288 1.1240001 1.2986214e-38
-0.23959017 0.24413416 1.1210001 1.372306e-38
-0.2326864 0.2432875 1.1170001 1.4275878e-38
-0.22663631 0.24331196 1.1170001 1.4182973e-38
-0.2205849 0.24333631 1.1170001 1.4460971e-38
-0.21434011 0.24314266 1.1160001 1.6119791e-38
-0.20847812 0.24338463 1.1170001 1.630455e-38
-0.2033288 0.24449807 1.1220001 1.6304196e-38
-0.19759646 0.24495769 1.1240001 1.6487504e-38
-0.19218177 0.24585299 1.128 1.6671895e-38
-0.18688719 0.24696609 1.133 1.7410898e-38
-0.18169646 0.24829707 1.1390001 1.7319423e-38
-0.17736374 0.25093594 1.151 1.7044278e-38
-0.17230462 0.25270271 1.159 1.4926656e-38
-0.27741468 0.24452269 1.1520001 4.6958142e-39
-0.26953441 0.24306153 1.1450001 1.1607241e-38
-0.26034886 0.24032637 1.1320001 1.1605076e-38
-0.25152749 0.23780315 1.12 1.2340845e-38
-0.24436903 0.23676592 1.115 1.2524872e-38
-0.2381185 0.23657802 1.1140001 1.3077684e-38
-0.23146085 0.23596524 1.1110001 1.3999286e-38
-0.22584903 0.23641436 1.113 1.4460261e-38
-0.21922667 0.23580131 1.11 1.4551382e-38
-0.21321173 0.23582536 1.11 1.5473341e-38
-0.20812875 0.23691164 1.115 1.547336e-38
-0.20262767 0.23757292 1.118 1.5934336e-38
-0.19674098 0.23780906 1.1190001 1.6672978e-38
-0.19118279 0.23847002 1.1220001 1.6672976e-38
-0.18592055 0.2395559 1.1270001 1.7687128e-38
-0.180443 0.240429 1.131 1.6767322e-38
-0.17569117 0.24236488 1.1400001 1.7504534e-38
-0.17113751 0.24472587 1.151 1.7230109e-38
-0.16646294 0.24708682 1.1620001 8.9353825e-39
-0.27695772 0.23787028 1.1500001 1.1884554e-38
-0.26767576 0.23520578 1.1370001 1.1236294e-38
-0.2587634 0.23274778 1.125 1.1234852e-38
-0.25110275 0.23132394 1.118 1.2063175e-38
-0.24417426 0.23052068 1.1140001 1.2432314e-38
-0.23750158 0.2299242 1.1110001 1.2985485e-38
-0.2312768 0.22974153 1.11 1.317094e-38
-0.2248586 0.22935177 1.108 1.4181892e-38
-0.21905327 0.22958289 1.1090001 1.4551753e-38
-0.21285149 0.22939982 1.108 1.5196765e-38
-0.20740588 0.23004475 1.1110001 1.5105287e-38
-0.20174503 0.23048255 1.113 1.621128e-38
-0.19641274 0.23133437 1.1170001 1.6580063e-38
-0.19052431 0.23156469 1.118 1.6949567e-38
-0.1852835 0.23262328 1.123 1.7596375e-38
-0.17998692 0.23368171 1.128 1.7688572e-38
-0.17494285 0.2351543 1.1350001 1.7135387e-38
-0.16996998 0.23683389 1.143 1.7228669e-38
-0.16490871 0.23851332 1.151 1.5203245e-38
-0.15920772 0.23936358 1.1550001 6.4478955e-39
-0.28271005 0.23121387 1.148 4.6039829e-39
-0.27505556 0.23002984 1.1420001 1.0778195e-38
-0.26511046 0.22683123 1.126 1.1235572e-38
-0.25694758 0.22504237 1.1170001 1.1511794e-38
-0.25022867 0.22446221 1.1140001 1.1970969e-38
-0.2437602 0.2240835 1.1120001 1.280073e-38
-0.23688447 0.22330162 1.108 1.2892229e-38
-0.23109266 0.22352734 1.1090001 1.3261366e-38
-0.22528861 0.22375301 1.11 1.455031e-38
-0.21868218 0.22317228 1.107 1.4550674e-38
-0.21287532 0.2233977 1.108 1.4920536e-38
-0.20724286 0.22382465 1.11 1.5289318e-38
-0.20158726 0.22425148 1.1120001 1.5750302e-38
-0.19573256 0.2244764 1.113 1.6764451e-38
-0.19020642 0.2251045 1.1160001 1.6580783e-38
-0.18481119 0.22593409 1.12 1.6674773e-38
-0.17937101 0.22676347 1.1240001 1.741234e-38
-0.17434838 0.2281979 1.131 1.7596731e-38
-0.16939691 0.22983395 1.1390001 1.7412706e-38
-0.16407046 0.23106621 1.1450001 1.6585103e-38
-0.15881513 0.23249997 1.1520001 1.0041364e-38
-0.28248814 0.22479862 1.1470001 7.1847305e-39
-0.27363473 0.22266692 1.136 1.105298e-38
-0.26395738 0.21975087 1.1210001 1.1143378e-38
-0.25605157 0.21820664 1.113 1.1234853e-38
-0.24957895 0.21783863 1.1110001 1.2156441e-38
-0.24334593 0.21766667 1.11 1.2156788e-38
-0.23669475 0.21710242 1.107 1.3261363e-38
-0.23069996 0.21712646 1.107 1.3907097e-38
-0.22470368 0.21715039 1.107 1.5289675e-38
-0.21890359 0.21737042 1.108 1.4643946e-38
-0.21270685 0.2171979 1.107 1.4367365e-38
-0.20670618 0.21722139 1.107 1.5381162e-38
-0.20106666 0.21763717 1.1090001 1.5842497e-38
-0.19540386 0.21805272 1.1110001 1.6764451e-38
-0.19022921 0.2190569 1.1160001 1.7133958e-38
-0.18450363 0.21947202 1.118 1.7596731e-38
-0.17907402 0.22027953 1.1220001 1.7136473e-38
-0.17421608 0.22187214 1.13 1.7321222e-38
-0.1694185 0.22366101 1.1390001 1.7597454e-38
-0.16409163 0.22486056 1.1450001 1.649219e-38
-0.15897378 0.2264526 1.153 1.3359332e-38
-0.15257549 0.22627662 1.1520001 1.0596335e-38
-0.29374912 0.22237051 1.1670001 5.988711e-39
-0.28374398 0.21953651 1.1520001 8.7506114e-39
-0.27414081 0.21689267 1.138 1.0961137e-38
-0.26374599 0.21348599 1.12 1.1143364e-38
-0.25607562 0.21217559 1.113 1.1235205e-38
-0.24937835 0.21162765 1.11 1.1971696e-38
-0.24293149 0.21127024 1.108 1.2432321e-38
-0.23607726 0.2105314 1.1040001 1.307698e-38
-0.22968175 0.21017373 1.102 1.3907464e-38
-0.22350949 0.21000665 1.1010001 1.510565e-38
-0.2185321 0.21098401 1.1060001 1.48287e-38
-0.21215387 0.2106259 1.1040001 1.3446131e-38
-0.20616925 0.21064913 1.1040001 1.5012382e-38
-0.20090838 0.21143542 1.108 1.5657749e-38
-0.19489898 0.21145821 1.108 1.6857371e-38
-0.18939942 0.21205333 1.1110001 1.75953e-38
-0.18403076 0.21283908 1.115 1.7319434e-38
-0.17877673 0.21381554 1.12 1.7597454e-38
-0.17377521 0.21517362 1.1270001 1.7320865e-38
-0.16869609 0.21653153 1.1340001 1.6859532e-38
-0.16353931 0.2178892 1.141 1.6491472e-38
-0.15885651 0.22001055 1.1520001 1.437169e-38
-0.15339027 0.22117674 1.1580001 1.2898353e-38
-0.29377347 0.21604609 1.1670001 8.3843485e-39
-0.28352189 0.21310809 1.151 9.395255e-39
-0.27392408 0.21054 1.1370001 1.1051888e-38
-0.26424098 0.20778628 1.1220001 1.1420308e-38
-0.25609949 0.20614327 1.113 1.1143366e-38
-0.24850346 0.20487046 1.1060001 1.1235208e-38
-0.24185894 0.20433839 1.103 1.1972418e-38
-0.2354594 0.20399147 1.1010001 1.2709629e-38
-0.22949694 0.20401499 1.1010001 1.280147e-38
-0.22332993 0.20385307 1.1 1.3630157e-38
-0.21776511 0.20424706 1.102 1.3538324e-38
-0.21160051 0.20408487 1.1010001 1.2892958e-38
-0.20619226 0.20466398 1.1040001 1.3906032e-38
-0.20038716 0.20487212 1.105 1.4736867e-38
-0.19421783 0.2047092 1.1040001 1.5936854e-38
-0.18873969 0.20528769 1.107 1.621452e-38
-0.18355756 0.20623694 1.1120001 1.6859177e-38
-0.17863879 0.20755693 1.1190001 1.7413063e-38
-0.1736424 0.20887682 1.126 1.7228672e-38
-0.16856836 0.21019648 1.133 1.7136842e-38
-0.16341668 0.21151596 1.1400001 1.7136485e-38
-0.15846312 0.21320628 1.149 1.5937578e-38
-0.15301274 0.21433963 1.1550001 1.2896918e-38
-0.1476226 0.2156582 1.1620001 1.0964761e-38
-0.29178366 0.20828286 1.159 8.8438819e-39
-0.28231427 0.20597047 1.146 1.0593075e-38
-0.27226147 0.20311846 1.13 1.0868221e-38
-0.26355818 0.20116478 1.1190001 1.0499438e-38
-0.25543281 0.1995703 1.11 1.0685613e-38
-0.24785292 0.19833514 1.103 1.0040622e-38
-0.2414439 0.1979989 1.1010001 1.0039205e-38
-0.23548286 0.19802225 1.1010001 9.6704224e-39
-0.22931181 0.19786564 1.1 1.0405824e-38
-0.22335319 0.19788881 1.1 1.095791e-38
-0.21759062 0.19809176 1.1010001 1.2156444e-38
-0.21123901 0.19775477 1.0990001 1.1786256e-38
-0.20602822 0.19849724 1.103 1.2524175e-38
-0.20059106 0.19905965 1.1060001 1.0774975e-38
-0.19476786 0.19926192 1.107 1.0683854e-38
-0.18910269 0.19964394 1.1090001 1.1422502e-38
-0.18374431 0.20038575 1.113 1.2713242e-38
-0.1783409 0.20112738 1.1170001 1.4556082e-38
-0.17304659 0.20204879 1.1220001 1.6952448e-38
-0.16829155 0.20369035 1.131 1.7320513e-38
-0.16329372 0.20515163 1.1390001 1.7227238e-38
-0.15848319 0.206973 1.149 1.7687496e-38
-0.15329733 0.20843384 1.1570001 1.3909275e-38
-0.1477688 0.20953405 1.1630001 1.3083466e-38
-0.29281467 0.20269667 1.1630001 8.4747476e-39
-0.28184536 0.19940875 1.1440001 1.1422116e-38
-0.27276704 0.19734055 1.1320001 1.0592355e-38
-0.26358169 0.19509761 1.1190001 1.0038828e-38
-0.25522611 0.19337733 1.1090001 8.3793178e-39
-0.24787623 0.19235422 1.103 8.1956482e-39
-0.24190578 0.19237737 1.103 7.5506417e-39
-0.23657554 0.19292377 1.1060001 7.1811488e-39
-0.22996035 0.19242351 1.103 7.5488481e-39
-0.22378229 0.19227199 1.102 9.7590279e-39
-0.21761346 0.19212028 1.1010001 1.1879513e-38
-0.21164607 0.19214287 1.1010001 1.1970292e-38
-0.20642428 0.19286339 1.105 9.6664763e-39
-0.20133884 0.19375837 1.11 8.5612049e-39
-0.19566967 0.19412959 1.1120001 8.6548327e-39
-0.18946543 0.19397675 1.1110001 1.003813e-38
-0.18393083 0.19452199 1.1140001 1.2435219e-38
-0.17852165 0.19524162 1.118 1.3818151e-38
-0.17322159 0.19613561 1.123 1.3725235e-38
-0.1681632 0.19737871 1.13 1.6951007e-38
-0.16331384 0.198971 1.1390001 1.7411629e-38
-0.15850295 0.20073776 1.149 1.7596021e-38
-0.15331669 0.2021549 1.1570001 1.6859535e-38
-0.14829592 0.2039212 1.1670001 1.3266781e-38
-0.29258657 0.19622155 1.1620001 9.9505994e-39
-0.28162247 0.19303638 1.143 1.0685271e-38
-0.27279043 0.19120187 1.1320001 1.1053333e-38
-0.26336935 0.18886021 1.118 9.2087001e-39
-0.25547934 0.18753172 1.11 1.0128519e-38
-0.24857347 0.18687886 1.1060001 9.7604544e-39
-0.2423674 0.18673277 1.105 1.0222153e-38
-0.23681244 0.18709362 1.107 9.3001965e-39
-0.23123427 0.18745451 1.1090001 8.0101808e-39
-0.22441426 0.18680103 1.105 8.9306965e-39
-0.21763596 0.18614729 1.1010001 1.1971709e-38
-0.2120529 0.18650772 1.103 1.6212352e-38
-0.20700693 0.18737535 1.108 9.8519438e-39
-0.20190509 0.18824296 1.113 9.3906097e-39
-0.19604339 0.18843387 1.1140001 9.482441e-39
-0.1893163 0.18777864 1.11 1.1417828e-38
-0.18411706 0.18864565 1.115 1.3169542e-38
-0.17822306 0.18883561 1.1160001 1.5015254e-38
-0.17324206 0.19004056 1.123 1.5568071e-38
-0.16862983 0.19175306 1.133 1.4554998e-38
-0.16319023 0.19261914 1.138 1.6675864e-38
-0.15797056 0.19382349 1.1450001 1.6768059e-38
-0.1532032 0.1957047 1.156 1.7228314e-38
-0.14780621 0.19690846 1.1630001 1.3819945e-38
-0.29311362 0.19024642 1.164 1.0687808e-38
-0.28189212 0.18700059 1.1440001 1.0684918e-38
-0.27257258 0.18489847 1.131 9.7629613e-39
-0.26433465 0.18344991 1.1220001 1.0037753e-38
-0.25619271 0.18200107 1.113 9.9444799e-39
-0.24859621 0.18087897 1.1060001 9.8519297e-39
-0.24217077 0.1805744 1.1040001 1.0589495e-38
-0.23619333 0.18059689 1.1040001 8.5619112e-39
-0.23104835 0.18127368 1.108 6.9960288e-39
-0.22524911 0.18145968 1.1090001 6.810197e-39
-0.21805352 0.18050005 1.103 1.2248296e-38
-0.21245943 0.1808493 1.105 1.658149e-38
-0.20758939 0.18185316 1.1110001 8.2849726e-39
-0.2019268 0.18220219 1.113 8.0998611e-39
-0.1962408 0.18255103 1.115 8.0987821e-39
-0.18967851 0.18208094 1.1120001 9.3895251e-39
-0.18380755 0.18226539 1.113 1.2248674e-38
-0.17920175 0.18375978 1.1220001 1.4185138e-38
-0.1740336 0.18476269 1.128 1.4277333e-38
-0.16909622 0.18609299 1.136 1.5107815e-38
-0.16335313 0.18660399 1.1390001 1.593902e-38
-0.15812759 0.18776995 1.146 1.6675509e-38
-0.15308936 0.18926337 1.1550001 1.6675864e-38
-0.14833288 0.19124815 1.1670001 1.3728113e-38
-0.29263306 0.18361631 1.1620001 1.0502328e-38
-0.2809293 0.1801625 1.1400001 1.0223219e-38
-0.27307737 0.17907879 1.133 9.4860213e-39
-0.26647782 0.17878528 1.131 9.2094344e-39
-0.25713605 0.17659461 1.1170001 8.4722351e-39
-0.24839379 0.1747196 1.105 6.4446599e-39
-0.24131557 0.17395107 1.1 6.9971134e-39
-0.23621556 0.17460573 1.1040001 6.8120033e-39
-0.23148766 0.17557678 1.11 6.2588295e-39
-0.22567751 0.17575699 1.1110001 7.363368e-39
-0.21787763 0.1743549 1.102 1.2798223e-38
-0.21190424 0.17437643 1.102 1.6302744e-38
-0.20779781 0.17598028 1.1120001 1.3907461e-38
-0.20194815 0.17615981 1.113 7.3622946e-39
-0.19661394 0.17681397 1.1170001 7.6392472e-39
-0.19004038 0.17635979 1.1140001 5.1524904e-39
-0.18415822 0.17653845 1.115 6.7216154e-39
-0.17938164 0.17782527 1.123 1.1329235e-38
-0.17513356 0.17974542 1.1350001 1.2986594e-38
-0.16941351 0.18024011 1.138 1.2987315e-38
-0.16351564 0.18057606 1.1400001 1.5569159e-38
-0.15814631 0.1815452 1.146 1.685918e-38
-0.15310769 0.18298937 1.1550001 1.6674786e-38
-0.14835081 0.1849086 1.1670001 1.5386205e-38
-0.29114464 0.1763963 1.156 1.0592342e-38
-0.28045881 0.17367178 1.138 1.0774947e-38
-0.27213562 0.1723204 1.1290001 9.7618865e-39
-0.26744282 0.17325845 1.1350001 8.0105367e-39
-0.25899997 0.17175406 1.125 6.4442942e-39
-0.25066385 0.17024933 1.115 4.6943863e-39
-0.24418958 0.16996586 1.113 2.8522814e-39
-0.23794928 0.169835 1.1120001 5.8922092e-39
-0.23150954 0.16955119 1.11 6.8119935e-39
-0.22549608 0.16957279 1.11 9.297314e-39
-0.21671267 0.1674552 1.0960001 1.3534714e-38
-0.21115622 0.16778177 1.098 1.6761926e-38
-0.20781897 0.16994213 1.1120001 1.6026526e-38
-0.20215052 0.17026863 1.1140001 9.8508564e-39
-0.19663465 0.1707478 1.1170001 8.7430711e-39
-0.19108434 0.17122675 1.12 6.9031269e-39
-0.18583003 0.17201127 1.125 6.6276205e-39
-0.18020014 0.17248981 1.128 1.105193e-38
-0.17484444 0.17327389 1.133 1.5385125e-38
-0.16913489 0.17375185 1.136 1.5292929e-38
-0.16324747 0.17407645 1.138 1.5937944e-38
-0.15802661 0.17516559 1.1450001 1.6951376e-38
-0.15299304 0.17656042 1.154 1.6767339e-38
-0.14785984 0.177955 1.1630001 1.5570588e-38
-0.14287043 0.17965536 1.174 1.068781e-38
-0.29116687 0.17012319 1.156 1.068455e-38
-0.27998787 0.16720156 1.136 1.0866425e-38
-0.27095222 0.16545692 1.1240001 9.9448344e-39
-0.26534402 0.16577299 1.126 9.6693336e-39
-0.25833124 0.16520575 1.1220001 8.8402974e-39
-0.25136009 0.16463833 1.118 7.7343169e-39
-0.24465007 0.16421804 1.115 7.1825795e-39
-0.23754279 0.16350295 1.11 6.8127138e-39
-0.23194814 0.16381884 1.1120001 8.3771528e-39
-0.22511102 0.16325061 1.108 9.8501249e-39
-0.21574475 0.16076647 1.0910001 1.2890065e-38
-0.2100229 0.16093425 1.092 1.6853401e-38
-0.20690513 0.16316539 1.107 1.6486784e-38
-0.20198953 0.16407014 1.113 1.584214e-38
-0.19630277 0.1643851 1.115 1.1971001e-38
-0.19076309 0.16484727 1.118 1.3262106e-38
-0.18535417 0.16545668 1.1220001 1.2802924e-38
-0.17974022 0.16591839 1.125 1.4831948e-38
-0.17440052 0.16667481 1.13 1.584538e-38
-0.16855797 0.16698846 1.1320001 1.6490752e-38
-0.1634092 0.16803937 1.1390001 1.7227238e-38
-0.15818255 0.16909005 1.146 1.676626e-38
-0.15314317 0.17043556 1.1550001 1.7042847e-38
-0.14863989 0.17251872 1.169 1.6676218e-38
-0.1449562 0.17578249 1.1910001 1.2160423e-38
-0.31524241 0.17004099 1.2 1.1233777e-38
-0.30747139 0.16935448 1.1950001 1.0219619e-38
-0.294967 0.16597493 1.171 1.0960781e-38
-0.28050238 0.16131884 1.138 1.1142301e-38
-0.27169684 0.15978067 1.1270001 1.0681323e-38
-0.26489416 0.1593765 1.1240001 1.0405811e-38
-0.25789207 0.15883042 1.12 1.0406536e-38
-0.25115657 0.15842608 1.1170001 1.0035955e-38
-0.24467129 0.1581634 1.115 9.3905859e-39
-0.23820592 0.15790057 1.113 8.9296077e-39
-0.23259489 0.15820515 1.115 9.7586481e-39
-0.22533497 0.15737443 1.1090001 1.021891e-38
-0.2147762 0.15413061 1.0860001 1.2890786e-38
-0.20869657 0.15400848 1.085 1.6392792e-38
-0.20636451 0.15672536 1.1040001 1.6763015e-38
-0.20164654 0.15773894 1.1110001 1.6671898e-38
-0.19614644 0.15818451 1.1140001 1.6487867e-38
-0.19044128 0.15848786 1.1160001 1.4920907e-38
-0.18504295 0.15907501 1.12 1.5566632e-38
-0.17911996 0.15923581 1.1210001 1.5751388e-38
-0.17364733 0.15982246 1.125 1.7042127e-38
-0.16842724 0.160693 1.131 1.7318714e-38
-0.16328359 0.1617054 1.138 1.7687852e-38
-0.15792395 0.16257544 1.1440001 1.7318349e-38
-0.15302765 0.16401365 1.154 1.6672978e-38
-0.14980116 0.16744167 1.1780001 1.66737e-38
-0.14558136 0.17001688 1.1960001 1.5751388e-38
-0.13988478 0.17102815 1.2030001 1.611657e-38
-0.13455363 0.17260773 1.2140001 1.4269414e-38
-0.31710318 0.16448157 1.207 6.9877486e-39
-0.31032369 0.16436698 1.2060001 8.2802824e-39
-0.29876727 0.16166267 1.1860001 1.0865702e-38
-0.28126293 0.15554954 1.141 1.0958266e-38
-0.27171779 0.15366159 1.1270001 1.1142303e-38
-0.26467937 0.15313682 1.123 1.1234498e-38
-0.25791299 0.15274835 1.12 1.0957912e-38
-0.25117737 0.15235972 1.1170001 1.1049025e-38
-0.24403362 0.15169816 1.1120001 1.0494408e-38
-0.23779845 0.15158206 1.1110001 1.0402933e-38
-0.23261544 0.15214811 1.115 1.0771718e-38
-0.22413598 0.15053059 1.103 1.0681311e-38
-0.21341136 0.14727461 1.079 1.2062122e-38
-0.20756184 0.14729381 1.079 1.5104221e-38
-0.20470163 0.14949726 1.095 1.6303841e-38
-0.2011214 0.15129136 1.108 1.69492e-38
-0.19563739 0.15172005 1.1110001 1.7224349e-38
-0.18994825 0.15201198 1.113 1.5472632e-38
-0.18473117 0.15271343 1.118 1.611728e-38
-0.1786589 0.15273164 1.118 1.5656669e-38
-0.17304789 0.15315938 1.1210001 1.7132522e-38
-0.16784921 0.15399675 1.1270001 1.7225798e-38
-0.16287047 0.1551072 1.1350001 1.7318345e-38
-0.15766481 0.15608075 1.1420001 1.7226507e-38
-0.15317695 0.15787418 1.1550001 1.6857724e-38
-0.1499448 0.16117118 1.179 1.685737e-38
-0.14620623 0.16419494 1.2010001 1.6026889e-38
-0.14071451 0.1654412 1.21 1.3256345e-38
-0.13479054 0.16627692 1.2160001 9.3769288e-39
-0.31738725 0.1580599 1.2080001 7.1728629e-39
-0.31060252 0.15795019 1.207 9.4781068e-39
-0.30231559 0.15705536 1.2 1.0495486e-38
-0.28251612 0.1500082 1.146 1.0682398e-38
-0.2717382 0.14754128 1.1270001 1.1049751e-38
-0.26422831 0.14677581 1.1210001 1.0956484e-38
-0.25724241 0.14627208 1.1170001 1.0772085e-38
-0.25074783 0.14603013 1.115 1.1508208e-38
-0.24383426 0.14552611 1.1110001 1.1416367e-38
-0.23760438 0.14541486 1.11 1.0494411e-38
-0.23159218 0.14543453 1.11 9.7579292e-39
-0.2239524 0.14440574 1.102 4.5053203e-39
-0.21461721 0.142197 1.085 8.7470395e-39
-0.20892739 0.14234686 1.0860001 1.0035259e-38
-0.20528139 0.14393853 1.098 8.9274679e-39
-0.20114031 0.14526817 1.108 8.3717718e-39
-0.19565605 0.14568 1.1110001 1.5931093e-38
-0.18979593 0.14582938 1.1120001 1.5654861e-38
-0.1840883 0.14610961 1.1140001 1.6484264e-38
-0.17851688 0.14652076 1.1170001 1.6577549e-38
-0.17306535 0.14706285 1.1210001 1.6578273e-38
-0.16786633 0.14786707 1.1270001 1.6210568e-38
-0.16288728 0.1489335 1.1350001 1.6949211e-38
-0.15809552 0.15026219 1.1450001 1.6673333e-38
-0.1534584 0.1518532 1.1570001 1.7042113e-38
-0.14996083 0.15475668 1.179 1.6949917e-38
-0.14670898 0.15818532 1.205 1.1784807e-38
-0.14072984 0.15885706 1.21 1.7498064e-38
-0.13480535 0.15965967 1.2160001 1.0855659e-38
-0.31793353 0.15175161 1.21 6.3463392e-39
-0.30907935 0.15064335 1.2010001 9.6632183e-39
-0.30284041 0.15078941 1.202 7.4530385e-39
-0.28401551 0.14453687 1.1520001 1.0498731e-38
-0.27248141 0.14179617 1.13 1.0405461e-38
-0.26448384 0.14081179 1.1220001 1.0311835e-38
-0.25749242 0.14032923 1.118 1.1140868e-38
-0.2500928 0.13959545 1.1120001 1.1232339e-38
-0.24319528 0.13911247 1.108 1.1047585e-38
-0.23740976 0.13925721 1.1090001 1.0402215e-38
-0.23035957 0.13864833 1.1040001 8.651946e-39
-0.22397143 0.13841596 1.102 6.4399838e-39
-0.21799871 0.13843459 1.102 8.1931427e-39
-0.21163937 0.13820182 1.1 9.3902439e-39
-0.20586073 0.13834572 1.1010001 1.3721635e-38
-0.20061395 0.13886642 1.105 1.1044725e-38
-0.19532189 0.13938703 1.1090001 1.5377562e-38
-0.18947233 0.13953036 1.11 1.4641075e-38
-0.18410584 0.14005059 1.1140001 1.5747424e-38
-0.17869394 0.14057058 1.118 1.5932901e-38
-0.17339106 0.14121614 1.123 1.6394602e-38
-0.16832986 0.14211299 1.13 1.6302767e-38
-0.16319066 0.14300963 1.1370001 1.6948856e-38
-0.15811156 0.14403185 1.1450001 1.6581149e-38
-0.15373942 0.14580865 1.159 1.6765894e-38
-0.14997637 0.1483403 1.179 1.667333e-38
-0.14696786 0.15187861 1.207 1.8794553e-38
-0.1407447 0.15227097 1.21 1.3805919e-38
-0.13481972 0.15304047 1.2160001 1.6298438e-38
-0.31716543 0.14482057 1.207 7.1764544e-39
-0.30807009 0.1436405 1.197 8.5568707e-39
-0.30336472 0.14450054 1.2040001 7.5452369e-39
-0.28748694 0.13995939 1.166 1.1051182e-38
-0.2737065 0.13625741 1.1350001 1.0405457e-38
-0.2649745 0.13495575 1.1240001 1.0496933e-38
-0.2577419 0.13437425 1.1190001 1.1049386e-38
-0.24988686 0.13343227 1.1110001 1.0864281e-38
-0.24277514 0.1328503 1.1060001 1.0494419e-38
-0.23657216 0.13274866 1.105 1.0127069e-38
-0.23016948 0.13252674 1.103 8.6537411e-39
-0.22317682 0.13194411 1.098 7.2726157e-39
-0.21623647 0.13136119 1.0930001 8.379329e-39
-0.21031052 0.1313789 1.0930001 8.4715274e-39
-0.20494361 0.1317571 1.0960001 1.1329226e-38
-0.20026849 0.13261607 1.103 1.2801128e-38
-0.19481094 0.13299406 1.1060001 1.6396026e-38
-0.18931885 0.13337184 1.1090001 1.6026529e-38
-0.1841228 0.13398999 1.1140001 1.4919827e-38
-0.17871061 0.13448766 1.118 1.6301683e-38
-0.17387071 0.13546635 1.126 1.7132167e-38
-0.16819702 0.13584332 1.1290001 1.6671549e-38
-0.16320647 0.13682163 1.1370001 1.6488234e-38
-0.15867947 0.13828118 1.149 1.6395682e-38
-0.15441796 0.14010167 1.164 1.6581149e-38
-0.15011859 0.14204247 1.1800001 1.685737e-38
-0.14698271 0.14530745 1.207 1.6580783e-38
-0.14087541 0.14580342 1.2110001 1.2326469e-38
-0.13494448 0.14653973 1.217 1.6574679e-38
-0.31797335 0.13860831 1.21 1.0778564e-38
-0.30808961 0.13713825 1.197 8.4646751e-39
-0.30338445 0.1379596 1.2040001 7.5437964e-39
-0.29219106 0.13580164 1.1850001 1.1142301e-38
-0.27468991 0.13054851 1.1390001 1.0312541e-38
-0.2657004 0.12919141 1.1270001 1.0773519e-38
-0.25776041 0.12829255 1.1190001 1.0681325e-38
-0.24968027 0.12727873 1.11 1.0404383e-38
-0.24257383 0.12672329 1.105 1.0219991e-38
-0.23616204 0.12651174 1.103 9.3930914e-39
-0.23018745 0.12652944 1.103 6.1673444e-39
-0.22319458 0.12597337 1.098 5.3375907e-39
-0.21566041 0.12507275 1.09 9.209447e-39
-0.2101354 0.12531933 1.092 8.1927755e-39
-0.20496078 0.12579533 1.0960001 1.0128885e-38
-0.20010395 0.12650083 1.102 9.3916719e-39
-0.19447547 0.12674704 1.1040001 1.0129237e-38
-0.18933547 0.12733752 1.1090001 1.4646102e-38
-0.1836433 0.12758335 1.1110001 1.5935411e-38
-0.17840701 0.12817349 1.1160001 1.574959e-38
-0.17357773 0.12910801 1.1240001 1.6394602e-38
-0.16836154 0.12981267 1.13 1.6671904e-38
-0.1633653 0.13074687 1.138 1.7132879e-38
-0.15869448 0.13202563 1.149 1.6580784e-38
-0.15456544 0.13387886 1.1650001 1.6580783e-38
-0.15000588 0.13550214 1.179 1.6488587e-38
-0.14663172 0.13838968 1.2040001 1.7408385e-38
-0.14077294 0.13909319 1.21 1.7590257e-38
-0.31145471 0.13205366 1.21 1.0768846e-38
-0.30415955 0.13174497 1.207 1.0863557e-38
-0.29492241 0.13056293 1.1960001 1.1050816e-38
-0.27567279 0.12479497 1.143 1.0497287e-38
-0.2664257 0.1233933 1.13 1.104974e-38
-0.25800863 0.12231886 1.12 1.0312176e-38
-0.2499229 0.12135333 1.1110001 1.0312542e-38
-0.24281092 0.12082443 1.1060001 8.1952825e-39
-0.23660773 0.12073234 1.105 6.3520957e-39
-0.22999604 0.12042157 1.102 6.8127208e-39
-0.22280508 0.11978272 1.0960001 7.1797026e-39
-0.21607296 0.11936217 1.092 8.1909777e-39
-0.21053699 0.11959726 1.0940001 9.7568713e-39
-0.20516434 0.11994155 1.097 9.3870111e-39
-0.20012036 0.12050442 1.102 1.0771383e-38
-0.19466783 0.12084848 1.105 1.095757e-38
-0.18935144 0.12130175 1.1090001 9.8522969e-39
-0.18398963 0.12175486 1.113 1.0865729e-38
-0.1784225 0.12209836 1.1160001 1.5290045e-38
-0.173593 0.12298875 1.1240001 1.6026534e-38
-0.16837652 0.12366012 1.13 1.6763736e-38
-0.16323647 0.12444077 1.1370001 1.6672258e-38
-0.15857078 0.12565902 1.148 1.6949565e-38
-0.15431429 0.12731506 1.1630001 1.6857735e-38
-0.15027432 0.12929945 1.1810001 1.6119802e-38
-0.14591469 0.1311743 1.1980001 1.6580783e-38
-0.14078629 0.13250157 1.21 1.6486428e-38
-0.31378978 0.12641189 1.2190001 1.2531721e-38
-0.30442995 0.12528916 1.2080001 1.0126346e-38
-0.29592714 0.12447737 1.2 1.0405447e-38
-0.27641392 0.11889309 1.146 1.0866069e-38
-0.26620728 0.1171464 1.1290001 1.0219981e-38
-0.25779542 0.11612561 1.1190001 1.0127429e-38
-0.25038981 0.11551965 1.113 9.6678958e-39
-0.24370599 0.11522488 1.11 5.8911176e-39
-0.23662449 0.11472233 1.105 6.6283295e-39
-0.22980395 0.11432336 1.1010001 6.0729977e-39
-0.22343144 0.11413186 1.0990001 6.1626766e-39
-0.21727647 0.11404402 1.098 6.3456302e-39
-0.2111304 0.11395599 1.097 8.0019145e-39
-0.20555432 0.11417945 1.0990001 8.6472853e-39
-0.20013613 0.11450665 1.102 1.0953617e-38
-0.19521195 0.11514549 1.108 7.360145e-39
-0.18970831 0.11547244 1.1110001 8.1917008e-39
-0.18400474 0.11569525 1.113 8.3771528e-39
-0.17875713 0.11622971 1.118 1.1511451e-38
-0.17345318 0.11676402 1.123 1.5566278e-38
-0.16853994 0.11761007 1.131 1.6210923e-38
-0.16368133 0.11855999 1.1400001 1.648751e-38
-0.15886094 0.11961377 1.1500001 1.685737e-38
-0.15446059 0.12108347 1.164 1.6581858e-38
-0.15054223 0.12307329 1.1830001 1.5568426e-38
-0.14629327 0.12495904 1.2010001 1.6026531e-38
-0.30621177 0.11941108 1.215 1.4745847e-38
-0.29668462 0.11824895 1.2030001 8.7498912e-39
-0.27763683 0.11315414 1.151 1.0682044e-38
-0.26622391 0.11100758 1.1290001 1.0496932e-38
-0.25804228 0.11013877 1.12 1.0128505e-38
-0.25085613 0.1096631 1.115 9.1154395e-39
-0.24328309 0.10899049 1.108 6.6283225e-39
-0.23706886 0.10890789 1.107 6.442855e-39
-0.23065481 0.10872679 1.105 8.6548327e-39
-0.22426043 0.10854552 1.103 8.8388666e-39
-0.21709417 0.10797037 1.097 8.8374359e-39
-0.21095335 0.10788709 1.0960001 9.2047779e-39
-0.2053825 0.10809892 1.098 1.104869e-38
-0.20015121 0.10850757 1.102 1.3537972e-38
-0.19487447 0.10891611 1.1060001 1.5290766e-38
-0.18972301 0.109423 1.1110001 1.3447926e-38
-0.18418457 0.10973277 1.1140001 8.1027323e-39
-0.1789313 0.11023937 1.1190001 9.3934711e-39
-0.17362165 0.1107458 1.1240001 1.5567717e-38
-0.16885176 0.11164619 1.133 1.5382594e-38
-0.16398202 0.11254648 1.1420001 1.5841786e-38
-0.15901236 0.11344661 1.151 1.6211646e-38
-0.1550045 0.11513519 1.1680001 1.6027975e-38
-0.15208228 0.11780959 1.1950001 1.5202889e-38
-0.27910039 0.10745262 1.1570001 1.0316861e-38
-0.26718301 0.10523925 1.133 1.0220347e-38
-0.25828844 0.10414001 1.1210001 9.7590138e-39
-0.25087175 0.10359786 1.115 9.6682588e-39
-0.24307898 0.10286967 1.107 6.1666241e-39
-0.23665591 0.10269883 1.105 7.9183397e-39
-0.23046131 0.1026208 1.1040001 9.3012755e-39
-0.22407219 0.10244966 1.102 8.6566334e-39
-0.21770276 0.10227834 1.1 7.0900293e-39
-0.21116051 0.10201382 1.097 6.1669968e-39
-0.20577116 0.1023071 1.1 8.9317825e-39
-0.20016558 0.10250724 1.102 1.0959369e-38
-0.19400764 0.10242814 1.1010001 1.4094738e-38
-0.18905394 0.10300009 1.107 1.4741185e-38
-0.18419841 0.10366502 1.1140001 1.0684574e-38
-0.17894492 0.10414371 1.1190001 1.0498388e-38
-0.17409848 0.10490148 1.1270001 1.5384036e-38
-0.16931207 0.10575222 1.136 1.5658473e-38
-0.16399495 0.10632355 1.1420001 1.5289335e-38
-0.15916322 0.10726713 1.1520001 1.6211646e-38
-0.15541513 0.10904867 1.171 1.584466e-38
-0.15273103 0.1117616 1.2 1.5848613e-38
-0.28225201 0.10229688 1.1700001 8.1066826e-39
-0.26837733 0.099513829 1.138 9.9437582e-39
-0.2594555 0.098479137 1.126 1.0220006e-38
-0.25111163 0.097619057 1.1160001 9.668979e-39
-0.24353288 0.097021118 1.1090001 6.4439298e-39
-0.23667048 0.096685417 1.105 7.6428346e-39
-0.23005824 0.096437044 1.102 9.0246872e-39
-0.22306982 0.096013449 1.097 9.0232467e-39
-0.21751902 0.096202351 1.0990001 8.5615483e-39
-0.21194451 0.096391156 1.1010001 6.5336101e-39
-0.20615914 0.096492276 1.102 8.5611937e-39
-0.20036092 0.096593268 1.103 1.0773889e-38
-0.19384487 0.096343733 1.1 1.3172416e-38
-0.18872565 0.096794695 1.105 1.0500539e-38
-0.18404615 0.097508356 1.113 8.7491821e-39
-0.17911774 0.098134339 1.12 1.1698362e-38
-0.1742657 0.098847859 1.128 1.4646837e-38
-0.16947365 0.099648893 1.1370001 1.5197494e-38
-0.16443808 0.10036219 1.1450001 1.5566276e-38
-0.15972793 0.10133828 1.156 1.5014899e-38
-0.15648888 0.10336637 1.179 1.4923781e-38
-0.15197909 0.10469306 1.194 1.6586178e-38
-0.28443807 0.096670739 1.179 1.3549462e-38
-0.27075019 0.09414307 1.148 9.5771379e-39
-0.26016107 0.092598855 1.1290001 9.9448456e-39
-0.25157577 0.091710381 1.118 8.932493e-39
-0.2437664 0.091067724 1.11 5.7074466e-39
-0.23625593 0.090506859 1.103 5.4312269e-39
-0.23007192 0.09043815 1.102 6.352816e-39
-0.22328667 0.09012308 1.098 8.746657e-39
-0.21753244 0.090218239 1.0990001 1.095791e-38
-0.21157278 0.090231203 1.0990001 1.1510009e-38
-0.20598519 0.090408221 1.1010001 1.2985141e-38
-0.20019221 0.090502992 1.102 9.8519325e-39
-0.19403382 0.090433337 1.1010001 1.0500539e-38
-0.18856743 0.090692051 1.1040001 7.5513592e-39
-0.18372783 0.091279238 1.1110001 6.2613407e-39
-0.17960981 0.092277199 1.123 6.9056367e-39
-0.17489576 0.09302862 1.1320001 1.2435582e-38
-0.16993271 0.093697771 1.1400001 1.4738311e-38
-0.16502424 0.094448991 1.149 1.4646117e-38
-0.16084486 0.095693357 1.164 1.473939e-38
-0.1574294 0.097513221 1.1860001 1.5108538e-38
-0.15160835 0.097935267 1.1910001 1.6677299e-38
-0.27383006 0.088892251 1.161 9.2112379e-39
-0.26224852 0.087144427 1.138 9.2098001e-39
-0.25316429 0.086161934 1.125 8.5655111e-39
-0.24465807 0.085332282 1.1140001 5.4330261e-39
-0.23648316 0.084578946 1.1040001 3.9586275e-39
-0.23050243 0.0845915 1.1040001 4.4185197e-39
-0.22350278 0.084220804 1.0990001 7.2736919e-39
-0.21714915 0.084079809 1.097 1.1234144e-38
-0.21100768 0.084015317 1.0960001 1.1786962e-38
-0.20524915 0.084103964 1.097 1.1418182e-38
-0.19965941 0.084269181 1.0990001 7.9183411e-39
-0.19422205 0.08451093 1.102 7.8279461e-39
-0.18840842 0.08459916 1.103 5.8936371e-39
-0.18373953 0.085224189 1.1110001 7.4613272e-39
-0.17994127 0.086309448 1.125 6.1687919e-39
-0.17490716 0.086857654 1.1320001 1.0777499e-38
-0.170093 0.087559223 1.141 1.3542287e-38
-0.16560976 0.088490941 1.153 1.4095104e-38
-0.16237584 0.090190172 1.1750001 1.3726684e-38
-0.15730737 0.090968281 1.1850001 1.5201454e-38
-0.15110958 0.09113206 1.187 1.6492907e-38
-0.2790322 0.084139183 1.1830001 1.502388e-38
-0.26571816 0.082017951 1.153 8.4743903e-39
-0.25565237 0.080820948 1.136 8.3811199e-39
-0.24642749 0.079836994 1.1220001 4.6958268e-39
-0.23735219 0.078852676 1.108 3.221424e-39
-0.22967933 0.078295052 1.1 4.3266898e-39
-0.22310798 0.078093112 1.097 6.2599141e-39
-0.21636914 0.077819794 1.0930001 7.5492138e-39
-0.21044174 0.077831104 1.0930001 1.0037413e-38
-0.20507358 0.078055948 1.0960001 8.0105465e-39
-0.1993074 0.078138232 1.097 6.2606232e-39
-0.19405706 0.078434117 1.1010001 6.0776753e-39
-0.18927364 0.078943618 1.108 4.6972575e-39
-0.18457742 0.079524331 1.1160001 5.5266637e-39
-0.18043199 0.080390044 1.128 4.880574e-39
-0.17615403 0.081255779 1.1400001 6.5375786e-39
-0.17099801 0.081765048 1.1470001 1.1976043e-38
-0.16720019 0.08298713 1.164 1.2989839e-38
-0.16321531 0.084209256 1.1810001 1.4095466e-38
-0.15691914 0.084290385 1.182 1.4832671e-38
-0.15099202 0.084585197 1.1860001 1.5847178e-38
-0.27287471 0.077778406 1.184 1.0321543e-38
-0.26084051 0.076147765 1.159 8.2889242e-39
-0.25017306 0.074845135 1.1390001 4.8798636e-39
-0.23929167 0.0734106 1.1170001 2.6686174e-39
-0.22969057 0.072304212 1.1 3.4980137e-39
-0.22352591 0.072249278 1.0990001 3.9586275e-39
-0.21756794 0.072259955 1.0990001 5.6159881e-39
-0.21199296 0.072402038 1.1010001 5.9840475e-39
-0.20620704 0.072478272 1.102 6.0765977e-39
-0.20058988 0.072620168 1.1040001 4.8802181e-39
-0.19442007 0.072564572 1.103 4.3281289e-39
-0.18979648 0.073100969 1.1110001 4.1437348e-39
-0.18508387 0.073637329 1.1190001 4.3281261e-39
-0.18124196 0.074568525 1.133 4.236285e-39
-0.17786385 0.075763039 1.151 5.5241442e-39
-0.17279695 0.076299332 1.159 1.0685659e-38
-0.16835915 0.077164717 1.1720001 1.2897999e-38
-0.16294849 0.07763496 1.179 1.5201454e-38
-0.15666296 0.077709913 1.1800001 1.5015985e-38
-0.15074642 0.077982187 1.184 1.5938299e-38
-0.14600308 0.078912951 1.1980001 1.5941533e-38
-0.27030444 0.07236819 1.2010001 8.2914424e-39
-0.25809145 0.070812352 1.1750001 7.2762157e-39
-0.24380127 0.068592966 1.138 2.9455602e-39
-0.23241565 0.067096241 1.113 2.3012796e-39
-0.225977 0.066985719 1.1110001 2.577142e-39
-0.21975592 0.066935375 1.11 3.4058153e-39
-0.21373606 0.066945218 1.11 3.8664319e-39
-0.20752697 0.066894621 1.1090001 4.1437376e-39
-0.20150827 0.06690421 1.1090001 3.6827595e-39
-0.19566368 0.066973984 1.11 3.0370328e-39
-0.19117284 0.067526385 1.1190001 3.7745978e-39
-0.18740909 0.068380535 1.133 3.4980109e-39
-0.183651 0.069295086 1.148 4.4199616e-39
-0.17926407 0.070028588 1.1600001 8.9357398e-39
-0.17355165 0.070279039 1.164 1.2161143e-38
-0.16851185 0.070831247 1.1730001 1.4096543e-38
-0.16240448 0.070960619 1.1750001 1.4831951e-38
-0.15614046 0.071029373 1.176 1.510746e-38
-0.15062748 0.071460322 1.1830001 1.5661354e-38
-0.14552374 0.072132751 1.194 1.5755708e-38
-0.27616704 0.067253463 1.2270001 9.9527658e-39
-0.26688823 0.06660597 1.215 8.5673104e-39
-0.25452352 0.065135807 1.1880001 7.5542459e-39
-0.23910782 0.062787749 1.1450001 3.2225016e-39
-0.2314786 0.062413298 1.138 2.9455602e-39
-0.22491303 0.062312916 1.136 3.6824022e-39
-0.21836698 0.062212404 1.1340001 4.2359333e-39
-0.21165325 0.062056877 1.131 4.1437376e-39
-0.20587842 0.062175561 1.133 4.1437376e-39
-0.20060854 0.062458795 1.138 4.7891071e-39
-0.19511129 0.062687077 1.1420001 5.3408417e-39
-0.19039543 0.063189752 1.151 5.1557302e-39
-0.18509962 0.063527673 1.1570001 8.5644489e-39
-0.17927273 0.063700758 1.1600001 1.0316522e-38
-0.17385833 0.064038455 1.166 1.2806527e-38
-0.16837652 0.064376041 1.1720001 1.4557166e-38
-0.16213617 0.06443882 1.1730001 1.4462811e-38
-0.15601556 0.064556323 1.1750001 1.4737956e-38
-0.15050781 0.06494835 1.182 1.5385125e-38
-0.14479992 0.06528528 1.1880001 1.4741192e-38
-0.27392605 0.060077664 1.217 1.4839489e-38
-0.26514065 0.059593227 1.207 8.4747616e-39
-0.25838956 0.059553016 1.2060001 8.1059791e-39
-0.24747029 0.058524955 1.1850001 7.4609628e-39
-0.23881052 0.057990469 1.174 6.9999945e-39
-0.23125768 0.05770275 1.1680001 5.9872873e-39
-0.22415279 0.057513673 1.164 6.1716772e-39
-0.21727619 0.057373852 1.161 5.9869314e-39
-0.2107933 0.057332721 1.1600001 6.7227126e-39
-0.2037901 0.057143148 1.156 6.7223356e-39
-0.19768238 0.057200588 1.1570001 7.1815145e-39
-0.1910653 0.057109561 1.1550001 7.8268839e-39
-0.18478768 0.057117257 1.1550001 9.7622719e-39
-0.17943513 0.057421532 1.161 1.0961535e-38
-0.17386608 0.057676256 1.166 1.2805449e-38
-0.16795309 0.057831917 1.169 1.4925227e-38
-0.16186705 0.057937939 1.171 1.3817799e-38
-0.15575717 0.058043789 1.1730001 1.4739035e-38
-0.15000544 0.058297914 1.1780001 1.5753907e-38
-0.14444101 0.058650859 1.1850001 1.58461e-38
-0.14031205 0.05964715 1.205 1.5753905e-38
-0.083959468 0.061773781 1.2470001 9.2086609e-40
-0.076775819 0.061480373 1.2410001 2.2119496e-39
-0.069430947 0.060988452 1.2310001 1.7506141e-39
-0.06255082 0.060842987 1.228 1.6580612e-39
-0.015273922 0.059766006 1.2060001 1.511898e-38
-0.0086135743 0.059320576 1.197 1.7056888e-38
-0.0020618904 0.059172161 1.194 1.751751e-38
0.0044570123 0.059023432 1.1910001 1.6595557e-38
-0.2777614 0.054195944 1.2340001 1.4563259e-38
-0.26427063 0.052842662 1.2030001 8.8431756e-39
-0.25539854 0.052367564 1.192 8.7499052e-39
-0.24810524 0.052199841 1.1880001 8.1967314e-39
-0.23983589 0.051812261 1.179 7.7353987e-39
-0.23166184 0.051424496 1.1700001 7.0911153e-39
-0.22377568 0.051080484 1.1620001 6.6297742e-39
-0.21634834 0.050824206 1.156 7.1825935e-39
-0.20934726 0.050655693 1.1520001 7.8279741e-39
-0.20256366 0.050530996 1.149 8.0116451e-39
-0.19615211 0.050494112 1.148 9.0250726e-39
-0.19024551 0.050589059 1.1500001 1.0406927e-38
-0.18447487 0.050727885 1.153 1.1882059e-38
-0.17913312 0.05099861 1.159 1.2528142e-38
-0.17372391 0.051269256 1.1650001 1.3818881e-38
-0.1676725 0.05136374 1.1670001 1.3726325e-38
-0.16145897 0.051414065 1.1680001 1.3356101e-38
-0.15523241 0.051464207 1.169 1.3817799e-38
-0.14962967 0.051734332 1.1750001 1.5385125e-38
-0.1440814 0.052048348 1.182 1.6307081e-38
-0.13927001 0.052670509 1.1960001 1.658259e-38
-0.13386005 0.053116407 1.2060001 1.9822046e-38
-0.12886688 0.053782411 1.2210001 1.9729854e-38
-0.1231077 0.054183997 1.23 1.9545105e-38
-0.11639686 0.054188918 1.23 1.300028e-38
-0.10923844 0.053973302 1.225 1.6319323e-38
-0.10305384 0.054242093 1.2310001 1.1800661e-38
-0.096723929 0.054466613 1.2360001 9.5876098e-39
-0.089755565 0.054338332 1.233 1.6225697e-38
-0.082751274 0.054165699 1.2290001 1.7884498e-38
-0.075603783 0.053860549 1.222 1.0508846e-38
-0.068588026 0.053599168 1.2160001 1.5764353e-38
-0.061891459 0.053557891 1.215 1.7329874e-38
-0.055022951 0.053339999 1.21 1.1334994e-38
-0.048168223 0.053077731 1.2040001 1.1334993e-38
-0.040998396 0.052330211 1.187 1.7422435e-38
-0.034537099 0.052375939 1.1880001 1.9268151e-38
-0.028182318 0.052641831 1.194 1.7147651e-38
-0.021634523 0.05259883 1.1930001 1.6317526e-38
-0.015008654 0.052246906 1.1850001 1.7884496e-38
-0.0085204225 0.052203335 1.184 1.7147653e-38
-0.0020429897 0.052159477 1.1830001 1.7977414e-38
0.0044235368 0.052115329 1.182 1.7793743e-38
-0.26625547 0.046635289 1.212 8.8446176e-39
-0.25519186 0.045834359 1.1910001 9.1186849e-39
-0.24644193 0.04541802 1.1800001 8.3811227e-39
-0.24045356 0.045501944 1.182 7.9197886e-39
-0.23305513 0.045316312 1.177 8.0119856e-39
-0.22455311 0.044899505 1.166 8.103461e-39
-0.21635529 0.044521004 1.156 7.5506529e-39
-0.20917238 0.044334892 1.151 7.9194495e-39
-0.2023941 0.044225674 1.148 8.1960364e-39
-0.19615872 0.04423191 1.148 9.9463114e-39
-0.19025199 0.044315103 1.1500001 1.1143771e-38
-0.18432128 0.044398196 1.1520001 1.2433435e-38
-0.17867568 0.044558264 1.156 1.3633053e-38
-0.17328267 0.044795346 1.1620001 1.3541581e-38
-0.16753481 0.044955231 1.166 1.3541584e-38
-0.16146481 0.045037884 1.1680001 1.2804013e-38
-0.15510529 0.045043264 1.1680001 1.3726325e-38
-0.14938048 0.04524133 1.1730001 1.5386207e-38
-0.14372104 0.045477837 1.179 1.6213811e-38
-0.13776135 0.045637064 1.1830001 1.9631176e-38
-0.13242212 0.046027627 1.1930001 1.7795908e-38
-0.12781633 0.04672676 1.2110001 1.825653e-38
-0.12191134 0.047001347 1.2180001 1.9178486e-38
-0.1151711 0.04696703 1.217 1.2908819e-38
-0.10835092 0.04689391 1.215 1.668884e-38
-0.1018021 0.046936359 1.2160001 8.5745453e-39
-0.09555386 0.047132991 1.2210001 4.6025368e-40
-0.088667169 0.047020588 1.2180001 1.1799941e-38
-0.081407882 0.0466763 1.2090001 1.2892843e-39
-0.074493133 0.046486177 1.2040001 9.2050736e-40
-0.067801088 0.046411622 1.202 9.9556637e-39
-0.061078895 0.046298213 1.199 1.4933143e-38
-0.054343056 0.046145942 1.1950001 1.6684504e-38
-0.047850117 0.046186496 1.1960001 1.1243521e-38
-0.040861905 0.045686152 1.1830001 1.3825719e-38
-0.034131486 0.045340002 1.174 1.8806098e-38
-0.027782198 0.045457046 1.177 1.8438037e-38
-0.021399651 0.045573857 1.1800001 1.6316817e-38
-0.014831944 0.045226946 1.171 1.8253646e-38
-0.0084200203 0.045188773 1.1700001 1.8253646e-38
-0.002022349 0.045227595 1.171 1.816145e-38
0.0043788082 0.045188934 1.1700001 1.7977779e-38
-0.26801971 0.040296286 1.22 1.290338e-38
-0.25584126 0.039443646 1.194 8.8424526e-39
-0.24665731 0.039020218 1.1810001 8.2889242e-39
-0.23923936 0.038860962 1.176 7.9201417e-39
-0.23306148 0.038899906 1.177 7.7350428e-39
-0.22590747 0.038773518 1.1730001 7.4577371e-39
-0.21785867 0.03848172 1.164 7.9179963e-39
-0.17343715 0.038485933 1.1630001 1.4094752e-38
-0.16754004 0.038590103 1.166 1.3818881e-38
-0.16174638 0.038727265 1.1700001 1.3357541e-38
-0.15524304 0.038698804 1.169 1.4095468e-38
-0.14925793 0.038802624 1.1720001 1.3268594e-38
-0.14287238 0.038806979 1.1720001 1.9728054e-38
-0.13706714 0.038976762 1.177 1.8440201e-38
-0.13176048 0.03931202 1.187 1.8164336e-38
-0.12676509 0.039779667 1.2010001 1.8440922e-38
-0.12101457 0.040048476 1.2090001 1.908629e-38
-0.11432324 0.040019006 1.2080001 1.8474719e-40
-0.10764115 0.039989352 1.207 1.1063363e-39
-0.10096835 0.039959505 1.2060001 8.2974806e-40
-0.094774522 0.040128279 1.2110001 1.7240203e-38
-0.088233434 0.040164337 1.212 1.9346523e-39
-0.081276029 0.040001351 1.207 1.6577109e-39
-0.074248239 0.039771859 1.2 1.7499065e-39
-0.067408606 0.039608426 1.1950001 2.5803748e-39
-0.060775384 0.039544214 1.1930001 3.2246624e-39
-0.054026637 0.039380345 1.1880001 1.004714e-38
-0.047211651 0.039116807 1.1800001 1.6500114e-38
-0.040656097 0.039018791 1.177 7.6493338e-39
-0.03387104 0.0386222 1.1650001 1.6501203e-38
-0.021073967 0.038524546 1.1620001 1.8253646e-38
-0.0083627459 0.038525522 1.1620001 1.8530233e-38
-0.0020086048 0.038558844 1.1630001 1.8346562e-38
0.0043452801 0.038492501 1.161 1.8438757e-38
