# .PCD v0.7 - Point Cloud Data file format
VERSION 0.7
FIELDS x y z rgb
SIZE 4 4 4 4
TYPE F F F F
COUNT 1 1 1 1
WIDTH 1580
HEIGHT 1
VIEWPOINT 0 0 0 1 0 0 0
POINTS 1580
DATA ascii
0.082055964 0.3613115 0.96400005 4.8856131e-39
0.086561866 0.35830703 0.95600003 4.0547776e-39
0.09213239 0.35979995 0.96000004 3.7774677e-39
0.09652932 0.35679519 0.95200002 3.6852748e-39
0.10126651 0.35528952 0.94800007 3.2246624e-39
0.10596009 0.35378379 0.94400007 3.5012493e-39
0.11108071 0.35377705 0.94400007 2.7644045e-39
0.11607803 0.35339552 0.94300002 3.041346e-39
0.12157837 0.35451293 0.94600004 3.2253729e-39
0.12697713 0.35525563 0.94800007 2.9495063e-39
0.1308644 0.35187626 0.93900007 3.2257372e-39
0.1366809 0.35374331 0.94400007 3.4112019e-39
0.14285193 0.35635984 0.95100003 4.4249909e-39
0.14769806 0.35560408 0.94900006 3.4101187e-39
0.15284455 0.35559797 0.94900006 3.4090397e-39
0.1586569 0.35709092 0.95300007 6.1759848e-39
0.067677252 0.36314395 0.98300004 1.2077228e-38
0.071229041 0.3542721 0.95900005 3.2257372e-39
0.076432928 0.35426608 0.95900005 3.4090537e-39
0.080870427 0.35093513 0.95000005 2.6711341e-39
0.085843869 0.35018981 0.94800007 2.3945472e-39
0.090987317 0.35018307 0.94800007 2.5789385e-39
0.095623493 0.34832916 0.94300002 2.9480755e-39
0.10031199 0.34684455 0.93900007 2.4878176e-39
0.1055181 0.34720665 0.94000006 2.7644059e-39
0.1106171 0.34719926 0.94000006 2.7644059e-39
0.11510037 0.34534502 0.93500006 3.4090537e-39
0.1206859 0.34681493 0.93900007 3.6849203e-39
0.12564483 0.34643802 0.93800002 4.0529798e-39
0.1305927 0.3460612 0.93700004 3.9625834e-39
0.13625352 0.34753105 0.94100004 4.1469732e-39
0.14150688 0.347893 0.94200003 3.5930764e-39
0.14708221 0.34899369 0.94500005 4.4224741e-39
0.1525289 0.34972519 0.94700003 6.5415275e-39
0.1588296 0.35230339 0.95400006 5.8039596e-39
0.16434661 0.35303539 0.95600003 5.2507831e-39
0.16970794 0.35339835 0.95700002 7.2808904e-39
0.061777294 0.35456896 0.97400004 5.3458724e-39
0.066374898 0.35092288 0.96400005 3.4083334e-39
0.070640847 0.34618446 0.95100003 3.1331885e-39
0.076040775 0.3472701 0.95400006 2.1186834e-39
0.08062166 0.34471533 0.94700003 2.210879e-39
0.085216843 0.34252432 0.94100004 2.4874659e-39
0.08984264 0.34069714 0.93600005 2.3030761e-39
0.094616704 0.3395977 0.93300003 2.3030761e-39
0.099678457 0.33959013 0.93300003 2.3030747e-39
0.10384183 0.33667058 0.92500007 2.4874659e-39
0.10909496 0.33739054 0.92700005 2.4874659e-39
0.11436953 0.33811042 0.92900002 2.7633297e-39
0.12005112 0.33992198 0.93400002 2.6704138e-39
0.12511691 0.33991373 0.93400002 2.855161e-39
0.12990367 0.33917764 0.93200004 3.8693116e-39
0.13582696 0.34135291 0.93800002 3.4086893e-39
0.14121418 0.34207252 0.94000006 3.2250184e-39
0.1463116 0.34206444 0.94000006 3.5008808e-39
0.15237528 0.34423977 0.94600004 5.5284545e-39
0.15883687 0.34714302 0.95400006 8.9371677e-39
0.16469742 0.34859091 0.95800006 8.4740274e-39
0.16989195 0.34858358 0.95800006 8.2896361e-39
0.17508638 0.34857652 0.95800006 7.3698406e-39
0.18084539 0.34966147 0.96100003 7.0032175e-39
0.18624975 0.3500191 0.96200007 9.0322416e-39
0.055974245 0.34609234 0.96500003 4.4224713e-39
0.061085321 0.34536937 0.96300006 3.8693116e-39
0.065761276 0.34249419 0.95500004 2.8555254e-39
0.070127271 0.33854288 0.94400007 2.0264892e-39
0.075489573 0.33961198 0.94700003 2.1183289e-39
0.080458455 0.3388876 0.94500005 1.8420979e-39
0.08449965 0.33457693 0.93300003 1.9342935e-39
0.089466244 0.33421066 0.93200004 2.2105245e-39
0.094421662 0.33384416 0.93100005 2.3030803e-39
0.099365935 0.33347741 0.93000007 2.2112406e-39
0.10418676 0.33275187 0.92800003 1.8421021e-39
0.10922096 0.33274332 0.92800003 2.0268493e-39
0.11413173 0.33237609 0.92700005 2.3952717e-39
0.11980262 0.33416 0.93200004 2.3023544e-39
0.12512554 0.33486813 0.93400002 2.9470035e-39
0.12949412 0.33306646 0.92900002 2.8548051e-39
0.13511154 0.33449158 0.93300003 3.0402712e-39
0.14062184 0.33555812 0.93600005 3.4083334e-39
0.14554177 0.33519071 0.93500006 4.0533343e-39
0.15157823 0.33733281 0.94100004 4.2373598e-39
0.15834561 0.34090883 0.95100003 6.4489717e-39
0.16418967 0.34233412 0.95500004 1.4374913e-38
0.16989966 0.34340116 0.95800006 1.4650423e-38
0.17582484 0.34482688 0.96200007 1.4003265e-38
0.18104056 0.34481913 0.96200007 9.8555297e-39
0.18703075 0.34624556 0.96600002 6.7219559e-39
0.19187009 0.34552178 0.96400005 7.7404252e-39
0.055399746 0.33735502 0.95500004 3.2228646e-39
0.060203228 0.33522964 0.94900006 2.2098014e-39
0.065079041 0.33381033 0.94500005 1.7495464e-39
0.06976255 0.3316842 0.93900007 1.933939e-39
0.075098127 0.33273676 0.94200003 1.9342992e-39
0.08029566 0.33308244 0.94300002 1.8421035e-39
0.08486969 0.33095533 0.93700004 1.8421021e-39
0.089186274 0.32812157 0.92900002 1.7499065e-39
0.094632827 0.32952592 0.93300003 2.118689e-39
0.099267632 0.3281045 0.92900002 1.8421021e-39
0.10464463 0.32915509 0.93200004 1.4733196e-39
0.1094653 0.32843959 0.93000007 2.2112406e-39
0.11475646 0.32913658 0.93200004 2.1186848e-39
0.11968331 0.32877395 0.93100005 2.4867457e-39
0.12473295 0.32876432 0.93100005 2.7626123e-39
0.12964287 0.32840151 0.93000007 2.8558813e-39
0.1349761 0.32909802 0.93200004 3.6849203e-39
0.14018047 0.32944134 0.93300003 3.3154175e-39
0.14492838 0.32872546 0.93100005 3.6841972e-39
0.15142636 0.33189356 0.94000006 4.4221168e-39
0.15702264 0.33294323 0.94300002 5.619574e-39
0.16282314 0.33434603 0.94700003 8.8446176e-39
0.16902161 0.33645511 0.95300007 1.4649702e-38
0.17528495 0.33856431 0.95900005 1.7229021e-38
0.18104866 0.33961466 0.96200007 1.7689999e-38
0.18742567 0.34172431 0.96800005 1.575497e-38
0.19307157 0.34242234 0.97000003 5.9840335e-39
0.19771686 0.34135577 0.96700007 9.3073964e-39
0.049852613 0.32977548 0.94800007 2.4878191e-39
0.055115499 0.3304655 0.95000005 1.8421021e-39
0.059892274 0.32837221 0.94400007 1.6577123e-39
0.065361232 0.33010483 0.94900006 1.7499079e-39
0.070438355 0.32974985 0.94800007 1.6577123e-39
0.075105645 0.32765535 0.94200003 1.5655166e-39
0.080218419 0.32764742 0.94200003 1.7499079e-39
0.084606156 0.32485664 0.93400002 1.8421035e-39
0.089098752 0.32276124 0.92800003 1.7499079e-39
0.094337352 0.32344797 0.93000007 1.7499079e-39
0.099276684 0.32309097 0.92900002 1.7499065e-39
0.1053277 0.32621148 0.93800002 2.0264934e-39
0.11018112 0.32550615 0.93600005 2.1186848e-39
0.11464304 0.32375744 0.93100005 2.578584e-39
0.11969317 0.32374731 0.93100005 2.39455e-39
0.12487692 0.32408482 0.93200004 2.7633297e-39
0.13007115 0.32442215 0.93300003 2.8551596e-39
0.13542071 0.32510713 0.93500006 3.500529e-39
0.14094186 0.32613966 0.93800002 3.6841972e-39
0.14478274 0.32334766 0.93000007 4.4221196e-39
0.14998651 0.32368496 0.93100005 4.4221168e-39
0.15619996 0.32610828 0.93800002 5.8968811e-39
0.16231714 0.32818398 0.94400007 9.4914275e-39
0.16778967 0.32886913 0.94600004 1.6863121e-38
0.17401484 0.33094501 0.95200002 1.8244972e-38
0.18049313 0.33336869 0.95900005 1.8705594e-38
0.1870472 0.33579254 0.96600002 1.8796346e-38
0.19307993 0.33717385 0.97000003 1.8980017e-38
0.19854259 0.33751279 0.97100008 5.0609968e-39
0.050121121 0.32637617 0.95300007 1.8420979e-39
0.055817854 0.32945243 0.96200007 1.6577123e-39
0.060406424 0.32602125 0.95200002 1.5655166e-39
0.065023877 0.32327467 0.94400007 1.3811254e-39
0.070148617 0.32326725 0.94400007 1.5655166e-39
0.074874327 0.32154724 0.93900007 1.7499079e-39
0.079289898 0.31879956 0.93100005 1.6577123e-39
0.084071219 0.31776372 0.92800003 1.6577123e-39
0.088819608 0.31672755 0.92500007 1.8417434e-39
0.094245166 0.31808782 0.92900002 1.933939e-39
0.099072509 0.31739342 0.92700005 1.8417434e-39
0.10477614 0.31943774 0.93300003 1.7495464e-39
0.10948493 0.31840038 0.93000007 2.2098014e-39
0.11453022 0.31838992 0.93000007 2.2101588e-39
0.11944651 0.31803688 0.92900002 2.5789413e-39
0.12435157 0.3176837 0.92800003 2.4870988e-39
0.12980306 0.31869969 0.93100005 3.7763929e-39
0.13485217 0.3186886 0.93100005 3.9604184e-39
0.13975061 0.31833512 0.93000007 4.6972618e-39
0.14463785 0.31798166 0.92900002 6.5415275e-39
0.15015838 0.31899735 0.93200004 5.8961581e-39
0.15621069 0.32103977 0.93800002 5.9883537e-39
0.1623278 0.32308224 0.94400007 9.0308095e-39
0.16762276 0.32341346 0.94500005 1.4561114e-38
0.17329396 0.32442936 0.94800007 1.8431901e-38
0.17918566 0.3257876 0.95200002 1.8890715e-38
0.1857015 0.32817271 0.95900005 1.9351328e-38
0.19169593 0.32953146 0.96300006 1.9166218e-38
0.19752915 0.33054832 0.96600002 1.7138268e-38
0.2042345 0.33293432 0.97300005 7.2780121e-39
0.050968513 0.3266311 0.96900004 1.9339376e-39
0.0557082 0.32359114 0.96000004 1.7499079e-39
0.060032535 0.31886539 0.94600004 1.5655166e-39
0.065031186 0.31818408 0.94400007 1.5655166e-39
0.069561861 0.31547996 0.93600005 1.3811254e-39
0.074802794 0.3161459 0.93800002 1.5655166e-39
0.079724357 0.31546327 0.93600005 1.6577123e-39
0.084714398 0.31511721 0.93500006 1.5655166e-39
0.088924952 0.31207469 0.92600006 2.0261332e-39
0.094254874 0.31307599 0.92900002 2.0261332e-39
0.099189408 0.31272885 0.92800003 2.3019971e-39
0.10433728 0.31305543 0.92900002 2.2098014e-39
0.10878912 0.31135985 0.92400002 2.7633325e-39
0.1138021 0.31134894 0.92400002 2.7633297e-39
0.11920039 0.31234863 0.92700005 3.2239436e-39
0.12409475 0.3120003 0.92600006 3.1317465e-39
0.12911724 0.31198874 0.92600006 4.5128705e-39
0.13442905 0.31265086 0.92800003 5.4348198e-39
0.13946158 0.31263912 0.92800003 5.8950777e-39
0.14480507 0.31330106 0.93000007 6.3567761e-39
0.15049213 0.31463662 0.93400002 8.2006887e-39
0.15555602 0.31462476 0.93400002 9.2141203e-39
0.16113548 0.31562352 0.93700004 9.6740223e-39
0.16674715 0.31662229 0.94000006 1.2071477e-38
0.17257385 0.31795797 0.94400007 1.8801769e-38
0.17825544 0.31895694 0.94700003 1.8801772e-38
0.18377571 0.31961939 0.94900006 1.8985075e-38
0.18991467 0.32129237 0.95400006 1.9075461e-38
0.19610773 0.32296568 0.95900005 1.9443522e-38
0.20340444 0.32632309 0.96900004 1.3727394e-38
0.045428775 0.31942248 0.96300006 1.6577109e-39
0.050238166 0.31676307 0.95500004 1.7499079e-39
0.055018406 0.31443489 0.94800007 1.3811254e-39
0.060103092 0.31409624 0.94700003 1.5655166e-39
0.065107673 0.31342542 0.94500005 1.6577123e-39
0.069718562 0.3110958 0.93800002 1.5655166e-39
0.074811324 0.31108734 0.93800002 1.3811254e-39
0.079392582 0.30908856 0.93200004 1.7499079e-39
0.084542572 0.30941084 0.93300003 1.8421035e-39
0.08951091 0.30906948 0.93200004 2.1176086e-39
0.094467953 0.30872771 0.93100005 2.5778637e-39
0.099306785 0.30805394 0.92900002 3.2225114e-39
0.10401111 0.30704832 0.92600006 2.7626095e-39
0.10880016 0.30637401 0.92400002 3.6842e-39
0.11381339 0.3063626 0.92400002 3.5920044e-39
0.11882616 0.30635092 0.92400002 4.1444551e-39
0.1241065 0.3070021 0.92600006 4.0526168e-39
0.1292686 0.30732152 0.92700005 5.619574e-39
0.13429624 0.30730921 0.92700005 6.7259159e-39
0.13947369 0.3076283 0.92800003 8.199967e-39
0.14419441 0.30695286 0.92600006 8.9375335e-39
0.14985985 0.30826625 0.93000007 9.766941e-39
0.15473545 0.30792224 0.92900002 1.3730633e-38
0.1606317 0.30956694 0.93400002 1.3085631e-38
0.16640441 0.31088021 0.93800002 1.6312842e-38
0.17203735 0.31186211 0.94100004 1.834151e-38
0.17751424 0.31251267 0.94300002 1.8525191e-38
0.18301255 0.31316346 0.94500005 2.0185067e-38
0.18853232 0.31381446 0.94700003 1.9814835e-38
0.19509614 0.31612259 0.95400006 1.9536083e-38
0.20194557 0.31876227 0.96200007 1.9168743e-38
0.040161587 0.31390983 0.96200007 2.210879e-39
0.044962663 0.31096765 0.95300007 1.473321e-39
0.049876127 0.30933014 0.94800007 1.3811254e-39
0.054793015 0.30801839 0.94400007 1.473321e-39
0.060173906 0.30931637 0.94800007 1.5655166e-39
0.064702123 0.30637214 0.93900007 1.5655166e-39
0.069503896 0.30505884 0.93500006 1.5655166e-39
0.07474041 0.30570263 0.93700004 1.9342992e-39
0.079401858 0.30406216 0.93200004 1.8421021e-39
0.084461689 0.30405247 0.93200004 2.0261332e-39
0.089521073 0.30404237 0.93200004 2.6700593e-39
0.094377026 0.30337942 0.93000007 2.7618892e-39
0.098996967 0.30206367 0.92600006 3.8671508e-39
0.10424701 0.30270478 0.92800003 4.1437376e-39
0.10951825 0.30334553 0.93000007 4.0515392e-39
0.11407158 0.30202889 0.92600006 4.236285e-39
0.11896683 0.30169058 0.92500007 4.4210308e-39
0.12398476 0.30167812 0.92500007 5.0663974e-39
0.12914164 0.30199164 0.92600006 6.2645805e-39
0.13401911 0.3016527 0.92500007 7.2787324e-39
0.13918585 0.30196583 0.92600006 9.0290074e-39
0.14451867 0.30260491 0.92800003 1.0134636e-38
0.14955042 0.30259174 0.92800003 1.0504503e-38
0.15474829 0.30290458 0.92900002 1.1979636e-38
0.1603006 0.30386955 0.93200004 1.6035535e-38
0.165885 0.30483449 0.93500006 1.7142967e-38
0.17131871 0.30547342 0.93700004 1.843335e-38
0.17715028 0.30676442 0.94100004 1.8341876e-38
0.18244386 0.30707762 0.94200003 1.8156764e-38
0.1881462 0.30804294 0.94500005 2.0830438e-38
0.19428985 0.30966043 0.95000005 1.9998872e-38
0.20090738 0.31193003 0.95700002 1.8892876e-38
0.039122965 0.30070043 0.93700004 1.7499065e-39
0.044732533 0.304225 0.94800007 1.5655166e-39
0.049672045 0.30293521 0.94400007 1.3811254e-39
0.054393616 0.30068213 0.93700004 1.3811254e-39
0.05967363 0.30163753 0.94000006 1.5655166e-39
0.064572372 0.30066693 0.93700004 1.6577123e-39
0.069958553 0.30194199 0.94100004 1.6577123e-39
0.074749537 0.30064952 0.93700004 1.933939e-39
0.07941144 0.2990357 0.93200004 2.0261332e-39
0.084109202 0.29774237 0.92800003 2.578584e-39
0.089339457 0.29837364 0.93000007 2.3938298e-39
0.094184957 0.29772109 0.92800003 3.4998088e-39
0.098901317 0.29674739 0.92500007 4.1437334e-39
0.10414632 0.29737738 0.92700005 4.97385e-39
0.10905918 0.29704455 0.92600006 4.6969016e-39
0.11408386 0.29703221 0.92600006 5.619574e-39
0.11885073 0.29637802 0.92400002 6.2645805e-39
0.12359538 0.29572362 0.92200005 6.7259131e-39
0.12901518 0.29667273 0.92500007 7.1854507e-39
0.13417716 0.29698011 0.92600006 8.4751134e-39
0.13934949 0.29728729 0.92700005 9.3037964e-39
0.14437635 0.29727361 0.92700005 1.0594535e-38
0.14940274 0.29725984 0.92700005 1.0964395e-38
0.155095 0.29852867 0.93100005 1.1240628e-38
0.16048612 0.29915607 0.93300003 1.6587265e-38
0.16572106 0.29946285 0.93400002 1.7048612e-38
0.17133214 0.3004109 0.93700004 1.7879459e-38
0.17678705 0.30103838 0.93900007 1.8894329e-38
0.18206958 0.30134538 0.94000006 1.9908481e-38
0.18776086 0.30229375 0.94300002 1.9723734e-38
0.19409797 0.30420396 0.94900006 1.990812e-38
0.20049983 0.30611432 0.95500004 1.9353134e-38
0.20718196 0.30834541 0.96200007 1.8986151e-38
0.039545771 0.29880378 0.94700003 1.5655166e-39
0.044549689 0.29785156 0.94400007 1.473321e-39
0.049731202 0.29816076 0.94500005 1.473321e-39
0.054749075 0.29752281 0.94300002 1.5655166e-39
0.059490882 0.29562229 0.93700004 1.6577123e-39
0.064511746 0.2952987 0.93600005 1.5655166e-39
0.069744378 0.29592094 0.93800002 1.6577123e-39
0.07459937 0.2949653 0.93500006 1.7495478e-39
0.079421312 0.29400912 0.93200004 2.3019971e-39
0.084482118 0.29399884 0.93200004 2.4860254e-39
0.089446358 0.29367265 0.93100005 2.9462805e-39
0.094297692 0.29303059 0.92900002 4.051542e-39
0.098912939 0.29175732 0.92500007 4.8812929e-39
0.10370891 0.29111448 0.92300004 6.0794689e-39
0.10871821 0.29110214 0.92300004 5.802882e-39
0.11372693 0.29108945 0.92300004 6.079113e-39
0.11886372 0.29139173 0.92400002 5.8036023e-39
0.12387673 0.29137838 0.92400002 6.6337203e-39
0.12888917 0.29136479 0.92400002 7.2783652e-39
0.13404596 0.2916663 0.92500007 8.4751134e-39
0.13936335 0.29228285 0.92700005 8.6591501e-39
0.1442346 0.29195338 0.92600006 1.1608687e-38
0.14957801 0.29256961 0.92800003 1.0871122e-38
0.15494256 0.29318568 0.93000007 1.4097249e-38
0.16015628 0.29348645 0.93100005 1.5756063e-38
0.1655578 0.29410246 0.93300003 1.8246069e-38
0.17061476 0.29408798 0.93300003 1.8801049e-38
0.1758596 0.29438883 0.93400002 1.9078719e-38
0.18208343 0.29626569 0.94000006 1.9263112e-38
0.18777449 0.29719704 0.94300002 2.0922999e-38
0.19349779 0.2981286 0.94600004 2.0000676e-38
0.19967321 0.29969063 0.95100003 1.879996e-38
0.20697945 0.3028284 0.96100003 1.9261293e-38
0.034368403 0.29339254 0.94600004 2.0261332e-39
0.039342348 0.29214686 0.94200003 1.7499079e-39
0.044366948 0.29152086 0.94000006 1.473321e-39
0.049685284 0.29275495 0.94400007 1.3818456e-39
0.054698344 0.29212758 0.94200003 1.5655166e-39
0.059689291 0.29149964 0.94000006 1.5655166e-39
0.064795971 0.29149133 0.94000006 1.3811254e-39
0.069381654 0.28931177 0.93300003 1.6577123e-39
0.074369609 0.28899223 0.93200004 1.9339376e-39
0.079516672 0.28929231 0.93300003 2.4867457e-39
0.084402114 0.28866163 0.93100005 3.0384761e-39
0.089361399 0.28834057 0.93000007 3.4058153e-39
0.09430927 0.288019 0.92900002 3.867148e-39
0.099245742 0.28769705 0.92800003 5.9861971e-39
0.10394602 0.28675467 0.92500007 6.2627742e-39
0.10873093 0.28612193 0.92300004 6.7244712e-39
0.11386323 0.2864188 0.92400002 6.44825e-39
0.11887713 0.28640535 0.92400002 6.2638602e-39
0.12375635 0.28608164 0.92300004 7.1858151e-39
0.12904263 0.28668749 0.92500007 7.186171e-39
0.13406014 0.28667319 0.92500007 8.6602249e-39
0.13922739 0.28696859 0.92600006 9.8587695e-39
0.14440489 0.28726375 0.92700005 1.0686731e-38
0.14927027 0.28693902 0.92600006 1.133138e-38
0.15479068 0.28785369 0.92900002 1.5202879e-38
0.15948288 0.28721896 0.92700005 1.6585458e-38
0.16521767 0.28844327 0.93100005 1.7876208e-38
0.17044662 0.28873801 0.93200004 1.7509587e-38
0.17568593 0.28903279 0.93300003 1.8524462e-38
0.18151681 0.29025701 0.93700004 1.9447142e-38
0.1871915 0.29117155 0.94000006 1.9447503e-38
0.19310287 0.29239589 0.94400007 1.8986524e-38
0.19926721 0.29393014 0.94900006 1.9722282e-38
0.20591624 0.29608396 0.95600003 1.9353134e-38
0.03477291 0.2916435 0.95700002 1.7499079e-39
0.039640237 0.28920031 0.94900006 1.5655166e-39
0.04512839 0.29132751 0.95600003 1.4729651e-39
0.04985005 0.28857824 0.94700003 1.4729651e-39
0.054531615 0.2861332 0.93900007 1.6577123e-39
0.059570391 0.2858206 0.93800002 1.8421035e-39
0.064528935 0.28520274 0.93600005 1.6573521e-39
0.069390923 0.28427956 0.93300003 1.8417434e-39
0.074219845 0.28335586 0.93000007 1.841742e-39
0.07952708 0.28425965 0.93300003 2.39455e-39
0.084322363 0.28333488 0.93000007 3.4065383e-39
0.089372814 0.28332362 0.93000007 3.7749551e-39
0.094219632 0.28270254 0.92800003 4.6951066e-39
0.099151105 0.28238565 0.92700005 6.1673444e-39
0.1041835 0.28237298 0.92700005 7.5473963e-39
0.10897965 0.28175071 0.92500007 8.1020078e-39
0.1141232 0.28204179 0.92600006 6.9981854e-39
0.11889094 0.2814188 0.92400002 7.8297454e-39
0.12403864 0.28170916 0.92500007 7.8304656e-39
0.12919655 0.28199929 0.92600006 7.0921803e-39
0.13392983 0.28137547 0.92400002 9.0275669e-39
0.13909188 0.28166506 0.92500007 9.488545e-39
0.14426413 0.28195438 0.92600006 1.0778206e-38
0.14944661 0.28224352 0.92700005 1.1422855e-38
0.15430607 0.28192362 0.92600006 1.5662773e-38
0.15967025 0.28251699 0.92800003 1.6399983e-38
0.16523302 0.2834146 0.93100005 1.7230112e-38
0.17046195 0.28370339 0.93200004 1.8060599e-38
0.17570122 0.2839922 0.93300003 1.7970202e-38
0.18095081 0.28428105 0.93400002 1.8340426e-38
0.1870074 0.28578743 0.93900007 1.8709574e-38
0.19291317 0.28698948 0.94300002 1.9170915e-38
0.19886191 0.28819165 0.94700003 1.9354226e-38
0.20506907 0.28969833 0.95200002 1.9076913e-38
0.2113301 0.29120514 0.95700002 1.9171625e-38
0.034995925 0.28827837 0.96300006 1.7499079e-39
0.040063649 0.28707558 0.95900005 1.3811254e-39
0.045134783 0.28617144 0.95600003 1.2885738e-39
0.049962364 0.28406927 0.94900006 1.2889297e-39
0.054829646 0.28256521 0.94400007 1.7499079e-39
0.05957865 0.28076121 0.93800002 1.6577123e-39
0.064675719 0.28075257 0.93800002 1.9339376e-39
0.069474764 0.27954605 0.93400002 1.841742e-39
0.074549124 0.27953616 0.93400002 1.9342935e-39
0.079622954 0.2795257 0.93400002 3.0391964e-39
0.084424183 0.27861691 0.93100005 3.1306689e-39
0.089576706 0.27890459 0.93200004 3.9593464e-39
0.094333313 0.27799478 0.92900002 5.336876e-39
0.098949768 0.27678537 0.92500007 1.52868e-38
0.10363454 0.27587476 0.92200005 1.805159e-38
0.10899308 0.27675903 0.92500007 1.3442543e-38
0.11413703 0.27704442 0.92600006 8.3782402e-39
0.11877643 0.27613273 0.92300004 7.6435548e-39
0.12391904 0.27641734 0.92400002 8.658427e-39
0.12921137 0.27700081 0.92600006 8.2896445e-39
0.13394487 0.27638745 0.92400002 8.6580641e-39
0.13940793 0.27726939 0.92700005 8.566223e-39
0.14443542 0.27725378 0.92700005 1.0225032e-38
0.14930102 0.27693892 0.92600006 1.4372045e-38
0.1543218 0.276923 0.92600006 1.6122676e-38
0.15968606 0.27750504 0.92800003 1.6766969e-38
0.16489393 0.27778795 0.92900002 1.7137194e-38
0.17029496 0.27836981 0.93100005 1.6954241e-38
0.17590541 0.27925062 0.93400002 1.7599975e-38
0.18116035 0.27953348 0.93500006 1.824751e-38
0.18702312 0.28071323 0.93900007 1.889432e-38
0.19313334 0.28219196 0.94400007 1.9539689e-38
0.19908731 0.28337184 0.94800007 1.8708488e-38
0.2046534 0.28395402 0.95000005 1.8614852e-38
0.21046165 0.28483537 0.95300007 1.8431898e-38
0.029116094 0.27691549 0.94200003 1.9339376e-39
0.034710258 0.28073233 0.95500004 1.5655166e-39
0.039860535 0.28043288 0.95400006 1.28965e-39
0.044669095 0.27807513 0.94600004 1.3807694e-39
0.050127491 0.27983195 0.95200002 1.5655166e-39
0.054953638 0.27806076 0.94600004 1.5655166e-39
0.059714127 0.27628899 0.94000006 1.8421035e-39
0.064615823 0.2753984 0.93700004 2.2108804e-39
0.069484428 0.27450719 0.93400002 2.3941927e-39
0.074479565 0.27420327 0.93300003 2.2101588e-39
0.079548545 0.27419263 0.93300003 3.1306689e-39
0.084526256 0.27388754 0.93200004 4.051542e-39
0.089396395 0.27328807 0.93000007 4.1426544e-39
0.093025498 0.26916194 0.91600007 1.3162345e-38
0.097999729 0.26914933 0.91600007 1.3160547e-38
0.10331057 0.27001771 0.91900003 1.3437857e-38
0.10877114 0.27117932 0.92300004 1.6851612e-38
0.11415119 0.27204663 0.92600006 1.160077e-38
0.11891962 0.27144459 0.92400002 9.9448456e-39
0.12366563 0.27084222 0.92200005 9.9488029e-39
0.1293661 0.27229577 0.92700005 8.6577068e-39
0.13396029 0.27139911 0.92400002 8.3811199e-39
0.13912284 0.27167708 0.92500007 8.933572e-39
0.14445134 0.27224842 0.92700005 1.1054422e-38
0.14931709 0.27193853 0.92600006 1.4278775e-38
0.15450467 0.27221584 0.92700005 1.5845734e-38
0.15953031 0.27219936 0.92700005 1.6582578e-38
0.16473281 0.2724764 0.92800003 1.7320144e-38
0.16994551 0.27275339 0.92900002 1.7413783e-38
0.17592186 0.27420464 0.93400002 1.6769496e-38
0.1813705 0.27477509 0.93600005 1.6862412e-38
0.18684025 0.27534556 0.93800002 1.7600683e-38
0.19233117 0.2759161 0.94000006 1.6125553e-38
0.19868332 0.27766079 0.94600004 1.6677646e-38
0.20466921 0.27881855 0.95000005 1.5017772e-38
0.21047719 0.27968296 0.95300007 1.4834817e-38
0.029398633 0.27443069 0.95100003 1.8421021e-39
0.034969848 0.27760017 0.96200007 1.5655166e-39
0.039657459 0.27384329 0.94900006 1.4729651e-39
0.044817317 0.27383706 0.94900006 1.2896528e-39
0.049871475 0.27325299 0.94700003 1.5655166e-39
0.054729186 0.2718026 0.94200003 1.5655166e-39
0.059786238 0.27150577 0.94100004 1.933939e-39
0.064625032 0.27034274 0.93700004 2.3941927e-39
0.069791861 0.27062163 0.93800002 2.578221e-39
0.07472951 0.27003437 0.93600005 3.0384761e-39
0.079644851 0.26944655 0.93400002 3.6824022e-39
0.084719263 0.26943514 0.93400002 4.327766e-39
0.088350996 0.26509619 0.91900003 1.0677018e-38
0.09283483 0.26364163 0.91400003 1.2515535e-38
0.098654702 0.26593629 0.92200005 1.11326e-38
0.10422348 0.26736495 0.92700005 1.1040405e-38
0.10937443 0.26763943 0.92800003 8.0923067e-39
0.11428893 0.26733664 0.92700005 1.6210925e-38
0.11906314 0.26674506 0.92500007 1.5567706e-38
0.12394905 0.26644155 0.92400002 1.0500899e-38
0.12896295 0.26642609 0.92400002 9.025769e-39
0.13397609 0.26641029 0.92400002 9.0254089e-39
0.13928932 0.26697081 0.92600006 9.5789428e-39
0.1446235 0.26753101 0.92800003 1.0500902e-38
0.14917234 0.26664957 0.92500007 1.3172784e-38
0.15435463 0.26692107 0.92600006 1.5383316e-38
0.15971918 0.26748067 0.92800003 1.6396743e-38
0.16528226 0.26832828 0.93100005 1.7319423e-38
0.1703283 0.26831111 0.93100005 1.6860609e-38
0.17593881 0.26915845 0.93400002 1.6953168e-38
0.18119365 0.26942948 0.93500006 1.5756053e-38
0.1868571 0.27027673 0.93800002 1.3819582e-38
0.19275716 0.27141216 0.94200003 1.3634469e-38
0.1987 0.2725476 0.94600004 1.5108524e-38
0.2046857 0.27368313 0.95000005 1.584753e-38
0.21115603 0.27539489 0.95600003 1.4742618e-38
0.2172384 0.27653065 0.96000004 1.1704486e-38
0.029712236 0.272131 0.96100003 1.7499065e-39
0.034902371 0.27184296 0.96000004 1.6577123e-39
0.039830558 0.2698552 0.95300007 1.473321e-39
0.044587806 0.26730043 0.94400007 1.3811254e-39
0.049878832 0.26814282 0.94700003 1.5655166e-39
0.054737218 0.26671934 0.94200003 1.7495478e-39
0.059922032 0.26699403 0.94300002 1.93286e-39
0.064703353 0.2655693 0.93800002 2.4863911e-39
0.069727458 0.26527646 0.93700004 2.9470007e-39
0.074740134 0.26498297 0.93600005 3.3143399e-39
0.079741351 0.26468885 0.93500006 3.7742363e-39
0.084549636 0.26382804 0.93200004 5.0631688e-39
0.088074721 0.25928685 0.91600007 1.0675577e-38
0.093253806 0.25984043 0.91800004 1.3531482e-38
0.099096023 0.26209167 0.92600006 1.2701722e-38
0.10446221 0.26292706 0.92900002 9.4755956e-39
0.10962449 0.26319587 0.93000007 8.1859372e-39
0.11430366 0.2623322 0.92700005 1.3259937e-38
0.11894953 0.26146823 0.92400002 1.6765185e-38
0.12396452 0.26145282 0.92400002 1.0959718e-38
0.12911832 0.26171997 0.92500007 9.300551e-39
0.1341372 0.26170385 0.92500007 9.5782029e-39
0.13930574 0.26197034 0.92600006 9.6682588e-39
0.14448434 0.26223654 0.92700005 1.0773889e-38
0.14935045 0.26193669 0.92600006 1.3539035e-38
0.15403824 0.26135385 0.92400002 1.4644655e-38
0.15973637 0.26246795 0.92800003 1.5474067e-38
0.16529959 0.26329896 0.93100005 1.7318702e-38
0.17052867 0.26356417 0.93200004 1.741306e-38
0.17614466 0.26439488 0.93500006 1.7322669e-38
0.18121107 0.26437718 0.93500006 1.5939734e-38
0.18727297 0.26577327 0.94000006 1.3819229e-38
0.19297914 0.2666038 0.94300002 1.3356804e-38
0.1982971 0.26686895 0.94400007 1.4924856e-38
0.20427182 0.26798233 0.94800007 1.7321942e-38
0.2122774 0.27163973 0.96100003 1.5753896e-38
0.21838659 0.27275318 0.96500003 1.5668187e-38
0.029654913 0.26638895 0.95900005 1.7499079e-39
0.035053112 0.26777288 0.96400005 1.5655166e-39
0.040087372 0.26637831 0.95900005 1.5655166e-39
0.044688977 0.26276094 0.94600004 1.473321e-39
0.049833607 0.26275384 0.94600004 1.473321e-39
0.054977808 0.26274601 0.94600004 2.0261346e-39
0.059994429 0.26218197 0.94400007 1.8417434e-39
0.064850815 0.26106182 0.94000006 1.9339376e-39
0.069812022 0.2604965 0.93800002 2.5782182e-39
0.074910618 0.26048598 0.93800002 3.7749551e-39
0.079923324 0.2601971 0.93700004 4.510358e-39
0.08438012 0.25824156 0.93000007 6.9967519e-39
0.087894693 0.25378662 0.91400003 1.085744e-38
0.093266688 0.2548846 0.91800004 1.5654115e-38
0.09921658 0.25737008 0.92700005 1.9710757e-38
0.10481367 0.25874433 0.93200004 1.0583392e-38
0.11011062 0.25928506 0.93400002 7.5412881e-39
0.11456528 0.25788218 0.92900002 1.215465e-38
0.1190936 0.25675654 0.92500007 1.4275878e-38
0.12398024 0.25646332 0.92400002 1.1695477e-38
0.12899482 0.25644726 0.92400002 1.1235217e-38
0.1344437 0.25726348 0.92700005 1.1235219e-38
0.13917202 0.25669172 0.92500007 1.2524883e-38
0.14450134 0.25722969 0.92700005 1.2985139e-38
0.14952895 0.25721243 0.92700005 1.3630149e-38
0.15438904 0.25691751 0.92600006 1.4736496e-38
0.1599261 0.25773218 0.92900002 1.4459918e-38
0.16513976 0.25799176 0.93000007 1.658078e-38
0.17018048 0.25797379 0.93000007 1.7598172e-38
0.17597413 0.2590653 0.93400002 1.7969112e-38
0.18181042 0.26015663 0.93800002 1.6862046e-38
0.18768936 0.26124781 0.94200003 1.2803633e-38
0.19320166 0.26178434 0.94400007 1.1604367e-38
0.19873498 0.26232088 0.94600004 1.5662774e-38
0.20493589 0.26368934 0.95100003 1.7322305e-38
0.21384136 0.26838493 0.96800005 1.2712169e-38
0.2179513 0.26698089 0.96300006 1.8530573e-38
0.029875958 0.26311868 0.96600002 1.5655166e-39
0.035313055 0.26447558 0.97100008 1.473321e-39
0.040302522 0.26256314 0.96400005 1.2889297e-39
0.044884756 0.25874352 0.95000005 1.3811254e-39
0.049946502 0.25819162 0.94800007 1.7495478e-39
0.055044185 0.25791132 0.94700003 1.7495478e-39
0.060003374 0.25708568 0.94400007 2.1172513e-39
0.064929418 0.25625932 0.94100004 2.2098042e-39
0.069822274 0.2554324 0.93800002 3.1306717e-39
0.075001404 0.25569403 0.93900007 4.9731354e-39
0.079934858 0.25513819 0.93700004 6.6290498e-39
0.084664412 0.25403714 0.93300003 9.2973154e-39
0.088099487 0.24939616 0.91600007 1.1595361e-38
0.093381345 0.25020009 0.91900003 1.4545987e-38
0.099337339 0.25263679 0.92800003 1.6944891e-38
0.1051654 0.25452831 0.93500006 8.7394767e-39
0.10988963 0.25369698 0.93200004 7.7267583e-39
0.11458048 0.25286528 0.92900002 1.2061748e-38
0.11936671 0.25230545 0.92700005 1.1694402e-38
0.1239962 0.25147304 0.92400002 1.2433042e-38
0.12887155 0.25118464 0.92300004 1.141889e-38
0.13460547 0.25252867 0.92800003 1.2248296e-38
0.13948995 0.25223953 0.92700005 1.2615997e-38
0.14420685 0.25167808 0.92500007 1.3537587e-38
0.14938515 0.25193259 0.92600006 1.4275152e-38
0.1545735 0.25218689 0.92700005 1.4735773e-38
0.15994401 0.25271299 0.92900002 1.5381511e-38
0.16533542 0.25323889 0.93100005 1.6580783e-38
0.17056465 0.25349253 0.93200004 1.7136842e-38
0.1759924 0.25401807 0.93400002 1.8521932e-38
0.18260415 0.25617519 0.94200003 1.8060953e-38
0.18830554 0.25697234 0.94500005 1.5845734e-38
0.19362934 0.25722566 0.94600004 8.6541096e-39
0.19917344 0.25775093 0.94800007 9.3019958e-39
0.20581612 0.2596356 0.95500004 9.3952746e-39
0.21452241 0.26396683 0.97100008 1.4836626e-38
0.029911522 0.25816974 0.96700007 1.7499065e-39
0.035136636 0.2578977 0.96600002 1.473321e-39
0.040016022 0.25548914 0.95700002 1.5655166e-39
0.045222398 0.25548255 0.95700002 1.6573521e-39
0.050112195 0.25387353 0.95100003 1.7495478e-39
0.055052519 0.25279772 0.94700003 1.7484688e-39
0.060139541 0.25252202 0.94600004 2.0250556e-39
0.065077133 0.25171182 0.94300002 2.3934724e-39
0.070055962 0.25116786 0.94100004 3.8667934e-39
0.075092323 0.25089023 0.94000006 5.8000136e-39
0.07994651 0.25007811 0.93700004 8.6541068e-39
0.084858157 0.24953234 0.93500006 9.2958763e-39
0.088496834 0.24551672 0.92000002 1.1043276e-38
0.093394548 0.2452369 0.91900003 1.36226e-38
0.099779457 0.24869223 0.93200004 1.6020411e-38
0.10529242 0.24974525 0.93600005 8.7391054e-39
0.11002253 0.24892998 0.93300003 1.1967389e-38
0.11484259 0.24838109 0.93100005 1.5658454e-38
0.11951129 0.24756503 0.92800003 1.3170252e-38
0.12441502 0.24728216 0.92700005 1.280147e-38
0.12944663 0.24726564 0.92700005 1.2063183e-38
0.1347675 0.24778222 0.92900002 1.2062823e-38
0.13950722 0.24723154 0.92700005 1.2615274e-38
0.14469211 0.24748068 0.92800003 1.289186e-38
0.14956428 0.24719621 0.92700005 1.3445034e-38
0.15425798 0.2466449 0.92500007 1.4091127e-38
0.1594457 0.24689332 0.92600006 1.491981e-38
0.16482098 0.24740814 0.92800003 1.5381874e-38
0.1705832 0.24845591 0.93200004 1.7411985e-38
0.17601103 0.24897029 0.93400002 1.8521577e-38
0.18262295 0.25108385 0.94200003 1.9629004e-38
0.18852368 0.25213096 0.94600004 1.7414864e-38
0.19426224 0.25291145 0.94900006 1.2896195e-38
0.20045286 0.2542249 0.95400006 1.2067509e-38
0.20928335 0.25873578 0.97100008 6.9059926e-39
0.21564594 0.26004887 0.97600007 1.6034803e-38
0.029668689 0.25085434 0.95900005 1.8421021e-39
0.035032962 0.25189561 0.96300006 1.6577123e-39
0.040231328 0.25162819 0.96200007 1.473321e-39
0.04537116 0.25109839 0.96000004 1.5655166e-39
0.050436091 0.25030637 0.95700002 1.8417434e-39
0.055351626 0.24899051 0.95200002 1.8406644e-39
0.060085073 0.24715091 0.94500005 2.3012796e-39
0.065293998 0.24740298 0.94600004 2.8537289e-39
0.070438728 0.24739271 0.94600004 3.7742363e-39
0.075343139 0.24659732 0.94300002 6.7212468e-39
0.080043584 0.24527831 0.93800002 9.2065603e-39
0.085052043 0.24500476 0.93700004 9.1122081e-39
0.088894419 0.24159296 0.92400002 1.0674858e-38
0.093407862 0.24027258 0.91900003 1.2423339e-38
0.099793538 0.2436576 0.93200004 1.4544546e-38
0.10519457 0.24442744 0.93500006 1.131914e-38
0.11050942 0.24493526 0.93700004 7.2650557e-39
0.11485817 0.24335144 0.93100005 1.3906384e-38
0.1195273 0.24255143 0.92800003 1.6121235e-38
0.12469985 0.24279651 0.92900002 1.2156809e-38
0.12974273 0.24277979 0.92900002 1.215465e-38
0.13478468 0.24276268 0.92900002 1.2614911e-38
0.13967521 0.24248397 0.92800003 1.2614911e-38
0.14424211 0.2416824 0.92500007 1.3075889e-38
0.14958234 0.24218693 0.92700005 1.3260646e-38
0.15444301 0.2419074 0.92600006 1.3445759e-38
0.15929191 0.24162769 0.92500007 1.4090423e-38
0.16430673 0.2416091 0.92500007 1.5198203e-38
0.17005287 0.24263504 0.92900002 1.6028685e-38
0.17621845 0.24418305 0.93500006 1.8243907e-38
0.18225433 0.24546959 0.94000006 1.9535729e-38
0.18834358 0.24675593 0.94500005 1.8890359e-38
0.19469091 0.24830316 0.95100003 1.5017417e-38
0.2017329 0.25063342 0.96000004 1.335825e-38
0.2097339 0.2540077 0.97300005 1.5294719e-38
0.21566528 0.25477123 0.97600007 1.4834462e-38
0.22094937 0.25475177 0.97600007 1.9908107e-38
0.029611457 0.24516106 0.95700002 1.9342935e-39
0.035183977 0.24771774 0.96700007 1.5655166e-39
0.040321242 0.24694332 0.96400005 1.6577123e-39
0.045330923 0.24565585 0.95900005 1.6577123e-39
0.050496582 0.24539226 0.95800006 1.8417434e-39
0.055418272 0.24410339 0.95300007 2.1176086e-39
0.060157832 0.24230157 0.94600004 2.4856681e-39
0.065441944 0.24280423 0.94800007 3.1306717e-39
0.070523791 0.24253786 0.94700003 4.32741e-39
0.075274475 0.24124637 0.94200003 8.3800479e-39
0.080226116 0.24072261 0.94000006 9.2062086e-39
0.085427634 0.24096647 0.94100004 9.2044093e-39
0.089677081 0.23864904 0.93200004 1.0122411e-38
0.093522929 0.23556311 0.92000002 1.2146398e-38
0.099486433 0.23785366 0.92900002 1.9336948e-38
0.1055469 0.24014336 0.93800002 1.1411704e-38
0.1106427 0.24012823 0.93800002 9.2004465e-39
0.11512066 0.23883267 0.93300003 1.1967756e-38
0.11967222 0.23779276 0.92900002 1.6581135e-38
0.12471642 0.23777631 0.92900002 1.2986581e-38
0.12962003 0.23750356 0.92800003 1.2708189e-38
0.13465694 0.23748632 0.92800003 1.1969904e-38
0.1396929 0.23746873 0.92800003 1.2614556e-38
0.14472789 0.23745081 0.92800003 1.2707103e-38
0.14960058 0.23717673 0.92700005 1.2615631e-38
0.15462828 0.23715825 0.92700005 1.2984779e-38
0.15948281 0.23688376 0.92600006 1.3077336e-38
0.16485849 0.23737647 0.92800003 1.4000013e-38
0.16988882 0.23735741 0.92800003 1.6027961e-38
0.17567222 0.23836125 0.93200004 1.7227949e-38
0.1814981 0.23936486 0.93600005 1.8520851e-38
0.18836308 0.24164675 0.94500005 1.9351692e-38
0.19532476 0.24392837 0.95400006 1.833754e-38
0.20301358 0.2469766 0.96600002 1.5111049e-38
0.20975374 0.24874617 0.97300005 1.8705968e-38
0.21546406 0.24923749 0.97500002 1.6862056e-38
0.2209689 0.2494733 0.97600007 1.824499e-38
0.029678013 0.24049099 0.95900005 2.1186848e-39
0.035225891 0.24274281 0.96800005 1.7499079e-39
0.040411212 0.24223536 0.96600002 1.8417434e-39
0.045621634 0.24197787 0.96500003 1.7495478e-39
0.050609842 0.24071667 0.96000004 1.933939e-39
0.05560128 0.23970544 0.95600003 2.025413e-39
0.06061225 0.23894432 0.95300007 2.4860254e-39
0.065589987 0.2381825 0.95000005 3.4065355e-39
0.070534438 0.23742002 0.94700003 5.0631688e-39
0.075365663 0.23640622 0.94300002 8.7477486e-39
0.080323398 0.2358932 0.94100004 1.0036334e-38
0.085258625 0.23537958 0.93900007 8.7448759e-39
0.090363801 0.23536669 0.93900007 8.9263875e-39
0.094146468 0.23209484 0.92600006 1.1228393e-38
0.09928643 0.23233153 0.92700005 1.2334389e-38
0.10488658 0.23357011 0.93200004 1.7129283e-38
0.10995029 0.23355497 0.93200004 1.9249781e-38
0.11550674 0.23454167 0.93600005 6.1583592e-39
0.11968849 0.23277153 0.92900002 1.5105284e-38
0.12473314 0.23275501 0.92900002 1.2985859e-38
0.12977682 0.23273803 0.92900002 1.1602199e-38
0.13481955 0.2327207 0.92900002 1.243124e-38
0.13971072 0.23245244 0.92800003 1.2338687e-38
0.14490202 0.23268485 0.92900002 1.2616351e-38
0.14978039 0.23241599 0.92800003 1.2615994e-38
0.15498057 0.23264778 0.92900002 1.2247214e-38
0.15984616 0.23237848 0.92800003 1.2431607e-38
0.16505526 0.23260979 0.92900002 1.3538679e-38
0.17009114 0.2325905 0.92900002 1.4829063e-38
0.17569163 0.23332213 0.93200004 1.6213431e-38
0.18112978 0.23380318 0.93400002 1.741378e-38
0.18778482 0.23578596 0.94200003 1.8152785e-38
0.19473042 0.23801869 0.95100003 1.8798518e-38
0.20303373 0.24175259 0.96600002 1.7969482e-38
0.20977393 0.24348402 0.97300005 1.9629013e-38
0.21526311 0.24371397 0.97400004 1.9443179e-38
0.22076239 0.24394405 0.97500002 1.7968405e-38
0.22580811 0.24367391 0.97400004 1.8615935e-38
0.030023161 0.23800604 0.97000003 2.2098014e-39
0.035522599 0.23947307 0.97600007 2.1176086e-39
0.040626742 0.23824032 0.97100008 2.0261346e-39
0.045581467 0.2365161 0.96400005 1.8417434e-39
0.05072315 0.2360179 0.96200007 1.933939e-39
0.055668041 0.23478298 0.95700002 2.1176086e-39
0.060685169 0.23403804 0.95400006 2.9459245e-39
0.065738089 0.23353769 0.95200002 3.7749551e-39
0.070694111 0.23279141 0.94900006 6.1687933e-39
0.075456932 0.23155388 0.94400007 8.5637203e-39
0.080506124 0.23129693 0.94300002 9.7604684e-39
0.085452862 0.23079406 0.94100004 9.0221831e-39
0.09066578 0.23102632 0.94200003 8.7441515e-39
0.095278636 0.22978653 0.93700004 9.2948043e-39
0.099622041 0.22805586 0.93000007 1.3166665e-38
0.10467634 0.22804126 0.93000007 1.6393513e-38
0.10972972 0.22802612 0.93000007 1.3258862e-38
0.11539929 0.22923633 0.93500006 1.5473712e-38
0.1200914 0.22848462 0.93200004 1.3262092e-38
0.12501849 0.22822282 0.93100005 1.1695121e-38
0.13007349 0.22820576 0.93100005 1.0956835e-38
0.13483717 0.22769803 0.92900002 1.2062824e-38
0.13942754 0.22694494 0.92600006 1.16944e-38
0.14476433 0.22741693 0.92800003 1.1971708e-38
0.14996038 0.22764347 0.92900002 1.2801468e-38
0.15499945 0.22762468 0.92900002 1.224793e-38
0.15986523 0.22736064 0.92800003 1.2708554e-38
0.16542992 0.22807635 0.93100005 1.3078057e-38
0.17047682 0.22805686 0.93100005 1.4184403e-38
0.17589979 0.2285271 0.93300003 1.6120512e-38
0.18134351 0.22899717 0.93500006 1.68588e-38
0.18780477 0.23069154 0.94200003 1.7413063e-38
0.19454578 0.23263048 0.95000005 1.8336105e-38
0.20221335 0.23554851 0.96200007 1.9074032e-38
0.20850073 0.23675226 0.96700007 1.9074396e-38
0.21395729 0.23697662 0.96800005 1.8705617e-38
0.21987681 0.23769069 0.97100008 1.9074399e-38
0.22536439 0.23791528 0.97200006 1.7693261e-38
0.23015031 0.23740584 0.97000003 1.9355659e-38
0.035309773 0.23275581 0.97000003 2.1183289e-39
0.040800501 0.23394962 0.97500002 2.2105245e-39
0.045919631 0.23298307 0.97100008 1.9339376e-39
0.050994709 0.23201576 0.96700007 2.1176086e-39
0.055793006 0.23008804 0.95900005 2.2090812e-39
0.060821734 0.22935927 0.95600003 3.498734e-39
0.065886259 0.22886975 0.95400006 4.0515392e-39
0.070779346 0.22789976 0.95000005 7.4588118e-39
0.075628191 0.22692913 0.94600004 9.2090897e-39
0.08060354 0.22643766 0.94400007 9.6682728e-39
0.085465506 0.2257057 0.94100004 9.0214614e-39
0.090582825 0.2256927 0.94100004 8.4679219e-39
0.096004389 0.2263986 0.94400007 8.6508754e-39
0.10060059 0.22518528 0.93900007 9.5713912e-39
0.10514152 0.2239715 0.93400002 1.3996061e-38
0.11021718 0.22395626 0.93400002 1.5288964e-38
0.11553876 0.22442003 0.93600005 1.298515e-38
0.12023672 0.22368446 0.93300003 1.1234144e-38
0.12490109 0.22294854 0.93000007 1.1325619e-38
0.12981133 0.22269168 0.92900002 1.1325259e-38
0.13456453 0.22219482 0.92700005 1.1416376e-38
0.13944556 0.22193725 0.92600006 1.1694402e-38
0.14493874 0.22263801 0.92900002 1.2524883e-38
0.14981766 0.22237977 0.92800003 1.3539035e-38
0.15501843 0.22260052 0.92900002 1.2984785e-38
0.16005673 0.22258136 0.92900002 1.3169532e-38
0.16509396 0.22256199 0.92900002 1.3907464e-38
0.17049645 0.22302152 0.93100005 1.4737225e-38
0.17610817 0.22372034 0.93400002 1.6028317e-38
0.18175139 0.22441891 0.93700004 1.7503814e-38
0.18782492 0.22559625 0.94200003 1.7781491e-38
0.19415648 0.2270128 0.94800007 1.8888559e-38
0.20181346 0.22986576 0.96000004 1.9350257e-38
0.20830566 0.23128168 0.96600002 1.9073672e-38
0.21331467 0.23102167 0.96500003 1.8428662e-38
0.21921787 0.23171932 0.96800005 1.805988e-38
0.22515276 0.23241702 0.97100008 1.7322314e-38
0.23088211 0.23287545 0.97300005 1.824499e-38
0.035024073 0.22563273 0.96200007 2.025413e-39
0.04072319 0.22820674 0.97300005 2.0261332e-39
0.045974094 0.22796543 0.97200006 2.0261332e-39
0.051002637 0.22678524 0.96700007 2.3019971e-39
0.055859819 0.22513534 0.96000004 2.8537289e-39
0.061085619 0.22512634 0.96000004 3.8671508e-39
0.066241696 0.22488207 0.95900005 5.1560847e-39
0.070939116 0.2232302 0.95200002 8.196021e-39
0.075799495 0.22228119 0.94800007 9.6697021e-39
0.08061558 0.22133157 0.94400007 9.5767862e-39
0.085750692 0.22131921 0.94400007 9.3902439e-39
0.090788677 0.22107174 0.94300002 9.0203866e-39
0.095713206 0.22058927 0.94100004 9.2962532e-39
0.10093652 0.22080943 0.94200003 8.7423508e-39
0.10583201 0.22032583 0.94000006 9.1096928e-39
0.11046874 0.219373 0.93600005 1.4089343e-38
0.11543138 0.21912283 0.93500006 1.4460281e-38
0.12038213 0.21887217 0.93400002 1.1325619e-38
0.12532099 0.21862108 0.93300003 1.058769e-38
0.13010819 0.21813527 0.93100005 1.1417455e-38
0.13487259 0.21764907 0.92900002 1.1325619e-38
0.14006606 0.21786542 0.93000007 1.1602573e-38
0.14526926 0.21808131 0.93100005 1.2524527e-38
0.14999788 0.21759416 0.92900002 1.2892945e-38
0.1548706 0.21734099 0.92800003 1.3998939e-38
0.15990372 0.21732181 0.92800003 1.4460283e-38
0.16564669 0.21823902 0.93200004 1.5290044e-38
0.17069934 0.2182193 0.93200004 1.5290041e-38
0.1761281 0.21866764 0.93400002 1.6674053e-38
0.1815775 0.21911576 0.93600005 1.7043557e-38
0.18764581 0.22026595 0.94100004 1.7965879e-38
0.19397211 0.22164993 0.94700003 1.8888559e-38
0.2005727 0.22326767 0.95400006 1.9441733e-38
0.20811078 0.22582114 0.96500003 1.888676e-38
0.21355639 0.22603434 0.96600002 1.5658472e-38
0.21923845 0.22648157 0.96800005 1.4921263e-38
0.22517321 0.22716279 0.97100008 1.8887115e-38
0.23090237 0.22761019 0.97300005 1.6860975e-38
0.23592435 0.22735603 0.97200006 1.8523022e-38
0.035138812 0.22111495 0.96500003 1.9339376e-39
0.040813282 0.22340032 0.97500002 2.0261332e-39
0.046123173 0.22339353 0.97500002 2.2108804e-39
0.051063295 0.22178216 0.96800005 2.6704166e-39
0.056159418 0.22108656 0.96500003 3.867871e-39
0.061285909 0.22061934 0.96300006 4.3277646e-39
0.06638997 0.22015139 0.96100003 6.8145172e-39
0.071098924 0.21853739 0.95400006 9.3941984e-39
0.076050811 0.21783908 0.95100003 9.4845906e-39
0.08079844 0.21668206 0.94600004 1.0037044e-38
0.085581683 0.21575353 0.94200003 9.2980483e-39
0.090609424 0.21551152 0.94100004 9.3898894e-39
0.095727116 0.21549791 0.94100004 9.1129382e-39
0.10073671 0.21525471 0.94000006 8.8356296e-39
0.10607229 0.2156979 0.94200003 9.2955232e-39
0.11119253 0.21568252 0.94200003 1.0678458e-38
0.11581785 0.21475083 0.93800002 1.1877001e-38
0.12065649 0.21427661 0.93600005 1.0956481e-38
0.12547231 0.21380197 0.93400002 1.068097e-38
0.13026534 0.21332695 0.93200004 1.1141948e-38
0.13489038 0.21262272 0.92900002 1.1602573e-38
0.13978297 0.21237589 0.92800003 1.1603294e-38
0.14528781 0.21304406 0.93100005 1.2433407e-38
0.15017821 0.21279654 0.93000007 1.3907817e-38
0.15522352 0.21277753 0.93000007 1.4184051e-38
0.16026774 0.21275827 0.93000007 1.4183696e-38
0.16531083 0.21273872 0.93000007 1.5290041e-38
0.17071919 0.21317643 0.93200004 1.6027964e-38
0.17614813 0.21361388 0.93400002 1.6674055e-38
0.18159769 0.21405113 0.93600005 1.7227949e-38
0.18766619 0.21517417 0.94100004 1.8242824e-38
0.19419755 0.21675423 0.94800007 1.879636e-38
0.20038316 0.2178767 0.95300007 1.879636e-38
0.20791604 0.22037055 0.96400005 1.8517611e-38
0.21313503 0.22034962 0.96400005 1.1968478e-38
0.21880618 0.2207859 0.96600002 1.5010223e-38
0.22449812 0.22122225 0.96800005 1.5659192e-38
0.23068555 0.2221157 0.97200006 1.6215606e-38
0.23570184 0.22186676 0.97100008 1.7967328e-38
0.24070659 0.2216181 0.97000003 1.907727e-38
0.041028976 0.21924162 0.98000002 2.0261332e-39
0.046366908 0.21923484 0.98000002 2.3019971e-39
0.051387753 0.21788505 0.97400004 2.9462777e-39
0.056400884 0.21675825 0.96900004 4.6039969e-39
0.06129529 0.21540712 0.96300006 5.6163398e-39
0.06626188 0.21450269 0.95900005 8.0123402e-39
0.071184203 0.21359763 0.95500004 9.5778624e-39
0.076062217 0.2126919 0.95100003 9.7611775e-39
0.081066743 0.2122329 0.94900006 9.85265e-39
0.085866921 0.21132603 0.94500005 9.7593824e-39
0.090622701 0.21041858 0.94100004 9.7590265e-39
0.095639274 0.21018143 0.94000006 9.9426947e-39
0.10075119 0.21016727 0.94000006 9.850499e-39
0.10597476 0.2103761 0.94100004 9.6653819e-39
0.11073594 0.20969012 0.93800002 1.1140868e-38
0.11571045 0.20945077 0.93700004 1.0956126e-38
0.12054413 0.20898743 0.93500006 1.0680617e-38
0.12548931 0.20874715 0.93400002 1.0588775e-38
0.13042255 0.20850646 0.93300003 1.0312188e-38
0.13519858 0.20804191 0.93100005 1.1142669e-38
0.1398011 0.20735361 0.92800003 1.1142669e-38
0.14483814 0.20733528 0.92800003 1.215682e-38
0.15003555 0.20754002 0.92900002 1.3078057e-38
0.15557654 0.20819122 0.93200004 1.4275879e-38
0.1604595 0.20794851 0.93100005 1.4737222e-38
0.16550826 0.20792893 0.93100005 1.5566983e-38
0.17055587 0.20790915 0.93100005 1.6489662e-38
0.17635687 0.20878237 0.93500006 1.695136e-38
0.18200605 0.20943198 0.93800002 1.741306e-38
0.18748721 0.20985812 0.94000006 1.8427935e-38
0.19360359 0.21095376 0.94500005 1.879636e-38
0.20040396 0.2127188 0.95300007 1.8703447e-38
0.20815274 0.21537621 0.96500003 1.8242115e-38
0.213156 0.21513201 0.96400005 1.0949651e-38
0.21882707 0.21555735 0.96600002 1.2796084e-38
0.22637442 0.2177677 0.97600007 4.1372608e-39
0.23213033 0.21819298 0.97800004 5.6102245e-39
0.23620775 0.21705681 0.97300005 1.0406181e-38
0.24072669 0.21636723 0.97000003 1.3817049e-38
0.041286591 0.21524529 0.98600006 2.2098014e-39
0.046799961 0.21589337 0.98900002 2.578221e-39
0.051659506 0.21370289 0.97900003 3.9593464e-39
0.056584172 0.21216662 0.97200006 6.0776753e-39
0.061559279 0.21106626 0.96700007 7.3669707e-39
0.066479236 0.20996523 0.96200007 9.946289e-39
0.071418568 0.20908183 0.95800006 9.9455659e-39
0.076153591 0.20776133 0.95200002 1.0129237e-38
0.081078768 0.20709495 0.94900006 1.0036688e-38
0.085879564 0.20620978 0.94500005 1.0864651e-38
0.090924874 0.20597865 0.94400007 1.0311835e-38
0.095653094 0.20509237 0.94000006 1.0035245e-38
0.10065842 0.20486011 0.93900007 9.9423289e-39
0.10598977 0.20528173 0.94100004 1.0495503e-38
0.11075146 0.20461205 0.93800002 1.0956484e-38
0.11547948 0.20394193 0.93500006 1.003489e-38
0.12056064 0.20392573 0.93500006 9.9426947e-39
0.12564066 0.20390901 0.93500006 9.6668182e-39
0.13043994 0.20345567 0.93300003 9.8519297e-39
0.13536158 0.20322005 0.93200004 1.1235587e-38
0.14012055 0.20276602 0.93000007 1.0498022e-38
0.14485662 0.20231171 0.92800003 1.2157178e-38
0.14973134 0.20207511 0.92700005 1.2433042e-38
0.15542878 0.20292804 0.93100005 1.3447194e-38
0.1601342 0.20247285 0.92900002 1.5014165e-38
0.16517234 0.20245333 0.92900002 1.4921613e-38
0.17075899 0.20308733 0.93200004 1.5751389e-38
0.17637698 0.20372099 0.93500006 1.6121601e-38
0.18222044 0.20457222 0.93900007 1.75971e-38
0.18790665 0.20520534 0.94200003 1.7874407e-38
0.19362426 0.20583822 0.94500005 1.8150994e-38
0.20042481 0.20755988 0.95300007 1.7966603e-38
0.20774241 0.20971675 0.96300006 1.8519776e-38
0.21406159 0.21078445 0.96800005 1.3537972e-38
0.21998081 0.21141653 0.97100008 1.1324557e-38
0.22685941 0.21291943 0.97800004 1.2153955e-38
0.23215126 0.21289834 0.97800004 1.0034539e-38
0.23647115 0.21200681 0.97400004 9.7655089e-39
0.041627996 0.21160787 0.99400002 2.4863771e-39
0.047185782 0.2122397 0.99700004 4.1437376e-39
0.051931288 0.20946474 0.98400003 5.1564392e-39
0.05676746 0.20754069 0.97500002 7.9201417e-39
0.061695937 0.20625459 0.96900004 9.9466449e-39
0.066696592 0.20539351 0.96500003 9.7611747e-39
0.071578383 0.20431897 0.96000004 1.0314351e-38
0.07624492 0.2028182 0.95300007 1.0037762e-38
0.080834389 0.20131688 0.94600004 1.003741e-38
0.085892133 0.20109187 0.94500005 1.0313642e-38
0.091034405 0.20107901 0.94500005 1.0404396e-38
0.095972173 0.20063998 0.94300002 1.0404027e-38
0.10088719 0.20020041 0.94100004 1.040331e-38
0.10611738 0.20039852 0.94200003 1.0495505e-38
0.11064883 0.19931971 0.93700004 1.0588067e-38
0.11574246 0.19930404 0.93700004 1.0127089e-38
0.12096394 0.19950055 0.93800002 1.0127809e-38
0.12579197 0.19905853 0.93600005 1.0035969e-38
0.13045725 0.19840343 0.93300003 9.9444925e-39
0.13537933 0.19817331 0.93200004 1.0406547e-38
0.14044002 0.19815539 0.93200004 1.0774253e-38
0.14487503 0.19728674 0.92800003 1.1510731e-38
0.14975007 0.19705561 0.92700005 1.2249373e-38
0.15561488 0.19809952 0.93200004 1.3816342e-38
0.16032597 0.1976552 0.93000007 1.3815989e-38
0.16590321 0.19827323 0.93300003 1.4921616e-38
0.17132859 0.19867845 0.93500006 1.5014165e-38
0.17677444 0.19908337 0.93700004 1.6213772e-38
0.1824349 0.19970049 0.94000006 1.6859165e-38
0.18812667 0.20031734 0.94300002 1.7874407e-38
0.19384985 0.20093398 0.94600004 1.796732e-38
0.20023535 0.20218754 0.95200002 1.7876918e-38
0.2066848 0.20344086 0.95800006 1.7047156e-38
0.21319811 0.20469388 0.96400005 1.5480186e-38
0.21932223 0.20552208 0.96800005 1.1515771e-38
0.22618462 0.20698708 0.97500002 1.1150952e-38
0.041634377 0.20622216 0.99400002 3.2235764e-39
0.046908975 0.20559303 0.99100006 5.8947217e-39
0.051833618 0.20371842 0.98200005 7.5517137e-39
0.056834284 0.20246555 0.97600007 8.8402974e-39
0.061832584 0.20141943 0.97100008 9.8533731e-39
0.066706575 0.20016523 0.96500003 1.0037041e-38
0.07158903 0.19911787 0.96000004 9.7608117e-39
0.076256178 0.19765511 0.95300007 1.0682411e-38
0.081017166 0.19660658 0.94800007 9.8537416e-39
0.085995533 0.19617966 0.94600004 9.4849591e-39
0.09104754 0.19595951 0.94500005 9.8519424e-39
0.095985904 0.19553141 0.94300002 1.0311835e-38
0.10079426 0.19489545 0.94000006 1.0588064e-38
0.10590692 0.19488092 0.94000006 1.0219286e-38
0.11101849 0.19486584 0.94000006 1.0587712e-38
0.11600543 0.19464295 0.93900007 1.0496237e-38
0.12085136 0.19421227 0.93700004 9.8519424e-39
0.12621205 0.19461021 0.93900007 9.7597481e-39
0.13075422 0.19376421 0.93500006 9.9448597e-39
0.13554226 0.19333231 0.93300003 9.7597467e-39
0.14045808 0.19310731 0.93200004 9.8519438e-39
0.14504951 0.19246756 0.92900002 1.0589863e-38
0.15009187 0.19244909 0.92900002 1.0866805e-38
0.15529998 0.19263741 0.93000007 1.2157541e-38
0.16034529 0.1926183 0.93000007 1.2895832e-38
0.16592285 0.19322015 0.93300003 1.4368088e-38
0.17134848 0.1936146 0.93500006 1.5013458e-38
0.17698324 0.19421582 0.93800002 1.5658828e-38
0.18264931 0.19481672 0.94100004 1.6858812e-38
0.18834671 0.19541737 0.94400007 1.7228317e-38
0.19366555 0.19560379 0.94500005 1.7783292e-38
0.19920443 0.19599707 0.94700003 1.677057e-38
0.20627424 0.19783886 0.95600003 1.0778206e-38
0.21233447 0.19864561 0.96000004 1.1792716e-38
0.21866357 0.19965915 0.96500003 1.1701237e-38
0.04180827 0.20164272 0.99800003 3.4083194e-39
0.047152784 0.20123191 0.99600005 7.8304656e-39
0.051999811 0.19900207 0.98500007 9.0261235e-39
0.056784566 0.19697365 0.97500002 9.4845878e-39
0.061841808 0.19615673 0.97100008 9.7604572e-39
0.066785611 0.19513713 0.96600002 1.0590215e-38
0.071450412 0.19351096 0.95800006 9.9455575e-39
0.076267347 0.19249023 0.95300007 1.0221095e-38
0.081114426 0.19167088 0.94900006 9.6693504e-39
0.086007938 0.19105291 0.94600004 1.0129605e-38
0.091060579 0.19083831 0.94500005 1.0774255e-38
0.096101329 0.19062312 0.94400007 1.0404397e-38
0.10102291 0.1902054 0.94200003 9.7593824e-39
0.10580899 0.18958527 0.93900007 1.0404396e-38
0.11091568 0.18957032 0.93900007 1.0404762e-38
0.11614479 0.18975671 0.94000006 1.0220726e-38
0.12086764 0.18913515 0.93700004 9.7604712e-39
0.1260944 0.18932052 0.93800002 9.3924089e-39
0.13119096 0.18930358 0.93800002 9.3002133e-39
0.13585041 0.18868083 0.93500006 9.9455827e-39
0.14062673 0.18825951 0.93300003 9.115808e-39
0.14538008 0.18783791 0.93100005 9.8522983e-39
0.15027206 0.18761776 0.93000007 1.0590586e-38
0.15565293 0.1880025 0.93200004 1.1419623e-38
0.16070935 0.18798342 0.93200004 1.3079144e-38
0.16612023 0.18836744 0.93400002 1.4644676e-38
0.17155156 0.18875116 0.93600005 1.4921261e-38
0.17700329 0.18913455 0.93800002 1.5845014e-38
0.18286373 0.18992092 0.94200003 1.6398908e-38
0.18856673 0.19050539 0.94500005 1.6675861e-38
0.19368614 0.19048488 0.94500005 1.6584743e-38
0.19943552 0.19106896 0.94800007 1.0315437e-38
0.20672673 0.19306354 0.95800006 1.1789127e-38
0.21279788 0.19384865 0.96200007 1.0313276e-38
0.21981768 0.19543955 0.97000003 1.1050841e-38
0.047349248 0.19661804 1 8.3818401e-39
0.052218765 0.19444788 0.98900002 9.2097987e-39
0.057025999 0.19247371 0.97900003 9.5778624e-39
0.061978348 0.19128536 0.97300005 9.8533759e-39
0.066933714 0.19029297 0.96800005 1.0128884e-38
0.071759231 0.18910339 0.96200007 1.0221079e-38
0.076438494 0.18771671 0.95500004 1.0405471e-38
0.081297077 0.18691914 0.95100003 9.8530186e-39
0.086111166 0.186121 0.94700003 1.0682779e-38
0.091073491 0.18571539 0.94500005 1.003741e-38
0.096216641 0.18570223 0.94500005 1.0312922e-38
0.10125151 0.18549201 0.94400007 1.0313276e-38
0.10616168 0.18508472 0.94200003 1.0866449e-38
0.11104896 0.18467695 0.94000006 9.8530214e-39
0.11616048 0.1846616 0.94000006 9.4846046e-39
0.12127081 0.18464573 0.94000006 9.1165507e-39
0.12651439 0.18482579 0.94100004 8.840317e-39
0.13162769 0.18480894 0.94100004 8.7481199e-39
0.1361585 0.18400614 0.93700004 8.4711729e-39
0.14109679 0.18379214 0.93600005 8.8392352e-39
0.14571059 0.18318513 0.93300003 9.4831598e-39
0.15061374 0.18297051 0.93200004 1.0313642e-38
0.15567176 0.18295191 0.93200004 1.0958646e-38
0.16090095 0.18312927 0.93300003 1.2617446e-38
0.16613966 0.18330631 0.93400002 1.363052e-38
0.17157125 0.1836793 0.93600005 1.4276612e-38
0.17702323 0.18405201 0.93800002 1.492413e-38
0.18307807 0.18501303 0.94300002 1.5937588e-38
0.18858711 0.18538515 0.94500005 1.5478041e-38
0.19411661 0.18575709 0.94700003 1.4833013e-38
0.2002977 0.18671721 0.95200002 1.1053713e-38
0.20696341 0.18806933 0.95900005 1.5015619e-38
0.21370372 0.1894211 0.96600002 1.612197e-38
0.22051868 0.19077258 0.97300005 8.6516041e-39
0.047356267 0.19119407 1 9.2122987e-39
0.052332088 0.18946604 0.99100006 9.577847e-39
0.057092629 0.18735501 0.98000002 1.0406899e-38
0.061859988 0.18562579 0.97100008 9.85265e-39
0.066874295 0.18485181 0.96700007 9.4842248e-39
0.071620382 0.18350375 0.96000004 9.8526528e-39
0.076609552 0.1829197 0.95700002 1.0312921e-38
0.081565157 0.18233506 0.95400006 1.0312921e-38
0.086305238 0.18136762 0.94900006 9.6686273e-39
0.091279037 0.18097296 0.94700003 9.945217e-39
0.096230038 0.18057777 0.94500005 1.0221449e-38
0.10115817 0.180182 0.94300002 9.5753555e-39
0.10628887 0.18016785 0.94300002 9.8530214e-39
0.11141841 0.18015315 0.94300002 9.668993e-39
0.11629961 0.17975587 0.94100004 9.6693616e-39
0.12141587 0.17974015 0.94100004 9.8544829e-39
0.1265309 0.17972395 0.94100004 8.5644503e-39
0.13164468 0.1797073 0.94100004 7.6424926e-39
0.13632116 0.17911732 0.93800002 8.5637287e-39
0.14096376 0.17852704 0.93500006 9.1158221e-39
0.14588481 0.17831829 0.93400002 9.4838815e-39
0.15095535 0.17830016 0.93400002 9.6686385e-39
0.15602455 0.17828168 0.93400002 1.0498036e-38
0.1612649 0.17845376 0.93500006 1.0958657e-38
0.16687055 0.1790072 0.93800002 1.2709654e-38
0.17214078 0.17917861 0.93900007 1.3262826e-38
0.17742053 0.17934978 0.94000006 1.5292926e-38
0.18329231 0.18009305 0.94400007 1.5017779e-38
0.18880695 0.18045446 0.94600004 1.5939373e-38
0.19413702 0.18062496 0.94700003 1.1237748e-38
0.20115995 0.18232098 0.95600003 1.5848244e-38
0.20763169 0.18344451 0.96200007 1.5480186e-38
0.21372464 0.1841864 0.96600002 1.2437374e-38
0.047457926 0.18613969 1.0020001 9.7629613e-39
0.052445341 0.18446054 0.99300003 9.9466295e-39
0.057275709 0.18259503 0.98300004 1.0129949e-38
0.062123779 0.18110046 0.97500002 1.0406181e-38
0.066953048 0.17979108 0.96800005 9.9455659e-39
0.071779832 0.17866683 0.96200007 9.9455687e-39
0.076700479 0.17791347 0.95800006 1.0129251e-38
0.081491128 0.17697385 0.95300007 1.0221804e-38
0.08640825 0.17640507 0.95000005 9.4845934e-39
0.091291688 0.17583573 0.94700003 1.0037413e-38
0.09624327 0.17545155 0.94500005 1.0037778e-38
0.10117196 0.1750668 0.94300002 1.0037058e-38
0.10652868 0.1754241 0.94500005 9.668993e-39
0.11178781 0.17559516 0.94600004 9.3009336e-39
0.11680941 0.17539448 0.94500005 9.9466645e-39
0.12168983 0.1750077 0.94300002 9.3934908e-39
0.12654726 0.17462052 0.94100004 9.2090981e-39
0.13152155 0.17441849 0.94000006 9.1176241e-39
0.13662902 0.17440161 0.94000006 8.0109206e-39
0.14143361 0.17401326 0.93800002 7.8258035e-39
0.14621511 0.17362462 0.93600005 8.8399568e-39
0.15162013 0.1739776 0.93800002 8.2864299e-39
0.15671137 0.17395926 0.93800002 9.1158221e-39
0.16162872 0.17375514 0.93700004 1.0498036e-38
0.16706765 0.17410706 0.93900007 1.1419993e-38
0.17271025 0.17464404 0.94200003 1.2342303e-38
0.17762895 0.17443915 0.94100004 1.3173856e-38
0.18292384 0.17460483 0.94200003 1.5202523e-38
0.18882705 0.1753263 0.94600004 1.4833741e-38
0.19456729 0.17586219 0.94900006 1.096223e-38
0.20160136 0.17750958 0.95800006 1.4189445e-38
0.20829991 0.17878596 0.96500003 1.6218469e-38
0.21529433 0.18024732 0.97300005 1.0965117e-38
0.047417395 0.18052055 1.001 1.003703e-38
0.052294407 0.17852972 0.99000007 1.0222496e-38
0.057109073 0.17671864 0.98000002 1.0682765e-38
0.062068895 0.1756283 0.97400004 1.0313628e-38
0.066893354 0.17435703 0.96700007 9.8540962e-39
0.071789928 0.17344581 0.96200007 9.7608229e-39
0.076631129 0.172534 0.95700002 1.0036335e-38
0.081502438 0.17180195 0.95300007 9.9452142e-39
0.086420156 0.17124963 0.95000005 1.0222156e-38
0.091400594 0.17087701 0.94800007 9.7619005e-39
0.096561886 0.1708643 0.94800007 1.0406206e-38
0.10150746 0.17049056 0.94600004 1.0313642e-38
0.10676834 0.17065695 0.94700003 1.0498391e-38
0.11180253 0.17046237 0.94600004 1.0038499e-38
0.11670101 0.17008714 0.94400007 9.2098184e-39
0.12170552 0.1698916 0.94300002 9.5778806e-39
0.1266979 0.16969563 0.94200003 9.3012937e-39
0.13167804 0.16949925 0.94100004 8.7488402e-39
0.13679139 0.16948256 0.94100004 8.9332329e-39
0.14160177 0.16910529 0.93900007 8.9325126e-39
0.14685774 0.16926791 0.94000006 8.1945944e-39
0.15212318 0.16943012 0.94100004 8.9318049e-39
0.15739812 0.16959198 0.94200003 9.4846186e-39
0.16250998 0.16957346 0.94200003 9.3920544e-39
0.16744252 0.16937469 0.94100004 9.5768002e-39
0.17272952 0.16953564 0.94200003 1.0960089e-38
0.17802601 0.16969632 0.94300002 1.3082025e-38
0.18313773 0.16967681 0.94300002 1.3913225e-38
0.18864734 0.17001697 0.94500005 1.5111404e-38
0.19458739 0.17071673 0.94900006 1.1607967e-38
0.20120078 0.17195578 0.95600003 1.133138e-38
0.20745696 0.17283478 0.96100003 1.6957113e-38
0.21332346 0.17335388 0.96400005 1.6134196e-38
0.047613632 0.17578487 1.005 9.948433e-39
0.052460294 0.17367896 0.99300003 1.077567e-38
0.057058837 0.17122272 0.97900003 1.0589852e-38
0.061950121 0.1699902 0.97200006 1.068169e-38
0.066833489 0.16893196 0.96600002 1.0037041e-38
0.071799874 0.16822292 0.96200007 9.944138e-39
0.076721765 0.16751331 0.95800006 9.5760771e-39
0.081684649 0.16697799 0.95500004 1.0221804e-38
0.086613841 0.16644208 0.95200002 9.4849563e-39
0.091605745 0.16608049 0.95000005 1.0038133e-38
0.096574783 0.16571835 0.94800007 9.6682756e-39
0.10173553 0.16570526 0.94800007 1.0314008e-38
0.10689511 0.16569161 0.94800007 1.0038499e-38
0.11193526 0.16550268 0.94700003 9.4860535e-39
0.11683965 0.16513851 0.94500005 9.1172682e-39
0.12197917 0.16512336 0.94500005 8.9332329e-39
0.12711737 0.16510774 0.94500005 9.5786009e-39
0.13197431 0.16474225 0.94300002 8.8410358e-39
0.13695356 0.16455109 0.94200003 8.8410372e-39
0.14222218 0.16470891 0.94300002 8.5637287e-39
0.14734401 0.16469163 0.94300002 8.4711743e-39
0.15246443 0.16467398 0.94300002 9.4838941e-39
0.15825188 0.16535446 0.94700003 9.023995e-39
0.16304612 0.16498694 0.94500005 8.6555698e-39
0.16817313 0.16496834 0.94500005 9.0243467e-39
0.17311534 0.16477495 0.94400007 9.6697161e-39
0.17880049 0.16527948 0.94700003 1.0038859e-38
0.18393409 0.16526015 0.94700003 1.0224325e-38
0.18906631 0.16524069 0.94700003 1.2253336e-38
0.1941971 0.16522104 0.94700003 1.1240262e-38
0.20058946 0.16624801 0.95300007 1.2992701e-38
0.20682956 0.16710019 0.95800006 1.0227552e-38
0.042431798 0.1715185 1.0120001 1.2165813e-38
0.047430746 0.16964798 1.001 1.0408328e-38
0.052361913 0.16794634 0.99100006 1.0406178e-38
0.057008442 0.16573575 0.97800004 1.0313628e-38
0.062022395 0.16488029 0.97300005 1.0221435e-38
0.066981032 0.16402426 0.96800005 1.0222158e-38
0.072033592 0.16350652 0.96500003 1.0038133e-38
0.076892331 0.16264935 0.96000004 9.6697161e-39
0.081866719 0.16213049 0.95700002 9.9455827e-39
0.086898386 0.16178048 0.95500004 9.9455827e-39
0.091714315 0.16109109 0.95100003 9.8541074e-39
0.096791238 0.16090938 0.95000005 9.3009336e-39
0.10174879 0.16055779 0.94800007 1.0407641e-38
0.1069089 0.1605444 0.94800007 9.7629921e-39
0.11230421 0.16086912 0.95000005 9.5782492e-39
0.1172254 0.16051601 0.94800007 9.5778946e-39
0.1225108 0.16067037 0.94900006 8.8410499e-39
0.12740216 0.16031636 0.94700003 8.9332315e-39
0.13227038 0.15996197 0.94500005 9.5778806e-39
0.13726088 0.15977646 0.94400007 8.5633699e-39
0.14238995 0.15975985 0.94400007 9.2083834e-39
0.14767386 0.15991206 0.94500005 9.9459485e-39
0.1532906 0.16040228 0.94800007 9.2998588e-39
0.15877135 0.16072287 0.95000005 9.2087436e-39
0.16392723 0.16070475 0.95000005 9.0247082e-39
0.16925961 0.16085549 0.95100003 8.9325112e-39
0.17423458 0.16066769 0.95000005 9.3938551e-39
0.17938608 0.16064879 0.95000005 9.5786023e-39
0.18434186 0.16046061 0.94900006 9.1186989e-39
0.18968473 0.16061044 0.95000005 8.5665999e-39
0.19483192 0.16059104 0.95000005 7.7386371e-39
0.20018822 0.16074052 0.95100003 8.9382537e-39
0.20555398 0.16088989 0.95200002 1.1056957e-38
0.21048658 0.1607012 0.95100003 9.9524141e-39
0.042353753 0.16569129 1.01 1.031794e-38
0.047247678 0.16355257 0.99700004 1.0868234e-38
0.05226336 0.16223352 0.98900002 1.0312908e-38
0.057132781 0.16074984 0.98000002 1.0036688e-38
0.062030774 0.15959366 0.97300005 1.0128531e-38
0.066990033 0.15876496 0.96800005 1.0497313e-38
0.072043218 0.1582637 0.96500003 1.0313642e-38
0.076822452 0.1572699 0.95900005 9.9455827e-39
0.081791967 0.15676753 0.95600003 9.5775205e-39
0.086909771 0.15659256 0.95500004 9.3934893e-39
0.091919154 0.15625307 0.95300007 9.300935e-39
0.096803725 0.15574913 0.95000005 9.6697133e-39
0.10186914 0.15557255 0.94900006 9.6700776e-39
0.10692245 0.15539545 0.94800007 9.2098198e-39
0.11220008 0.1555457 0.94900006 8.7484885e-39
0.11736362 0.15553148 0.94900006 9.3935048e-39
0.12265497 0.15568069 0.95000005 8.5637427e-39
0.12755218 0.15533781 0.94800007 9.1172682e-39
0.13228628 0.15483071 0.94500005 9.8544675e-39
0.13742258 0.15481475 0.94500005 9.7608369e-39
0.14285921 0.15512602 0.94700003 1.0221095e-38
0.14831607 0.15543683 0.94900006 1.0499125e-38
0.15363151 0.15558347 0.95000005 9.9459541e-39
0.1589563 0.15572971 0.95100003 8.7484899e-39
0.1648082 0.15636684 0.95500004 9.209468e-39
0.17016803 0.15651236 0.95600003 7.9187278e-39
0.17553718 0.15665759 0.95700002 7.919804e-39
0.18016031 0.15614785 0.95400006 6.1691618e-39
0.18513794 0.15596534 0.95300007 6.0783955e-39
0.19030297 0.15594633 0.95300007 5.5259434e-39
0.19567166 0.15609078 0.95400006 5.2500824e-39
0.19999711 0.15541708 0.95000005 6.9096023e-39
0.20578946 0.15588853 0.95300007 7.5553221e-39
0.21205562 0.15668692 0.95800006 1.0690685e-38
0.04235946 0.1602011 1.01 1.0319735e-38
0.047206625 0.15797457 0.99600005 1.0499449e-38
0.0523232 0.15701635 0.99000007 1.0128517e-38
0.057198692 0.15558173 0.98100007 1.0220359e-38
0.061975237 0.15414658 0.97200006 1.0221081e-38
0.066998862 0.15350382 0.96800005 1.0035968e-38
0.071977988 0.15286049 0.96400005 1.0036688e-38
0.077072807 0.15253375 0.96200007 1.0129605e-38
0.082059257 0.15204787 0.95900005 9.8541046e-39
0.086829908 0.15124437 0.95400006 9.3934893e-39
0.091834404 0.15091601 0.95200002 9.485685e-39
0.097019777 0.15090413 0.95200002 9.3012937e-39
0.1018819 0.15041623 0.94900006 9.5775261e-39
0.10704854 0.15040335 0.94900006 9.5789694e-39
0.11233212 0.1505484 0.95000005 9.0265159e-39
0.11774898 0.15085138 0.95200002 9.3023825e-39
0.12292799 0.15083693 0.95200002 8.8406813e-39
0.12783651 0.1505052 0.95000005 8.8410372e-39
0.13286188 0.15033151 0.94900006 9.2094666e-39
0.1378749 0.15015741 0.94800007 9.5771687e-39
0.14317736 0.1502997 0.94900006 1.0866829e-38
0.14848919 0.15044159 0.95000005 1.0591318e-38
0.15364866 0.15042475 0.95000005 1.0223972e-38
0.15914097 0.15072423 0.95200002 9.4867752e-39
0.16517128 0.15149826 0.95700002 8.472989e-39
0.17089824 0.15195523 0.96000004 8.6573789e-39
0.17665626 0.15241183 0.96300006 6.9070954e-39
0.18168981 0.15223511 0.96200007 6.262798e-39
0.18690529 0.15221645 0.96200007 5.0649751e-39
0.19211926 0.1521976 0.96200007 3.9593464e-39
0.19692148 0.15186222 0.96000004 5.803259e-39
0.20170055 0.15152681 0.95800006 4.7891043e-39
0.20732039 0.151824 0.96000004 7.1858165e-39
0.21318184 0.15227915 0.96300006 9.3073964e-39
0.037363876 0.15685868 1.024 1.419484e-38
0.042281147 0.15440261 1.008 1.0316857e-38
0.047070615 0.15209918 0.99300003 1.022107e-38
0.052171465 0.15117376 0.98700005 1.0220712e-38
0.057206135 0.15024772 0.98100007 1.0406547e-38
0.062174562 0.14932114 0.97500002 9.761546e-39
0.067145944 0.14854716 0.97000003 1.0314717e-38
0.072061889 0.14777263 0.96500003 9.3005678e-39
0.077322997 0.14776319 0.96500003 9.9455799e-39
0.08224079 0.14714071 0.96100003 9.485322e-39
0.087022878 0.14636461 0.95600003 9.3009336e-39
0.09194234 0.14589427 0.95300007 9.946303e-39
0.09703178 0.14572957 0.95200002 9.5786009e-39
0.10210915 0.14556438 0.95100003 1.0131775e-38
0.10728718 0.14555174 0.95100003 9.671165e-39
0.11246391 0.14553858 0.95100003 8.749929e-39
0.11776302 0.14567795 0.95200002 8.1971112e-39
0.12307167 0.14581688 0.95300007 8.1041925e-39
0.12825517 0.14580227 0.95300007 9.0261516e-39
0.13315722 0.1454813 0.95100003 9.8555577e-39
0.13818152 0.14531295 0.95000005 9.3938551e-39
0.14364612 0.14560306 0.95200002 9.9470317e-39
0.1492873 0.14604567 0.95500004 9.5782463e-39
0.15479778 0.14633493 0.95700002 9.0254285e-39
0.16016127 0.14647089 0.95800006 8.472975e-39
0.16605189 0.14706513 0.96200007 8.2885865e-39
0.1716283 0.14735326 0.96400005 7.5513872e-39
0.17777523 0.14809954 0.96900004 7.0922069e-39
0.18359706 0.14853978 0.97200006 6.3557153e-39
0.18925555 0.14882688 0.97400004 4.8805838e-39
0.19393557 0.14834987 0.97100008 3.8671508e-39
0.19899179 0.14817831 0.97000003 4.1437376e-39
0.20487793 0.14861764 0.97300005 4.4203203e-39
0.21014714 0.14859858 0.97300005 5.8032506e-39
0.21452932 0.14796865 0.96900004 8.7553142e-39
0.036894288 0.14936772 1.011 1.0501963e-38
0.042076834 0.14818077 1.003 1.0682044e-38
0.04707665 0.14669776 0.99300003 1.0405824e-38
0.052178122 0.14580511 0.98700005 1.0313628e-38
0.057213407 0.1449119 0.98100007 1.0038487e-38
0.062182438 0.14401813 0.97500002 9.6697161e-39
0.067154393 0.14327154 0.97000003 9.7611915e-39
0.072220281 0.14281979 0.96700007 9.7608229e-39
0.077172346 0.14221984 0.96300006 9.2083722e-39
0.082079776 0.14161937 0.95900005 9.7611915e-39
0.087215647 0.14146142 0.95800006 1.0314365e-38
0.092050016 0.14085995 0.95400006 9.4853248e-39
0.097145453 0.14070097 0.95300007 9.8551892e-39
0.10233615 0.1406891 0.95300007 9.6707979e-39
0.10752558 0.14067674 0.95300007 1.0223972e-38
0.1127137 0.14066388 0.95300007 8.9339531e-39
0.11790048 0.14065054 0.95300007 8.7495647e-39
0.12308586 0.14063673 0.95300007 8.5651734e-39
0.12826982 0.1406225 0.95300007 8.5662594e-39
0.13359235 0.14075536 0.95400006 8.9343203e-39
0.1383424 0.1402977 0.95100003 9.7629921e-39
0.14411466 0.14087231 0.95500004 9.9481051e-39
0.14992887 0.14144646 0.95900005 9.0257956e-39
0.15546145 0.14172514 0.96100003 9.0268718e-39
0.16118136 0.14215089 0.96400005 8.6577236e-39
0.16762282 0.14316604 0.97100008 8.472975e-39
0.17413865 0.14418063 0.97800004 8.0120137e-39
0.18036187 0.1448999 0.98300004 7.0914839e-39
0.1868266 0.14576615 0.98900002 7.3684253e-39
0.19277184 0.14618987 0.99200004 7.0911181e-39
0.19834849 0.1463186 0.99300003 5.247923e-39
0.20352405 0.14615247 0.99200004 5.2490006e-39
0.20910837 0.14628085 0.99300003 4.6047074e-39
0.21405399 0.14596726 0.99100006 7.1865438e-39
0.026934063 0.14985098 1.0530001 1.6226743e-38
0.031752028 0.14557809 1.023 1.1703021e-38
0.036825933 0.14358158 1.0090001 1.0866422e-38
0.041956231 0.14229602 1 1.0960072e-38
0.047082528 0.14129449 0.99300003 1.0590935e-38
0.052237488 0.14057693 0.98800004 1.040655e-38
0.057162169 0.139432 0.98000002 1.0130691e-38
0.062317681 0.13899788 0.97700006 1.0038499e-38
0.067301124 0.13827868 0.97200006 9.7619089e-39
0.072602563 0.13827023 0.97200006 9.3927607e-39
0.077422149 0.13740773 0.96600002 9.6697049e-39
0.082260869 0.13668703 0.96100003 9.4846046e-39
0.087226085 0.13625029 0.95800006 9.5775205e-39
0.092157461 0.13581309 0.95500004 9.8544675e-39
0.097360797 0.13580202 0.95500004 9.4864066e-39
0.1025629 0.13579042 0.95500004 1.0038859e-38
0.10776372 0.13577835 0.95500004 9.8555437e-39
0.11284493 0.13562363 0.95400006 9.0254271e-39
0.1180376 0.13561061 0.95400006 9.3023825e-39
0.12335804 0.1357393 0.95500004 9.1187017e-39
0.1284187 0.13558325 0.95400006 8.7499192e-39
0.133467 0.13542683 0.95300007 8.9339531e-39
0.13864841 0.13541214 0.95300007 9.9484624e-39
0.14443199 0.13596538 0.95700002 9.4878472e-39
0.15088288 0.13708636 0.96500003 8.8424778e-39
0.15725736 0.1380647 0.97200006 8.7502849e-39
0.16387346 0.13918449 0.98000002 8.198186e-39
0.17057483 0.14030375 0.98800004 7.8301237e-39
0.17718333 0.14128046 0.99500006 6.1720415e-39
0.191001 0.14351624 1.011 6.8174081e-39
0.19609404 0.14321402 1.0090001 7.4620615e-39
0.20116374 0.1429117 1.0070001 6.079127e-39
0.20579971 0.14232548 1.003 5.6188649e-39
0.015172794 0.14166026 1.0350001 1.6226711e-38
0.020865241 0.14193182 1.0370001 9.5770987e-39
0.026425742 0.14138147 1.033 1.1605774e-38
0.03160071 0.13932499 1.018 1.00399e-38
0.036793932 0.13795228 1.008 1.0406887e-38
0.042003311 0.13698955 1.001 1.0499449e-38
0.047135673 0.13602625 0.99400002 1.0683488e-38
0.052243814 0.13519925 0.98800004 9.5778624e-39
0.057110723 0.13396119 0.97900003 1.0131049e-38
0.06232515 0.13368045 0.97700006 1.0038496e-38
0.067516893 0.13339914 0.97500002 9.485685e-39
0.072536483 0.13284367 0.97100008 9.2090995e-39
0.077431284 0.13215089 0.96600002 9.300935e-39
0.08244174 0.13173123 0.96300006 9.4853262e-39
0.087327302 0.1311743 0.95900005 9.7619201e-39
0.091975093 0.13034339 0.95300007 9.3938551e-39
0.09706609 0.13019587 0.95200002 1.0038859e-38
0.10246717 0.13045816 0.95400006 9.9466631e-39
0.10777588 0.13058317 0.95500004 9.9466631e-39
0.11321243 0.13084438 0.95700002 9.0254285e-39
0.1181744 0.13055825 0.95500004 8.8413918e-39
0.122984 0.13013507 0.95200002 9.0261362e-39
0.12829798 0.13025826 0.95300007 1.0316875e-38
0.13348129 0.13024436 0.95300007 9.8551878e-39
0.13924509 0.13077666 0.95700002 9.5793253e-39
0.14550366 0.13171841 0.96400005 1.0132854e-38
0.15246217 0.13320607 0.97500002 9.2116176e-39
0.16002405 0.13510287 0.98900002 8.4762148e-39
0.16656569 0.13604276 0.99600005 6.6341057e-39
-0.013154709 0.13668172 1.0400001 1.438032e-38
-0.0074598631 0.1364201 1.0380001 5.7024201e-39
-0.0017971034 0.13694635 1.0420001 5.6091483e-39
0.0039280662 0.13812904 1.051 4.6900773e-39
0.009631902 0.13760255 1.0470001 6.9023927e-39
0.015027994 0.13470976 1.0250001 1.373233e-38
0.020686625 0.13510191 1.028 1.013244e-38
0.026173046 0.13444205 1.023 1.105332e-38
0.03148029 0.13325591 1.0140001 1.1144804e-38
0.036688782 0.1320692 1.005 1.0958985e-38
0.041882388 0.13114475 0.99800003 1.0406899e-38
0.046951529 0.13008833 0.99000007 1.049874e-38
0.052144188 0.12955698 0.98600006 9.2087352e-39
0.057292443 0.12902512 0.98200005 9.577882e-39
0.062396221 0.12849268 0.97800004 9.9463002e-39
0.067524724 0.12809111 0.97500002 9.6697161e-39
0.072619557 0.127689 0.97200006 9.5778806e-39
0.077680662 0.12728642 0.96900004 9.485685e-39
0.082536742 0.12662064 0.96400005 9.0250628e-39
0.087428249 0.12608576 0.96000004 9.2090981e-39
0.092274986 0.12555046 0.95600003 9.854113e-39
0.097076908 0.12501472 0.95200002 9.8551892e-39
0.10247848 0.12526645 0.95400006 9.9473722e-39
0.10790055 0.12551765 0.95600003 9.3012937e-39
0.11310641 0.12550579 0.95600003 9.1172682e-39
0.11818711 0.1253622 0.95500004 9.1169039e-39
0.12299708 0.12495571 0.95200002 9.3942096e-39
0.12844613 0.12520511 0.95400006 9.9480939e-39
0.13391544 0.12545404 0.95600003 9.303093e-39
0.14027804 0.12648983 0.96400005 9.8551878e-39
0.14763179 0.12831222 0.97800004 9.9477393e-39
0.15748189 0.1321016 1.0070001 9.2105288e-39
0.16554177 0.13418452 1.023 9.30596e-39
-0.018547367 0.12899895 1.024 5.5201785e-39
-0.013004431 0.12950464 1.028 7.0799554e-39
-0.0074463529 0.13051365 1.036 5.6080735e-39
-0.0017990369 0.13139604 1.0430001 4.5042553e-39
0.0039135711 0.13189982 1.0470001 5.7971311e-39
0.0095042121 0.13013534 1.033 1.3545786e-38
0.014912432 0.12811832 1.0170001 1.3637261e-38
0.020346886 0.12736046 1.011 1.2438378e-38
0.025869023 0.12735784 1.011 1.1144808e-38
0.031297624 0.12697667 1.008 1.0222865e-38
0.036656491 0.12646896 1.0040001 1.0406901e-38
0.041845217 0.12558277 0.99700004 1.0314354e-38
0.046909466 0.12457012 0.98900002 1.0038133e-38
0.052097231 0.12406075 0.98500007 1.0038853e-38
0.057357289 0.12380274 0.98300004 9.6707867e-39
0.062403258 0.12316637 0.97800004 9.5775177e-39
0.067532301 0.12278137 0.97500002 9.0243467e-39
0.072777107 0.12264773 0.97400004 9.6700762e-39
0.077769458 0.12213581 0.97000003 8.8410358e-39
0.082631469 0.12149753 0.96500003 9.1176227e-39
0.14131077 0.12212539 0.97100008 9.7633607e-39
0.15111859 0.12588409 1.001 9.5778806e-39
0.16453531 0.13228218 1.052 8.0116311e-39
0.17154557 0.13327208 1.0600001 7.7256793e-39
-0.024143327 0.1234167 1.024 7.5412881e-39
-0.018422641 0.12257537 1.0170001 6.8955669e-39
-0.012942631 0.12330025 1.023 6.5289466e-39
-0.0074471887 0.12486825 1.036 4.2287432e-39
-0.0017906134 0.12510982 1.0380001 6.528225e-39
0.003854197 0.12426599 1.031 1.4466668e-38
0.009376456 0.12281892 1.0190001 1.428263e-38
0.014811448 0.12173282 1.01 1.3820931e-38
0.1544546 0.12308388 1.023 8.657355e-39
0.16658422 0.12812193 1.0650001 5.4287171e-39
0.17285633 0.12846723 1.0680001 5.3322069e-39
0.17765361 0.12772962 1.062 7.0792379e-39
0.18290202 0.12735271 1.059 1.0029124e-38
0.16738153 0.12289984 1.0700001 6.3506734e-39
0.17319557 0.12288474 1.0700001 4.5968069e-39
0.17766935 0.12195069 1.062 5.3322097e-39
