# .PCD v0.7 - Point Cloud Data file format
VERSION 0.7
FIELDS x y z rgb
SIZE 4 4 4 4
TYPE F F F F
COUNT 1 1 1 1
WIDTH 1346
HEIGHT 1
VIEWPOINT 0 0 0 1 0 0 0
POINTS 1346
DATA ascii
0.090388842 0.3683247 0.94200003 3.7799732e-39
0.095498949 0.36832029 0.94200003 5.0703575e-39
0.099968098 0.36596981 0.93600005 4.6997785e-39
0.10482094 0.36518335 0.93400002 4.7912538e-39
0.11047553 0.36713383 0.93900007 4.0540433e-39
0.075938508 0.36748877 0.95300007 8.5737914e-39
0.080513127 0.36478478 0.94600004 5.068561e-39
0.085011616 0.36208069 0.93900007 3.5923589e-39
0.089817815 0.36091891 0.93600005 3.7774719e-39
0.094895452 0.36091384 0.93600005 3.3154147e-39
0.099759303 0.36013749 0.93400002 3.4068901e-39
0.10460131 0.35936117 0.93200004 3.7756726e-39
0.10953911 0.3589704 0.93100005 3.8675025e-39
0.11446594 0.35857964 0.93000007 4.6050661e-39
0.12053833 0.36165902 0.93800002 5.3455038e-39
0.12522417 0.36049733 0.93500006 4.8863235e-39
0.071366735 0.3653875 0.96100003 6.0844968e-39
0.076421551 0.36462203 0.95900005 3.8685913e-39
0.081284232 0.36309591 0.95500004 2.9451945e-39
0.085831679 0.36042902 0.94800007 2.944484e-39
0.090590872 0.3589026 0.94400007 4.324529e-39
0.095103681 0.35661569 0.93800002 5.2461167e-39
0.099764831 0.35508916 0.93400002 4.8780573e-39
0.10460687 0.35432288 0.93200004 5.1535666e-39
0.10942703 0.35355666 0.93000007 4.9716906e-39
0.1143484 0.35317054 0.92900002 5.0642408e-39
0.11990131 0.35468525 0.93300003 4.2359235e-39
0.12455994 0.35353893 0.93000007 5.0663974e-39
0.13016136 0.35505366 0.93400002 5.620646e-39
0.13537174 0.35542816 0.93500006 5.8068365e-39
0.061322913 0.36245769 0.96700007 1.0785769e-38
0.065675385 0.35758004 0.95400006 4.6983408e-39
0.071000598 0.35832441 0.95600003 3.7745908e-39
0.076187909 0.35831887 0.95600003 4.4160001e-39
0.080694042 0.35531464 0.94800007 8.5637105e-39
0.085475318 0.35380948 0.94400007 1.0774227e-38
0.08982908 0.35080495 0.93600005 1.2065323e-38
0.094602793 0.34967428 0.93300003 1.4460625e-38
0.099343732 0.34854352 0.93000007 1.5567339e-38
0.1042764 0.3481622 0.92900002 1.5015252e-38
0.10943333 0.34853035 0.93000007 1.6305627e-38
0.11435471 0.34814891 0.92900002 1.3633028e-38
0.11939356 0.34814221 0.92900002 1.160509e-38
0.12470011 0.34888503 0.93100005 6.5364898e-39
0.13016756 0.35000259 0.93400002 6.8137942e-39
0.13552259 0.35074547 0.93600005 6.0787487e-39
0.14089917 0.35148847 0.93800002 6.9106645e-39
0.14551917 0.35035807 0.93500006 7.7418685e-39
0.056137942 0.35761306 0.96800005 4.6093793e-39
0.06088398 0.35465255 0.96000004 4.3292009e-39
0.066024907 0.35427776 0.95900005 4.4181511e-39
0.071229041 0.3542721 0.95900005 1.086932e-38
0.07547652 0.34983313 0.94700003 1.3263521e-38
0.079763785 0.34613287 0.93700004 1.4553896e-38
0.084395029 0.34427941 0.93200004 1.5199617e-38
0.08906775 0.34279522 0.92800003 1.5199617e-38
0.09400104 0.34241903 0.92700005 1.5751719e-38
0.099030048 0.34241202 0.92700005 1.6119791e-38
0.10394655 0.3420355 0.92600006 1.7042469e-38
0.10908729 0.34239757 0.92700005 1.7319055e-38
0.11399245 0.34202084 0.92600006 1.8148816e-38
0.11901506 0.34201345 0.92600006 1.8518322e-38
0.12457324 0.34348336 0.93000007 1.8611238e-38
0.13003521 0.3445839 0.93300003 1.8519762e-38
0.13581912 0.34642306 0.93800002 1.7321939e-38
0.14135666 0.34752369 0.94100004 6.9971232e-39
0.14708221 0.34899369 0.94500005 7.1850962e-39
0.05596894 0.351298 0.96500003 4.3288352e-39
0.06133331 0.35202074 0.96700007 4.8802055e-39
0.065617509 0.34691858 0.95300007 1.2806139e-38
0.070120886 0.34363633 0.94400007 1.3264586e-38
0.074446626 0.33998981 0.93400002 1.3263863e-38
0.079259522 0.33889121 0.93100005 1.3908881e-38
0.084130123 0.33815631 0.92900002 1.510565e-38
0.088690802 0.33632922 0.92400002 1.5567679e-38
0.09360259 0.33595785 0.92300004 1.5751719e-38
0.09839642 0.33522242 0.92100006 1.6581125e-38
0.10350504 0.33557868 0.92200005 1.722686e-38
0.10874189 0.33629867 0.92400002 1.7319055e-38
0.11350777 0.3355628 0.92200005 1.685843e-38
0.11850872 0.33555469 0.92200005 1.8058061e-38
0.12350941 0.33554655 0.92200005 1.8704151e-38
0.12892801 0.33663017 0.92500007 1.8981464e-38
0.13466853 0.33844161 0.93000007 1.9442805e-38
0.14061327 0.34061688 0.93600005 1.9535363e-38
0.1463116 0.34206444 0.94000006 9.0261362e-39
0.15253635 0.34460366 0.94700003 7.1868941e-39
0.056090258 0.34680966 0.96700007 4.6932975e-39
0.060641292 0.34285891 0.95600003 1.216183e-38
0.064866096 0.33783197 0.94200003 1.2343352e-38
0.069310106 0.334598 0.93300003 1.3171313e-38
0.073975004 0.33279821 0.92800003 1.3171313e-38
0.078755632 0.33171538 0.92500007 1.4000356e-38
0.083593972 0.33099091 0.92300004 1.4737565e-38
0.088506304 0.33062473 0.92200005 1.5475132e-38
0.093407467 0.33025828 0.92100006 1.6028656e-38
0.098083787 0.32917446 0.91800004 1.6396392e-38
0.10295179 0.32880762 0.91700006 1.7503447e-38
0.1081617 0.32951629 0.91900003 1.7042469e-38
0.11290054 0.32879061 0.91700006 1.7226507e-38
0.11787447 0.32878187 0.91700006 1.7503814e-38
0.12298206 0.32913163 0.91800004 1.8426844e-38
0.12851839 0.33055684 0.92200005 1.805986e-38
0.13409784 0.33198202 0.92600006 1.907546e-38
0.13972041 0.3334071 0.93000007 1.9997063e-38
0.14632007 0.33698317 0.94000006 2.0642432e-38
0.15318906 0.34091765 0.95100003 7.3673351e-39
0.15867862 0.34162578 0.95300007 7.8322663e-39
0.050583448 0.33983329 0.96200007 5.8939917e-39
0.055631787 0.33876804 0.95900005 1.2713575e-38
0.059695721 0.33240366 0.94100004 1.2621012e-38
0.064321503 0.3299247 0.93400002 1.2803251e-38
0.069093898 0.32850513 0.93000007 1.2526667e-38
0.07366313 0.3263787 0.92400002 1.363266e-38
0.07859268 0.32601812 0.92300004 1.4830127e-38
0.083239317 0.3245976 0.91900003 1.5659178e-38
0.08803425 0.32388321 0.91700006 1.6120865e-38
0.092908546 0.3235217 0.91600007 1.7135019e-38
0.097664818 0.32280681 0.91400003 1.7596717e-38
0.10273587 0.3231512 0.91500002 1.6675115e-38
0.10781743 0.32349533 0.91600007 1.658292e-38
0.11266326 0.32313299 0.91500002 1.7411971e-38
0.11736935 0.32241741 0.91300005 1.8057709e-38
0.12232136 0.32240796 0.91300005 1.8242455e-38
0.12797005 0.32416406 0.91800004 1.9073656e-38
0.13323821 0.32486069 0.92000002 1.9166937e-38
0.138678 0.32591036 0.92300004 1.9629004e-38
0.14492838 0.32872546 0.93100005 1.9998506e-38
0.15142636 0.33189356 0.94000006 1.9906308e-38
0.15785523 0.3347086 0.94800007 5.8947245e-39
0.050536241 0.33429772 0.96100003 1.2345886e-38
0.054941449 0.32942191 0.94700003 1.2436267e-38
0.059384715 0.32558939 0.93600005 1.2251509e-38
0.064052634 0.32349578 0.93000007 1.3080181e-38
0.068803705 0.32209742 0.92600006 1.3079838e-38
0.073351584 0.32000309 0.92000002 1.3540463e-38
0.07800433 0.31860408 0.91600007 1.4461344e-38
0.082703881 0.3175526 0.91300005 1.4737567e-38
0.087370537 0.31650078 0.91000003 1.5291105e-38
0.092410035 0.3168399 0.91100007 1.5936474e-38
0.097139403 0.31613529 0.90900004 1.685843e-38
0.10195902 0.31577829 0.90800005 1.6582554e-38
0.10664967 0.31507325 0.90600002 1.5752439e-38
0.11156455 0.31506363 0.90600002 1.6120512e-38
0.1163505 0.31470603 0.90500003 1.6858446e-38
0.12152722 0.31539157 0.90700006 1.8519765e-38
0.1271435 0.31712008 0.91200006 1.9075105e-38
0.13237917 0.31780526 0.91400003 2.0090336e-38
0.13808696 0.31953344 0.91900003 1.9630444e-38
0.14400434 0.32160923 0.92500007 2.0276535e-38
0.15046981 0.32472798 0.93400002 1.9999227e-38
0.15719911 0.32819426 0.94400007 1.8431901e-38
0.1640366 0.33166051 0.95400006 5.8954448e-39
0.045465134 0.33014885 0.96400005 5.7099647e-39
0.050015934 0.32569122 0.95100003 1.1700151e-38
0.054541353 0.32191816 0.94000006 1.2344072e-38
0.059137382 0.31917208 0.93200004 1.206532e-38
0.063784018 0.31711054 0.92600006 1.2066029e-38
0.068290859 0.31470612 0.91900003 1.2711055e-38
0.072880864 0.31298634 0.91400003 1.3172402e-38
0.077756904 0.31263587 0.91300005 1.3632294e-38
0.082349934 0.31125778 0.90900004 1.4185465e-38
0.086995199 0.31022176 0.90600002 1.3908158e-38
0.091810413 0.30987027 0.90500003 1.4460971e-38
0.096828148 0.31020325 0.90600002 1.4737205e-38
0.10140713 0.30916643 0.90300006 1.5842845e-38
0.10607088 0.30847177 0.90100002 1.4737202e-38
0.11083569 0.30811927 0.90000004 1.4275515e-38
0.11597498 0.30879363 0.90200007 1.5844986e-38
0.12126958 0.30981007 0.90500003 1.7782932e-38
0.12659632 0.31082633 0.90800005 1.8247144e-38
0.13195524 0.31184247 0.91100007 1.9354933e-38
0.13749656 0.31320065 0.91500002 2.0092142e-38
0.14339232 0.31524342 0.92100006 2.0092142e-38
0.14967503 0.31797054 0.92900002 2.0368729e-38
0.15621069 0.32103977 0.93800002 1.9446773e-38
0.16370346 0.32582021 0.95200002 1.2072558e-38
0.040193375 0.32461944 0.96300006 3.5927135e-39
0.045281768 0.32360309 0.96000004 9.9502434e-39
0.049811333 0.31921533 0.94700003 1.1145893e-38
0.054199435 0.3148272 0.93400002 1.2065688e-38
0.058763351 0.31212407 0.92600006 1.234191e-38
0.06337785 0.31009462 0.92000002 1.1606505e-38
0.067778222 0.30739072 0.91200006 1.1607227e-38
0.072490126 0.30637169 0.90900004 9.9480742e-39
0.077254266 0.30568931 0.90700006 9.2097847e-39
0.082086891 0.30534351 0.90600002 9.7618739e-39
0.086812258 0.30466038 0.90400004 1.0498352e-38
0.091616958 0.3043139 0.90300006 1.1972049e-38
0.096410401 0.30396706 0.90200007 1.2432676e-38
0.10141718 0.30429393 0.90300006 1.4829754e-38
0.10631664 0.3042835 0.90300006 1.3261708e-38
0.1108462 0.30326197 0.90000004 1.2800005e-38
0.1161143 0.30426195 0.90300006 1.1695463e-38
0.1212805 0.3049247 0.90500003 1.1421405e-38
0.1261891 0.30491337 0.90500003 1.1885266e-38
0.13167673 0.30624962 0.90900004 1.5296867e-38
0.13705707 0.3072488 0.91200006 1.6957833e-38
0.14293662 0.30925846 0.91800004 1.9262371e-38
0.14904201 0.31160483 0.92500007 1.963152e-38
0.15572259 0.31496164 0.93500006 1.9261662e-38
0.16285518 0.31899196 0.94700003 1.7602506e-38
0.0403235 0.32042286 0.96600002 5.0656855e-39
0.045240078 0.31809571 0.95900005 1.0041353e-38
0.049554292 0.31245109 0.94200003 1.1605785e-38
0.054147862 0.30945966 0.93300003 1.1881666e-38
0.058516424 0.3058044 0.92200005 1.1698702e-38
0.062971868 0.30314374 0.91400003 9.5789232e-39
0.067563079 0.3014777 0.90900004 8.2871082e-39
0.072418638 0.30113786 0.90800005 7.3648001e-39
0.077007398 0.29980263 0.90400004 7.641387e-39
0.082096003 0.30045682 0.90600002 8.0094465e-39
0.08691778 0.30011573 0.90500003 8.9306825e-39
0.091626808 0.29944265 0.90300006 9.5756834e-39
0.09652748 0.29943243 0.90300006 1.1418876e-38
0.10131536 0.29909027 0.90200007 1.575171e-38
0.10644518 0.29974255 0.90400004 1.3722686e-38
0.11122673 0.29939982 0.90300006 1.1417074e-38
0.11651136 0.30038303 0.90600002 1.0312168e-38
0.12129199 0.30003986 0.90500003 9.390939e-39
0.12620074 0.300028 0.90500003 1.02207e-38
0.1313988 0.30067903 0.90700006 1.105298e-38
0.13631749 0.3006669 0.90700006 1.3360396e-38
0.14232579 0.30297506 0.91400003 1.5297591e-38
0.14857073 0.3056145 0.92200005 1.8617367e-38
0.15506858 0.30858517 0.93100005 1.9262382e-38
0.16149162 0.31122416 0.93900007 1.9353137e-38
0.16853325 0.31485736 0.95000005 1.0781819e-38
0.03471775 0.31195673 0.95600003 4.3281289e-39
0.040161587 0.31390983 0.96200007 8.013415e-39
0.044868302 0.31031504 0.95100003 1.0962938e-38
0.049402617 0.30639344 0.93900007 1.1238798e-38
0.053922359 0.30312401 0.92900002 1.1145529e-38
0.058079243 0.29854903 0.91500002 9.6693223e-39
0.062841676 0.29756269 0.91200006 1.0590556e-38
0.067571163 0.2965759 0.90900004 1.1050816e-38
0.07234744 0.29591492 0.90700006 1.1788027e-38
0.07735718 0.29623225 0.90800005 1.0589484e-38
0.082286708 0.29622281 0.90800005 9.7600774e-39
0.087119758 0.29588673 0.90700006 8.6533739e-39
0.091941483 0.29555026 0.90600002 9.667879e-39
0.096644983 0.29488721 0.90400004 1.1788736e-38
0.10121396 0.29389766 0.90100002 1.7781094e-38
0.10645645 0.29486489 0.90400004 1.5290386e-38
0.11173102 0.29583174 0.90700006 1.0680597e-38
0.1166518 0.29581982 0.90700006 1.0219619e-38
0.12157208 0.29580763 0.90700006 1.0865349e-38
0.12635241 0.29546911 0.90600002 1.243303e-38
0.13155605 0.29610878 0.90800005 1.4739007e-38
0.13648029 0.29609609 0.90800005 1.6954233e-38
0.14171551 0.29673541 0.91000003 1.8154224e-38
0.14761658 0.29867893 0.91600007 1.60348e-38
0.15508145 0.30355668 0.93100005 1.9169452e-38
0.16150458 0.30615184 0.93900007 1.9814101e-38
0.16854626 0.30972487 0.95000005 1.6033004e-38
0.034794923 0.30744466 0.95800006 5.8950777e-39
0.039916281 0.30679786 0.95600003 1.0040629e-38
0.044732533 0.304225 0.94800007 1.1790897e-38
0.04935633 0.30100977 0.93800002 1.1606871e-38
0.053522855 0.29586866 0.92200005 1.0130303e-38
0.058023084 0.29329434 0.91400003 1.0958265e-38
0.062849522 0.29264489 0.91200006 1.1419243e-38
0.067579515 0.29167405 0.90900004 1.2064612e-38
0.072436057 0.29134446 0.90800005 1.2617787e-38
0.077366516 0.29133523 0.90800005 1.1604354e-38
0.082477771 0.29196718 0.91000003 1.0682031e-38
0.087226048 0.29131532 0.90800005 8.5622545e-39
0.092256598 0.2916255 0.90900004 8.193472e-39
0.096869819 0.29065201 0.90600002 1.1880577e-38
0.10133763 0.28935748 0.90200007 1.7319409e-38
0.10670368 0.29062888 0.90600002 1.9070772e-38
0.11186625 0.29125836 0.90800005 9.7575775e-39
0.11692134 0.2915667 0.90900004 1.0587682e-38
0.12158461 0.29091251 0.90700006 1.0680951e-38
0.12636513 0.2905789 0.90600002 1.2801457e-38
0.13127917 0.29056585 0.90600002 1.4923767e-38
0.13664366 0.29151469 0.90900004 1.6585459e-38
0.14172867 0.29182199 0.91000003 1.8430092e-38
0.14714639 0.29277048 0.91300005 1.7139705e-38
0.15426205 0.2969254 0.92600006 1.8431164e-38
0.16100216 0.300118 0.93600005 1.9629354e-38
0.16855997 0.30459285 0.95000005 1.8614483e-38
0.034908563 0.30322626 0.96100003 8.1063308e-39
0.039963361 0.30195904 0.95700002 1.1237724e-38
0.044644073 0.2984826 0.94600004 1.1145529e-38
0.049099695 0.29437459 0.93300003 1.0316135e-38
0.053645965 0.2915282 0.92400002 1.0498728e-38
0.058348048 0.28994331 0.91900003 1.0313261e-38
0.062926523 0.28804243 0.91300005 1.0682034e-38
0.067513749 0.28645653 0.90800005 1.1511438e-38
0.072365381 0.2861321 0.90700006 1.3355352e-38
0.077290915 0.28612262 0.90700006 1.1881663e-38
0.082487904 0.28705895 0.91000003 8.7473688e-39
0.087428764 0.28704846 0.91000003 7.2726045e-39
0.092470616 0.28735295 0.91100007 8.0094493e-39
0.096132681 0.28355658 0.89900005 1.2709261e-38
0.10022572 0.28133708 0.89200002 1.5935399e-38
0.10624467 0.28447902 0.90200007 1.8424683e-38
0.11175551 0.28604347 0.90700006 9.6646588e-39
0.11706275 0.2869767 0.91000003 9.019281e-39
0.12173168 0.28633288 0.90800005 9.941589e-39
0.12609936 0.2850582 0.90400004 1.1972404e-38
0.13085784 0.28472936 0.90300006 1.5752817e-38
0.13605592 0.28534627 0.90500003 1.8430092e-38
0.14189819 0.28722411 0.91100007 1.6769496e-38
0.14764382 0.28878638 0.91600007 1.7506696e-38
0.15360972 0.29066366 0.92200005 1.7323743e-38
0.16067235 0.29443216 0.93400002 1.9169097e-38
0.16768716 0.29788515 0.94500005 1.9352771e-38
0.17408924 0.3000769 0.95200002 1.1058401e-38
0.029721471 0.29835927 0.96200007 4.5132236e-39
0.035058677 0.2992852 0.96500003 9.856959e-39
0.039801762 0.29555833 0.95300007 1.1422114e-38
0.044366948 0.29152086 0.94000006 1.1146617e-38
0.049001057 0.28872335 0.93100005 9.9480798e-39
0.053769287 0.28716576 0.92600006 1.0039194e-38
0.058419302 0.28529751 0.92000002 1.0499449e-38
0.063003741 0.28342879 0.91400003 1.0589484e-38
0.067820013 0.28279993 0.91200006 8.8410162e-39
0.072773702 0.28279069 0.91200006 7.4591664e-39
0.077471226 0.2818507 0.90900004 6.8137942e-39
0.082588963 0.28246051 0.91100007 6.8127124e-39
0.087535731 0.28244975 0.91100007 7.3651659e-39
0.092481971 0.28243846 0.91100007 8.3782318e-39
0.095823474 0.27777645 0.89600003 1.1879854e-38
0.099001549 0.27311441 0.88100004 1.5198183e-38
0.10460788 0.27527225 0.88800007 1.7871153e-38
0.11176835 0.28114921 0.90700006 1.3353563e-38
0.11707596 0.28206587 0.91000003 8.9281714e-39
0.12187922 0.28174236 0.90900004 8.0076514e-39
0.12695004 0.28203851 0.91000003 6.2599001e-39
0.13159633 0.28140461 0.90800005 6.9988973e-39
0.13637067 0.28108048 0.90700006 1.6401787e-38
0.14175668 0.28199571 0.91000003 1.7138277e-38
0.14781947 0.28415021 0.91700006 1.6308156e-38
0.15345773 0.28537488 0.92100006 1.6954606e-38
0.15999901 0.28814846 0.93000007 1.91691e-38
0.16716975 0.29185128 0.94200003 1.9077267e-38
0.17355563 0.29400468 0.94900006 1.4192697e-38
0.029756555 0.29347658 0.96300006 5.8950777e-39
0.034954589 0.29316726 0.96200007 1.1054776e-38
0.039556697 0.28859079 0.94700003 1.1238445e-38
0.044089872 0.2846233 0.93400002 9.7636886e-39
0.04890253 0.28309312 0.92900002 9.8558842e-39
0.053834721 0.28247654 0.92700005 9.3938243e-39
0.058617774 0.28124994 0.92300004 9.5774953e-39
0.063150115 0.27910867 0.91600007 5.9840335e-39
0.06827531 0.27970916 0.91800004 3.8682228e-39
0.073262163 0.27969962 0.91800004 2.6686104e-39
0.077737086 0.27786154 0.91200006 6.9056381e-39
0.082780987 0.27815565 0.91300005 6.5361269e-39
0.087546922 0.27753529 0.91100007 8.2863991e-39
0.091884442 0.27569589 0.90500003 1.0958265e-38
0.094444901 0.26898223 0.88300002 1.1786942e-38
0.09755262 0.26440102 0.86800003 1.4828678e-38
0.10226414 0.26438874 0.86800003 1.7594922e-38
0.11005617 0.27199063 0.89300007 2.1375663e-38
0.11708956 0.27715486 0.91000003 1.003488e-38
0.12175901 0.27653182 0.90800005 9.0214474e-39
0.12738277 0.27804035 0.91300005 5.6141776e-39
0.13262531 0.27863482 0.91500002 3.7727957e-39
0.13713707 0.2777065 0.91200006 8.3822087e-39
0.14208303 0.27769157 0.91200006 1.1422502e-38
0.1483181 0.28011221 0.92000002 1.4741538e-38
0.15347289 0.28040135 0.92100006 1.6216675e-38
0.15967025 0.28251699 0.92800003 1.889179e-38
0.16665284 0.28584999 0.93900007 1.9076902e-38
0.17393704 0.28948703 0.95100003 1.7419899e-38
0.029760828 0.28828305 0.96300006 6.9077877e-39
0.034777883 0.28648221 0.95700002 1.1606507e-38
0.039437003 0.28258535 0.94400007 1.1328846e-38
0.044190541 0.28018457 0.93600005 1.086931e-38
0.048856769 0.27778322 0.92800003 9.7629627e-39
0.053726085 0.27687797 0.92500007 8.5640636e-39
0.058752935 0.27687007 0.92500007 7.4587922e-39
0.063227758 0.27446708 0.91700006 7.4584377e-39
0.067912698 0.27326077 0.91300005 6.9052723e-39
0.07263352 0.27235323 0.91000003 7.3655316e-39
0.077491723 0.27204376 0.90900004 7.3640883e-39
0.082338519 0.27173376 0.90800005 8.3767885e-39
0.087173901 0.27142325 0.90700006 1.0312528e-38
0.090576224 0.26692289 0.89200002 1.0957184e-38
0.093173243 0.26062709 0.87100005 1.068025e-38
0.09722764 0.25881961 0.86500007 1.0495503e-38
0.10215892 0.25940549 0.86700004 1.2524527e-38
0.10797412 0.26208523 0.87600005 1.7410895e-38
0.1164601 0.27074769 0.90500003 1.6489295e-38
0.12177326 0.27163091 0.90800005 9.4816997e-39
0.12683922 0.2719155 0.90900004 1.0034879e-38
0.13177045 0.27190065 0.90900004 1.0497299e-38
0.13700175 0.27248374 0.91100007 1.1974604e-38
0.14272152 0.27396381 0.91600007 1.621632e-38
0.14833362 0.27514449 0.92000002 1.4650423e-38
0.15332186 0.27512866 0.92000002 1.7046092e-38
0.15916985 0.27660793 0.92500007 1.879924e-38
0.1661364 0.27988109 0.93600005 1.9444963e-38
0.17450203 0.28524685 0.95400006 1.8801746e-38
0.029734273 0.28279483 0.96200007 8.0126919e-39
0.034746602 0.28102627 0.95600003 1.1698349e-38
0.039317362 0.27661148 0.94100004 1.1696906e-38
0.044149689 0.2748417 0.93500006 1.1235928e-38
0.048916426 0.27307129 0.92900002 1.0313969e-38
0.053791828 0.27218211 0.92600006 1.0407243e-38
0.058697712 0.27158618 0.92400002 9.6703985e-39
0.063305579 0.26981401 0.91800004 9.5760505e-39
0.067996539 0.2686291 0.91400003 9.8519185e-39
0.072723351 0.2677376 0.91100007 9.2987448e-39
0.077672809 0.26772723 0.91100007 9.6678818e-39
0.082349621 0.26683465 0.90800005 1.0497627e-38
0.085743636 0.26212144 0.89200002 1.1510364e-38
0.089369468 0.25858352 0.88000005 9.576789e-39
0.093506284 0.25680843 0.87400001 5.2443231e-39
0.097689748 0.25532687 0.86900002 9.6668308e-39
0.10252535 0.25560784 0.87000006 1.0589142e-38
0.10811079 0.25765106 0.87700003 1.455391e-38
0.11454379 0.26145637 0.89000005 1.8610515e-38
0.12125133 0.26555464 0.90400004 1.7965145e-38
0.12657504 0.26642102 0.90700006 1.5844293e-38
0.13193059 0.26728702 0.91000003 1.741306e-38
0.1371676 0.26785892 0.91200006 1.9167301e-38
0.14273724 0.26901788 0.91600007 1.8614852e-38
0.14834958 0.2701765 0.92000002 1.9445333e-38
0.15367131 0.2707476 0.92200005 1.9446053e-38
0.15970239 0.272493 0.92800003 1.8892159e-38
0.16633044 0.27511895 0.93700004 1.8892513e-38
0.17397006 0.27921256 0.95100003 1.8801035e-38
0.029707767 0.27731639 0.96100003 8.7502597e-39
0.034569982 0.27442592 0.95100003 1.1328844e-38
0.039281361 0.27124625 0.94000006 1.1880574e-38
0.044061702 0.2692202 0.93300003 1.1511792e-38
0.048923545 0.26805916 0.92900002 1.1143009e-38
0.053741504 0.2668975 0.92500007 1.1419596e-38
0.058452006 0.26544666 0.92000002 1.1235562e-38
0.063245632 0.26457235 0.91700006 1.1050813e-38
0.067931741 0.2634089 0.91300005 1.160327e-38
0.072733529 0.26282194 0.91100007 1.0680595e-38
0.077513032 0.26223439 0.90900004 1.1232696e-38
0.081816681 0.26020396 0.90200007 1.1233768e-38
0.0850823 0.25528851 0.88500005 1.0312542e-38
0.089889303 0.25527662 0.88500005 4.4138449e-39
0.094588675 0.2549758 0.88400006 2.5753414e-39
0.098264642 0.25207871 0.87400001 9.5746366e-39
0.10324569 0.25264239 0.87600005 1.3169544e-38
0.10898751 0.25493592 0.88400006 6.2548695e-39
0.11365703 0.2546334 0.88300002 1.1508574e-38
0.12032717 0.25865594 0.89700001 1.8703433e-38
0.12603197 0.26037097 0.90300006 1.8426136e-38
0.13151117 0.26150879 0.90700006 1.7875482e-38
0.13643134 0.26149303 0.90700006 1.8521932e-38
0.14244169 0.26349497 0.91400003 1.9813392e-38
0.14820471 0.26491994 0.91900003 1.8800318e-38
0.15368786 0.26576805 0.92200005 1.9721917e-38
0.15937497 0.26690421 0.92600006 1.9629721e-38
0.16616993 0.26976934 0.93600005 1.9169463e-38
0.17325553 0.27292228 0.94700003 1.8986149e-38
0.034575161 0.26929444 0.95100003 1.13292e-38
0.039287221 0.26617405 0.94000006 1.1880577e-38
0.04402101 0.26390252 0.93200004 1.197277e-38
0.048667412 0.26163039 0.92400002 1.2709615e-38
0.053458851 0.26049024 0.92000002 1.2340832e-38
0.058079258 0.25878319 0.91400003 1.1695461e-38
0.062978856 0.25849125 0.91300005 1.1326674e-38
0.067792654 0.25791553 0.91100007 1.2524143e-38
0.072504319 0.25705612 0.90800005 1.2062812e-38
0.077012233 0.25562999 0.90300006 1.1139778e-38
0.081283771 0.25363725 0.89600003 1.067952e-38
0.08499787 0.25022879 0.88400006 8.4679191e-39
0.089901544 0.25049976 0.88500005 4.7811855e-39
0.094173327 0.249072 0.88000005 9.1143773e-39
0.098390132 0.24764389 0.87500006 9.6653847e-39
0.10314132 0.24763051 0.87500006 1.2339055e-38
0.10875494 0.24959761 0.88200003 1.3442163e-38
0.1138002 0.25014928 0.88400006 1.2239655e-38
0.12020802 0.25353 0.89600003 1.9162981e-38
0.12548906 0.25436351 0.89900005 1.7780401e-38
0.13094692 0.25547954 0.90300006 1.8978944e-38
0.13629697 0.25631222 0.90600002 1.8428298e-38
0.14152296 0.25686166 0.90800005 1.9536085e-38
0.14693117 0.25769365 0.91100007 1.9721196e-38
0.15270457 0.25909105 0.91600007 2.0459484e-38
0.15922 0.26161945 0.92500007 1.9721196e-38
0.16565469 0.26386458 0.93300003 1.916838e-38
0.17290728 0.26724049 0.94500005 1.9169818e-38
0.029840449 0.26805562 0.96500003 1.0409052e-38
0.034616765 0.26443961 0.95200002 1.1512159e-38
0.039167747 0.26026744 0.93700004 1.2063551e-38
0.043791421 0.25748351 0.92700005 1.2432675e-38
0.048411295 0.25525451 0.91900003 1.1879848e-38
0.053292442 0.25469142 0.91700006 1.1879848e-38
0.058024272 0.25357217 0.91300005 1.1971689e-38
0.062712118 0.25245231 0.90900004 1.2431946e-38
0.06743037 0.25160962 0.90600002 1.2892204e-38
0.071875863 0.24993323 0.90000004 1.2523064e-38
0.076596744 0.24936713 0.89800006 1.0679154e-38
0.081204526 0.24852279 0.89500004 1.031074e-38
0.085586734 0.24712265 0.89000005 8.1913224e-39
0.089913964 0.24572209 0.88500005 8.7459367e-39
0.094079159 0.2440435 0.87900007 9.0236012e-39
0.098178469 0.2423646 0.87300003 9.4835018e-39
0.10327291 0.24318387 0.87600005 1.2434485e-38
0.10876919 0.24483539 0.88200003 1.4553187e-38
0.11445861 0.24676386 0.88900006 1.2519842e-38
0.12035744 0.24896926 0.89700001 1.7317975e-38
0.12536509 0.24923123 0.89800006 1.7134308e-38
0.13052785 0.24977037 0.90000004 1.8610529e-38
0.13586198 0.2505866 0.90300006 1.8981475e-38
0.14107196 0.25112501 0.90500003 1.9627925e-38
0.14646417 0.25194055 0.90800005 1.953573e-38
0.15238832 0.25358811 0.91400003 1.9812316e-38
0.15820462 0.25495788 0.91900003 1.9351692e-38
0.16478463 0.25743693 0.92800003 1.8983264e-38
0.17255935 0.26157987 0.94300002 1.8156743e-38
0.030092452 0.26502535 0.97300005 7.7353847e-39
0.034549329 0.25875571 0.95000005 1.1421028e-38
0.039090104 0.25466448 0.93500006 1.1512146e-38
0.043750826 0.25220686 0.92600006 1.1326327e-38
0.0484186 0.25029334 0.91900003 1.0866411e-38
0.053184193 0.24919626 0.91500002 1.1972404e-38
0.057905801 0.24809858 0.91100007 1.2063884e-38
0.062652402 0.24727255 0.90800005 1.2247555e-38
0.067216963 0.24590135 0.90300006 1.2431226e-38
0.071806453 0.24480185 0.89900005 1.1601108e-38
0.076437175 0.24397419 0.89600003 1.1417795e-38
0.081125386 0.24341823 0.89400005 1.0128149e-38
0.085695021 0.24258949 0.89100003 8.1012904e-39
0.089723311 0.24039899 0.88300002 6.44429e-39
0.09409216 0.23929715 0.87900007 9.8551681e-39
0.09841682 0.23819496 0.87500006 9.0246872e-39
0.10328682 0.23845339 0.87600005 9.5785813e-39
0.10853695 0.23952796 0.88000005 1.2067865e-38
0.11460234 0.242235 0.89000005 1.3819582e-38
0.11983616 0.24303618 0.89300007 1.9534634e-38
0.12468287 0.24302047 0.89300007 1.695173e-38
0.12981886 0.24354866 0.89500004 1.8150274e-38
0.13542713 0.24489275 0.90000004 1.8520857e-38
0.14077707 0.24569221 0.90300006 1.9166948e-38
0.14648135 0.24703543 0.90800005 1.8890359e-38
0.15207231 0.24810621 0.91200006 1.8613761e-38
0.15805016 0.24972071 0.91800004 1.8982189e-38
0.16498023 0.25269485 0.92900002 1.833754e-38
0.17349282 0.25784433 0.94800007 1.7695411e-38
0.025261536 0.26458162 0.99100006 5.619211e-39
0.030189913 0.26057255 0.97600007 9.6704111e-39
0.034554664 0.25362611 0.95000005 1.169654e-38
0.039096117 0.24961583 0.93500006 1.1050813e-38
0.043804772 0.2474737 0.92700005 1.0958621e-38
0.048373286 0.24506404 0.91800004 1.1418523e-38
0.05313411 0.2439885 0.91400003 1.2156441e-38
0.057850931 0.24291231 0.91000003 1.2156441e-38
0.062454723 0.2415686 0.90500003 1.2155725e-38
0.067003578 0.2402243 0.90000004 1.1786578e-38
0.071817018 0.23994714 0.89900005 1.2063884e-38
0.076192349 0.23833485 0.89300007 1.1234852e-38
0.080774069 0.23752277 0.89000005 7.5488369e-39
0.084937721 0.23564269 0.88300002 6.1673444e-39
0.089126244 0.23402913 0.87700003 7.8261454e-39
0.093891189 0.23401619 0.87700003 1.1880234e-38
0.098655395 0.23400275 0.87700003 1.1787671e-38
0.10318298 0.23345524 0.87500006 1.2801468e-38
0.10805812 0.23370767 0.87600005 1.1605799e-38
0.11332968 0.23475996 0.88000005 1.1976738e-38
0.11918073 0.23687871 0.88800007 1.4558582e-38
0.1245592 0.23792982 0.89200002 1.8798518e-38
0.12998028 0.23898049 0.89600003 1.7783648e-38
0.13499242 0.23923051 0.89700001 1.8705248e-38
0.14048231 0.24028027 0.90100002 1.9258787e-38
0.1461761 0.2415963 0.90600002 1.9074751e-38
0.1517565 0.24264523 0.91000003 1.9166581e-38
0.15824038 0.24502695 0.91900003 1.8981829e-38
0.16535382 0.24820796 0.93100005 1.8060234e-38
0.17424378 0.25378758 0.95200002 1.8521932e-38
0.014916711 0.2670832 1.021 1.7056149e-38
0.020172834 0.26315662 1.006 1.0311107e-38
0.025341971 0.260014 0.99400002 1.095863e-38
0.030442117 0.25739381 0.98400003 1.0313971e-38
0.034632795 0.24901828 0.95200002 1.1603987e-38
0.039060351 0.24430427 0.93400002 1.1235205e-38
0.043764263 0.24220534 0.92600006 1.1419596e-38
0.048433404 0.24036734 0.91900003 1.1327047e-38
0.053200357 0.23931335 0.91500002 1.2248283e-38
0.057732537 0.23747411 0.90800005 1.1695831e-38
0.062464129 0.23668043 0.90500003 1.1787305e-38
0.067013584 0.23536305 0.90000004 1.1880574e-38
0.071667865 0.23456818 0.89700001 9.485287e-39
0.075862207 0.23246528 0.88900006 7.5499117e-39
0.080150433 0.23088495 0.88300002 7.5484795e-39
0.08466135 0.23008855 0.88000005 7.2711752e-39
0.089138947 0.22929168 0.87700003 8.0065864e-39
0.093797356 0.22901723 0.87600005 8.1899057e-39
0.098556623 0.22900368 0.87600005 8.8334716e-39
0.10319716 0.22872823 0.87500006 8.9253001e-39
0.10807279 0.22897515 0.87600005 9.111485e-39
0.11295845 0.22922155 0.87700003 1.2894373e-38
0.11825681 0.2302516 0.88100004 1.2621027e-38
0.12387708 0.23180375 0.88700002 1.3821019e-38
0.12941651 0.23309399 0.89200002 1.7508134e-38
0.13485883 0.23412246 0.89600003 1.7968039e-38
0.14018774 0.23488915 0.89900005 1.9165863e-38
0.14570966 0.23591672 0.90300006 1.8981829e-38
0.15160765 0.23746634 0.90900004 1.8890704e-38
0.15808645 0.23979916 0.91800004 1.8706313e-38
0.16572776 0.24369867 0.93300003 1.8152785e-38
0.17609352 0.25125396 0.96200007 1.8337896e-38
0.18469955 0.25593516 0.98000002 1.9906308e-38
0.014758332 0.25874931 1.01 9.845097e-39
0.020236181 0.25849038 1.0090001 8.0958926e-39
0.025371455 0.25490019 0.99500006 1.1050106e-38
0.0306016 0.25335872 0.98900002 1.086607e-38
0.034929283 0.24592453 0.96000004 1.0774595e-38
0.039275568 0.24053921 0.93900007 1.1420319e-38
0.043771047 0.23720261 0.92600006 1.1143364e-38
0.048440874 0.23540239 0.91900003 1.1511071e-38
0.053034063 0.23360157 0.91200006 1.2064248e-38
0.057359796 0.23103173 0.90200007 1.1695465e-38
0.062197458 0.23076646 0.90100002 1.1050816e-38
0.066800252 0.22973226 0.89700001 8.2871082e-39
0.071199104 0.22818527 0.89100003 6.9974638e-39
0.075702727 0.22714995 0.88700002 6.8123578e-39
0.080343738 0.22662628 0.88500005 7.086428e-39
0.085058518 0.22635812 0.88400006 6.3470651e-39
0.08955837 0.22557729 0.88100004 6.4371041e-39
0.094024852 0.22479604 0.87800002 8.2799321e-39
0.099020548 0.22529443 0.88000005 9.2008122e-39
0.1036833 0.22502424 0.87900007 7.8175204e-39
0.10845773 0.22500956 0.87900007 7.0799582e-39
0.11323131 0.22499445 0.87900007 8.6494489e-39
0.11840677 0.22574672 0.88200003 1.0773886e-38
0.12347426 0.22624262 0.88400006 1.1512894e-38
0.12885277 0.22724985 0.88800007 1.0962578e-38
0.13442431 0.22851248 0.89300007 1.7598895e-38
0.13958132 0.22900698 0.89500004 1.7875479e-38
0.14508189 0.23001282 0.89900005 1.9166572e-38
0.15129218 0.23204157 0.90700006 1.9443159e-38
0.15793276 0.23458144 0.91700006 1.8706313e-38
0.16645734 0.23967861 0.93700004 1.7876198e-38
0.17702855 0.24733257 0.96700007 1.8151703e-38
0.18547367 0.25166038 0.98400003 1.9347006e-38
0.19235696 0.25368583 0.99200004 1.0939564e-38
0.009380958 0.25655341 1.023 1.6963602e-38
0.014760669 0.25329128 1.01 7.6324061e-39
0.020279501 0.25353932 1.011 9.0167727e-39
0.025553983 0.2512787 1.0020001 9.7582866e-39
0.030699259 0.24876648 0.99200004 1.0866069e-38
0.034934767 0.24073666 0.96000004 1.1327767e-38
0.03944904 0.23646785 0.94300002 1.1421042e-38
0.043777861 0.23219846 0.92600006 1.1050813e-38
0.04844838 0.23043606 0.91900003 1.1973127e-38
0.052809589 0.22767003 0.90800005 1.1603987e-38
0.057432171 0.22640789 0.90300006 1.1418879e-38
0.062137879 0.22564659 0.90000004 1.0590927e-38
0.066661373 0.22438323 0.89500004 7.1800515e-39
0.071049929 0.22286865 0.88900006 7.9172621e-39
0.0758847 0.22285765 0.88900006 5.8878848e-39
0.08044637 0.22209404 0.88600004 8.468275e-39
0.084685989 0.22057793 0.88000005 9.8501291e-39
0.0892663 0.220064 0.87800002 1.0864281e-38
0.093716964 0.21929891 0.87500006 1.1140512e-38
0.098696917 0.21978647 0.87700003 1.1970982e-38
0.10369775 0.22027342 0.87900007 1.4274812e-38
0.10871948 0.22075985 0.88100004 1.667298e-38
0.11376204 0.22124571 0.88300002 1.473687e-38
0.11882544 0.2217311 0.88500005 7.2690214e-39
0.12363024 0.22171493 0.88500005 1.0035601e-38
0.12872437 0.22219943 0.88700002 1.040689e-38
0.13444148 0.22368538 0.89300007 1.160758e-38
0.1397548 0.2244194 0.89600003 1.7137904e-38
0.14542255 0.22565389 0.90100002 1.8150983e-38
0.15147725 0.22738878 0.90800005 1.8981464e-38
0.15829593 0.23012482 0.91900003 1.8521206e-38
0.16736497 0.23586483 0.94200003 1.7414858e-38
0.17833021 0.243857 0.97400004 1.7968393e-38
0.18643671 0.24759182 0.98900002 1.4546341e-38
0.19334732 0.24957365 0.99700004 1.2505436e-38
0.0093641067 0.25053275 1.021 1.7056155e-38
0.014806864 0.2485678 1.013 8.0897787e-39
0.020302778 0.24831967 1.0120001 1.0306428e-38
0.025609039 0.24635305 1.0040001 9.8486843e-39
0.030796956 0.24414024 0.99500006 1.0681323e-38
0.035013054 0.23603801 0.96200007 1.1327403e-38
0.0393297 0.23063429 0.94000006 1.0958618e-38
0.043595556 0.22621146 0.92200005 1.13274e-38
0.048297718 0.22473222 0.91600007 1.1696186e-38
0.052934084 0.22325236 0.91000003 1.1511438e-38
0.057440992 0.22152658 0.90300006 1.0958265e-38
0.062078305 0.22053613 0.89900005 8.7470143e-39
0.066596985 0.21929981 0.89400005 7.4566384e-39
0.07130041 0.21879879 0.89200002 7.639592e-39
0.076066762 0.21854249 0.89100003 9.4835004e-39
0.08009503 0.21632344 0.88200003 9.8522703e-39
0.084602147 0.21557553 0.87900007 1.012886e-38
0.089279234 0.21531758 0.87800002 9.1161598e-39
0.093944654 0.21505913 0.87700003 7.9190613e-39
0.098710909 0.21504536 0.87700003 7.8268657e-39
0.10347631 0.21503109 0.87700003 1.0038116e-38
0.10848768 0.21550667 0.87900007 1.3356452e-38
0.11351987 0.21598171 0.88100004 1.5754259e-38
0.11870715 0.21670136 0.88400006 1.695136e-38
0.12378636 0.21717539 0.88600004 7.9158243e-39
0.12874119 0.21740383 0.88700002 9.7597341e-39
0.1341576 0.2183671 0.89100003 1.4372034e-38
0.13961646 0.21932991 0.89500004 1.7412694e-38
0.14560202 0.22102737 0.90200007 1.7780046e-38
0.15166254 0.22272426 0.90900004 1.8056633e-38
0.15848707 0.22540063 0.92000002 1.8427932e-38
0.1675622 0.23101611 0.94300002 1.7230112e-38
0.17871684 0.23908003 0.97600007 1.8149905e-38
0.18664609 0.24248858 0.99000007 1.8517257e-38
0.19336842 0.24418201 0.99700004 1.9255192e-38
0.0094022891 0.24597184 1.0250001 1.7148348e-38
0.014794599 0.24285026 1.0120001 6.9866724e-39
0.020165538 0.24116766 1.005 1.0584454e-38
0.025562072 0.2404442 1.0020001 7.4512434e-39
0.030801822 0.23875999 0.99500006 1.1326694e-38
0.03520057 0.23203596 0.96700007 1.0682031e-38
0.039252173 0.22507153 0.93800002 1.141995e-38
0.043602366 0.22122593 0.92200005 1.1050813e-38
0.048252489 0.21953921 0.91500002 1.1695465e-38
0.052825913 0.21785186 0.90800005 1.104974e-38
0.057449821 0.21664375 0.90300006 1.0958265e-38
0.061949659 0.21519513 0.89700001 9.0232439e-39
0.066681594 0.21470556 0.89500004 6.9034675e-39
0.071231201 0.21373558 0.89100003 9.484222e-39
0.075907357 0.21324478 0.88900006 9.7611634e-39
0.080288537 0.21203384 0.88400006 1.0129224e-38
0.084710829 0.21106225 0.88000005 9.4834905e-39
0.089393921 0.21080972 0.87900007 8.5622545e-39
0.09427958 0.21103625 0.88000005 7.2718842e-39
0.098837532 0.2105428 0.87800002 7.4555524e-39
0.10384489 0.21100804 0.88000005 9.7618725e-39
0.1089965 0.21171248 0.88300002 1.2896892e-38
0.11353543 0.2112176 0.88100004 1.5294719e-38
0.11858888 0.21168123 0.88300002 1.7599611e-38
0.12408232 0.21286355 0.88800007 1.5478027e-38
0.12904841 0.21308652 0.88900006 8.1016533e-39
0.13417494 0.21354869 0.89100003 1.3357883e-38
0.14025827 0.21544841 0.89900005 1.7043556e-38
0.14594308 0.21662857 0.90400004 1.7779326e-38
0.15184799 0.21804787 0.91000003 1.8333221e-38
0.15867841 0.22066464 0.92100006 1.8243544e-38
0.16811506 0.2266347 0.94600004 1.7506342e-38
0.17892055 0.23404086 0.97700006 1.7598892e-38
0.18666711 0.23713399 0.99000007 1.4453791e-38
0.19300175 0.23831038 0.99500006 2.0728151e-38
0.0095047019 0.24300775 1.036 1.6871758e-38
0.014723841 0.23620352 1.0070001 1.0029844e-38
0.020108532 0.23502794 1.0020001 9.662498e-39
0.025566116 0.23502435 1.0020001 8.0958926e-39
0.030868603 0.23384708 0.99700004 1.1418168e-38
0.035169702 0.2265709 0.96600002 1.0129212e-38
0.039258324 0.21999785 0.93800002 1.1327758e-38
0.043798365 0.21717694 0.92600006 1.0958618e-38
0.048312735 0.21482448 0.91600007 1.1511794e-38
0.052834079 0.21294051 0.90800005 1.0682034e-38
0.05739503 0.21152496 0.90200007 1.0681679e-38
0.061959121 0.21034327 0.89700001 8.3778745e-39
0.066468164 0.20916106 0.89200002 6.9960176e-39
0.071082018 0.20844723 0.88900006 8.9332006e-39
0.075662501 0.20773281 0.88600004 9.3934585e-39
0.080027923 0.20654896 0.88100004 1.022142e-38
0.08481954 0.2065368 0.88100004 1.0773873e-38
0.089712061 0.20675847 0.88200003 9.8515626e-39
0.09429314 0.20627633 0.88000005 1.1510365e-38
0.098851599 0.20579369 0.87800002 1.3262082e-38
0.1038595 0.20624812 0.88000005 1.2709273e-38
0.10876475 0.20646761 0.88100004 1.3909984e-38
0.11329325 0.20598356 0.87900007 1.5941519e-38
0.11847065 0.20667073 0.88200003 1.5018852e-38
0.12367965 0.20735738 0.88500005 1.3083097e-38
0.12877502 0.20780918 0.88700002 1.2068945e-38
0.13404171 0.20849487 0.89000005 1.4280207e-38
0.13980801 0.20988275 0.89600003 1.7044632e-38
0.14596134 0.21173857 0.90400004 1.7226154e-38
0.15186664 0.21312533 0.91000003 1.8056635e-38
0.15921448 0.21638508 0.92400002 1.8058432e-38
0.16849041 0.22198562 0.94800007 1.7966954e-38
0.17967388 0.22969219 0.98100007 1.8058787e-38
0.18631111 0.2313101 0.98800004 1.4266531e-38
0.19224712 0.23199116 0.99100006 2.0079539e-38
0.01471155 0.23052564 1.006 1.1045079e-38
0.020111717 0.2296063 1.0020001 9.0160524e-39
0.025544632 0.22937354 1.001 7.8185854e-39
0.030811533 0.22799425 0.99500006 1.1510004e-38
0.035284463 0.22203149 0.96900004 1.0682751e-38
0.039306331 0.21515171 0.93900007 1.1236282e-38
0.043852497 0.2123957 0.92700005 1.1143009e-38
0.048267473 0.20963912 0.91500002 1.0682034e-38
0.052900426 0.20825666 0.90900004 1.086607e-38
0.057403833 0.20664449 0.90200007 1.0220701e-38
0.06196858 0.2054899 0.89700001 8.6544614e-39
0.066478238 0.20433475 0.89200002 6.5364856e-39
0.070932776 0.20317903 0.88700002 6.2609749e-39
0.07575921 0.20316806 0.88700002 7.3666008e-39
0.080130622 0.20201126 0.88200003 9.0253977e-39
0.084639415 0.20131204 0.87900007 1.1328489e-38
0.089318179 0.20107031 0.87800002 1.2709983e-38
0.094092377 0.20105705 0.87800002 1.4000367e-38
0.09875308 0.20081428 0.87700003 1.4737225e-38
0.10352001 0.20079997 0.87700003 1.4370225e-38
0.10865641 0.201472 0.88000005 1.142319e-38
0.11317991 0.20099878 0.87800002 1.3543722e-38
0.11862104 0.20212756 0.88300002 1.1610121e-38
0.12341662 0.20211126 0.88300002 1.1333532e-38
0.12864679 0.2027812 0.88600004 1.3268211e-38
0.13436036 0.20413718 0.89200002 1.5664223e-38
0.13998191 0.20526372 0.89700001 1.6307436e-38
0.14597967 0.20684738 0.90400004 1.6765896e-38
0.15255301 0.20911683 0.91400003 1.7503459e-38
0.15957841 0.21184318 0.92600006 1.77822e-38
0.17011017 0.218915 0.95700002 1.7505613e-38
0.17896207 0.22346929 0.97700006 1.7875836e-38
0.18576652 0.22527803 0.98500007 2.1833774e-38
0.19168645 0.22594285 0.98800004 1.7682456e-38
0.014713874 0.22508049 1.006 1.1323803e-38
0.020175111 0.22485399 1.005 1.0768124e-38
0.025318945 0.22194189 0.99200004 1.1139426e-38
0.030568603 0.22081888 0.98700005 9.8512081e-39
0.035508502 0.21812899 0.97500002 1.0315415e-38
0.039438058 0.21074042 0.94200003 1.1052613e-38
0.043906622 0.20760198 0.92800003 1.1419599e-38
0.048433222 0.20535778 0.91800004 1.077352e-38
0.052966774 0.20356038 0.91000003 1.0312542e-38
0.057412617 0.20176244 0.90200007 1.0590204e-38
0.061908908 0.20041128 0.89600003 8.4718694e-39
0.066488281 0.19950688 0.89200002 6.1684248e-39
0.070783451 0.19793096 0.88500005 5.8003625e-39
0.075343378 0.19724911 0.88200003 6.0769494e-39
0.079688139 0.1961195 0.87700003 6.4453662e-39
0.084170282 0.1954366 0.87400001 8.7488094e-39
0.088720687 0.19497682 0.87200004 1.1329195e-38
0.093248449 0.19451652 0.87000006 1.4001102e-38
0.097866163 0.19427931 0.86900002 1.2894739e-38
0.10282623 0.19471227 0.87100005 1.1144452e-38
0.1074366 0.19447404 0.87000006 1.0777839e-38
0.11255082 0.19512944 0.87300003 1.4374913e-38
0.11809969 0.19645478 0.87900007 9.7665725e-39
0.1237127 0.19777946 0.88500005 1.1426448e-38
0.12880895 0.19820964 0.88700002 9.9495204e-39
0.13437778 0.19930971 0.89200002 1.4189799e-38
0.14031196 0.20085606 0.89900005 1.5477321e-38
0.1464825 0.2026252 0.90700006 1.7135397e-38
0.15273878 0.20439373 0.91500002 1.7135399e-38
0.16011479 0.20750178 0.92900002 1.7413783e-38
0.17119704 0.21507579 0.96300006 1.6859889e-38
0.17806694 0.21706519 0.97200006 1.6860244e-38
0.18522187 0.21927731 0.98200005 1.8793478e-38
0.19151382 0.22037245 0.98700005 1.9254102e-38
0.014833215 0.22138005 1.0140001 1.4928439e-38
0.020158201 0.21919408 1.0040001 1.141673e-38
0.025373967 0.21700734 0.99400002 1.0587694e-38
0.030635333 0.21591139 0.98900002 1.0496579e-38
0.035841856 0.21481465 0.98400003 9.3001853e-39
0.039527934 0.20607664 0.94400007 1.0499449e-38
0.043960731 0.2027957 0.92900002 1.0866436e-38
0.048493449 0.20060568 0.91900003 1.095791e-38
0.05303311 0.19885164 0.91100007 1.0221065e-38
0.057485033 0.19709703 0.90300006 9.6696909e-39
0.061918288 0.19556011 0.89600003 8.657341e-39
0.066423744 0.1944592 0.89100003 6.8148718e-39
0.070794038 0.19313948 0.88500005 4.6961814e-39
0.074756503 0.19094634 0.87500006 5.8018058e-39
0.079245478 0.19028035 0.87200004 5.8003625e-39
0.083893605 0.19005021 0.87100005 8.5647895e-39
0.088733509 0.1902559 0.87200004 8.1027323e-39
0.093047403 0.18937014 0.86800003 1.1143389e-38
0.097542122 0.18892027 0.86600006 1.022251e-38
0.10260449 0.18956062 0.86900002 9.2087127e-39
0.10720447 0.1893279 0.86800003 9.0257676e-39
0.1124373 0.19018528 0.87200004 9.4881877e-39
0.11757816 0.19082394 0.87500006 9.9509637e-39
0.12316997 0.19211625 0.88100004 1.1979622e-38
0.12868065 0.19318987 0.88600004 1.0410853e-38
0.13469653 0.19491701 0.89400005 1.2069302e-38
0.14048594 0.19620748 0.90000004 1.4648277e-38
0.1465009 0.19771534 0.90700006 1.6306715e-38
0.1534254 0.20031242 0.91900003 1.7136119e-38
0.16082369 0.20334464 0.93300003 1.7413429e-38
0.17175078 0.2105166 0.96600002 1.5292929e-38
0.17863736 0.21245724 0.97500002 1.8980031e-38
0.18580891 0.21461515 0.98500007 1.7319424e-38
0.020261751 0.21482052 1.0090001 1.7144025e-38
0.025582168 0.21332663 1.0020001 1.0590215e-38
0.030887937 0.21225776 0.99700004 9.6689818e-39
0.036102418 0.2109752 0.99100006 9.2090799e-39
0.039701551 0.20181517 0.94800007 9.8544367e-39
0.044156805 0.19861549 0.93300003 9.9462652e-39
0.048764747 0.19669251 0.92400002 1.0774595e-38
0.05327408 0.19476895 0.91500002 9.7618837e-39
0.057684746 0.19284484 0.90600002 8.7491807e-39
0.062065847 0.19113302 0.89800006 7.3669679e-39
0.06673193 0.19048488 0.89500004 4.3263212e-39
0.070964575 0.18877202 0.88700002 3.9593464e-39
0.075109333 0.18705872 0.87900007 3.9589835e-39
0.079529747 0.18619618 0.87500006 5.3404732e-39
0.084098451 0.1857587 0.87300003 6.0776753e-39
0.088746272 0.18553348 0.87200004 6.9981854e-39
0.093167871 0.18488221 0.86900002 7.9190613e-39
0.097893842 0.18486869 0.86900002 8.8402974e-39
0.10297308 0.18549283 0.87200004 8.4722351e-39
0.10771337 0.18547826 0.87200004 6.9981854e-39
0.11258157 0.18567589 0.87300003 9.3048754e-39
0.11786278 0.18651104 0.87700003 8.3843597e-39
0.12346598 0.18777087 0.88300002 8.9378866e-39
0.12927854 0.18924275 0.89000005 9.4903401e-39
0.13486461 0.19028871 0.89500004 1.3175307e-38
0.14065993 0.19154672 0.90100002 1.5017777e-38
0.1471654 0.19365445 0.91100007 1.5663141e-38
0.15394519 0.19597399 0.92200005 1.6308511e-38
0.16187751 0.19956799 0.93900007 1.594081e-38
0.171949 0.20549864 0.96700007 1.5112135e-38
0.040126491 0.19875336 0.95800006 9.3956263e-39
0.044352885 0.19439018 0.93700004 9.2090799e-39
0.048983298 0.19251598 0.92800003 1.0038485e-38
0.053515069 0.19064122 0.91900003 8.7484661e-39
0.058011826 0.18897332 0.91100007 7.4591664e-39
0.062559016 0.18771972 0.90500003 6.2624295e-39
0.067263857 0.18708783 0.90200007 4.3281247e-39
0.071455158 0.18521093 0.89300007 4.2366535e-39
0.07554765 0.18333356 0.88400006 3.9593464e-39
0.080086745 0.18270008 0.88100004 4.1430188e-39
0.084977701 0.18289554 0.88200003 4.2355703e-39
0.089878634 0.18309039 0.88300002 4.9727696e-39
0.094146125 0.18204063 0.87800002 6.4453788e-39
0.098921567 0.18202706 0.87800002 7.2744192e-39
0.10357789 0.18180569 0.87700003 6.6297742e-39
0.10822231 0.18158382 0.87600005 6.630849e-39
0.1133707 0.1821906 0.87900007 5.4340995e-39
0.11895384 0.18341857 0.88500005 6.2645805e-39
0.12460107 0.18464589 0.89100003 7.462402e-39
0.13045761 0.18607977 0.89800006 7.0010595e-39
0.1360876 0.18709861 0.90300006 1.1148787e-38
0.14192681 0.18832402 0.90900004 1.4189447e-38
0.14847624 0.19037752 0.91900003 1.4096176e-38
0.15513298 0.19243027 0.92900002 1.5018853e-38
0.040928535 0.19739975 0.97700006 8.6595046e-39
0.044880364 0.191534 0.94800007 8.9328573e-39
0.049518596 0.18950653 0.93800002 8.8406617e-39
0.054105502 0.18768053 0.92900002 7.9187054e-39
0.058721054 0.18625797 0.92200005 7.7357533e-39
0.063536204 0.18564288 0.91900003 6.8141613e-39
0.068094179 0.1844212 0.91300005 4.5121558e-39
0.072746083 0.18360296 0.90900004 4.1444579e-39
0.077182643 0.1823802 0.90300006 3.7749551e-39
0.081371143 0.18075302 0.89500004 3.9593464e-39
0.086242557 0.18074104 0.89500004 3.9593464e-39
0.091113016 0.18072848 0.89500004 4.4199602e-39
0.095446274 0.17970574 0.89000005 5.3419165e-39
0.10017485 0.17949021 0.88900006 5.7107004e-39
0.10512774 0.17967793 0.89000005 4.9727795e-39
0.11033756 0.18026888 0.89300007 4.5121558e-39
0.11519189 0.18025367 0.89300007 4.6972632e-39
0.12071724 0.18124716 0.89800006 5.2504369e-39
0.12671535 0.18284546 0.90600002 4.881653e-39
0.13192746 0.18323229 0.90800005 6.5397268e-39
0.13821512 0.18503106 0.91700006 8.8435301e-39
0.14366238 0.18561855 0.92000002 1.1700517e-38
0.15011047 0.18741602 0.92900002 1.2529923e-38
0.15749002 0.1902214 0.94300002 1.2716481e-38
0.041814558 0.19623145 0.99800003 9.399592e-39
0.045928773 0.1907195 0.97000003 8.010901e-39
0.050423581 0.18776311 0.95500004 7.7343141e-39
0.055162024 0.18618244 0.94700003 7.7343169e-39
0.059748907 0.1844046 0.93800002 7.8272286e-39
0.064651884 0.1838057 0.93500006 7.5510061e-39
0.069372229 0.18281306 0.93000007 5.3397557e-39
0.074037291 0.18181986 0.92500007 4.0508232e-39
0.078732505 0.18102264 0.92100006 3.221424e-39
0.08329232 0.18002835 0.91600007 3.7745978e-39
0.08808589 0.17962314 0.91400003 4.4196057e-39
0.09306033 0.1796104 0.91400003 4.6043529e-39
0.098033763 0.17959712 0.91400003 4.4199616e-39
0.10255533 0.17879733 0.91000003 4.327766e-39
0.10750484 0.178783 0.91000003 4.3281289e-39
0.11220608 0.17837524 0.90800005 4.5125202e-39
0.11727145 0.17855634 0.90900004 4.3281261e-39
0.12342212 0.18030825 0.91800004 3.9593422e-39
0.12924972 0.18147019 0.92400002 5.5259434e-39
0.13485067 0.18223874 0.92800003 5.7088927e-39
0.14034307 0.18281035 0.93100005 9.5796659e-39
0.14602295 0.18357781 0.93500006 1.0132119e-38
0.15271458 0.18552268 0.94500005 1.0686013e-38
0.15951344 0.18746682 0.95500004 1.2071832e-38
0.041946489 0.19139184 1.001 9.1226478e-39
0.046740636 0.18870856 0.98700005 8.565158e-39
0.051117517 0.18506874 0.96800005 8.1963769e-39
0.055927474 0.18353143 0.96000004 7.6424828e-39
0.06064954 0.18199356 0.95200002 7.9187138e-39
0.065422006 0.18083745 0.94600004 7.0893189e-39
0.070277505 0.18006305 0.94200003 6.813811e-39
0.075088568 0.17928806 0.93800002 5.3408431e-39
0.079855196 0.17851251 0.93400002 4.7883966e-39
0.084577315 0.17773645 0.93000007 5.8951001e-39
0.089544058 0.17753313 0.92900002 5.525233e-39
0.09449891 0.17732927 0.92800003 6.446469e-39
0.099227272 0.17674269 0.92500007 7.3684253e-39
0.10426003 0.17672881 0.92500007 7.0003644e-39
0.10952797 0.17709647 0.92700005 6.9070898e-39
0.11444573 0.17689048 0.92600006 6.354995e-39
0.12012558 0.17783006 0.93100005 6.0784067e-39
0.12585859 0.17876899 0.93600005 5.5259434e-39
0.13150479 0.17951633 0.94000006 6.6315693e-39
0.13704783 0.1800721 0.94300002 7.7361176e-39
0.14262216 0.18062735 0.94600004 9.6715056e-39
0.14854011 0.18156391 0.95100003 9.302723e-39
0.15531915 0.18345444 0.96100003 9.7637026e-39
0.041785005 0.18521729 0.99700004 1.3090657e-38
0.046747476 0.18335316 0.98700005 9.2101631e-39
0.051758748 0.18204564 0.98000002 8.657355e-39
0.056401718 0.17980875 0.96800005 7.6432031e-39
0.061040599 0.17794283 0.95800006 7.7343225e-39
0.065500557 0.17589064 0.94700003 7.550297e-39
0.07006368 0.17439517 0.93900007 7.0914811e-39
0.075019151 0.17401348 0.93700004 6.631226e-39
0.079951949 0.17363121 0.93500006 5.8943812e-39
0.085043907 0.17361973 0.93500006 6.0776865e-39
0.08984568 0.17305058 0.93200004 6.7223356e-39
0.094613746 0.17248093 0.92900002 6.4461117e-39
0.099240787 0.17172512 0.92500007 7.0914839e-39
0.10483775 0.17263959 0.93000007 7.2758723e-39
0.11048795 0.17355336 0.93500006 7.1829564e-39
0.11582054 0.17390965 0.93700004 7.3673505e-39
0.1210446 0.17407978 0.93800002 7.1829564e-39
0.12600933 0.17387825 0.93700004 8.0127087e-39
0.13124172 0.1740474 0.93800002 8.0127059e-39
0.13735576 0.17532927 0.94500005 8.3811367e-39
0.14369534 0.17679599 0.95300007 9.9480939e-39
0.15012042 0.17826203 0.96100003 1.0778206e-38
0.15663104 0.17972739 0.96900004 1.4190891e-38
0.041958719 0.18052694 1.001 1.5212231e-38
0.046564735 0.17727442 0.98300004 8.933572e-39
0.051713359 0.17654607 0.97900003 8.3811227e-39
0.056642879 0.17527604 0.97200006 8.657355e-39
0.061304189 0.17346451 0.96200007 8.2885725e-39
0.065579005 0.17093119 0.94800007 8.2878621e-39
0.069998913 0.16911866 0.93800002 8.4736953e-39
0.07478942 0.16838743 0.93400002 6.3546419e-39
0.079706475 0.16801618 0.93200004 6.9996428e-39
0.084691755 0.16782464 0.93100005 6.7216154e-39
0.089568719 0.16745226 0.92900002 6.7219811e-39
0.094422854 0.16707933 0.92700005 6.4468347e-39
0.09936142 0.16688611 0.92600006 7.1844026e-39
0.10451347 0.16705279 0.92700005 7.4609895e-39
0.11002977 0.16775948 0.93100005 6.9078129e-39
0.11546477 0.16828537 0.93400002 7.0914839e-39
0.12028584 0.16790983 0.93200004 7.8279629e-39
0.1254874 0.16807434 0.93300003 8.0116311e-39
0.13111831 0.16877873 0.93700004 8.1963769e-39
0.13766359 0.17056321 0.94700003 9.671151e-39
0.14431618 0.17234692 0.95700002 1.1884202e-38
0.15076353 0.17376971 0.96500003 1.4096896e-38
0.15664971 0.1744716 0.96900004 1.5296529e-38
0.042300086 0.17649089 1.0090001 1.659265e-38
0.046618722 0.17211176 0.98400003 8.8424526e-39
0.051509354 0.17053071 0.97500002 9.025769e-39
0.056476012 0.16947375 0.96900004 8.4729624e-39
0.061503977 0.16876598 0.96500003 8.2885725e-39
0.065795697 0.16630881 0.95100003 8.4722421e-39
0.070157878 0.16437583 0.94000006 8.196021e-39
0.074959889 0.16366644 0.93600005 7.3669848e-39
0.07954631 0.16260684 0.93000007 7.2755094e-39
0.084339321 0.16207123 0.92700005 6.6305029e-39
0.089387923 0.16205959 0.92700005 6.355009e-39
0.094333589 0.16187257 0.92600006 6.4475648e-39
0.099481896 0.16203457 0.92700005 6.4472033e-39
0.10452718 0.16202123 0.92700005 6.7230671e-39
0.10968946 0.16218214 0.92800003 7.5524648e-39
0.11498506 0.16251726 0.93000007 8.289304e-39
0.12017207 0.16267708 0.93100005 8.6577236e-39
0.12563768 0.16318583 0.93400002 9.1187017e-39
0.13155445 0.16421816 0.94000006 1.0500203e-38
0.13797127 0.16577388 0.94900006 1.1883846e-38
0.14448448 0.16732888 0.95800006 1.3266782e-38
0.15031277 0.16800991 0.96200007 1.6124845e-38
0.15634477 0.16886505 0.96700007 1.6218116e-38
0.042515654 0.17185748 1.0140001 1.6870336e-38
0.046625227 0.16676684 0.98400003 9.2097987e-39
0.051357999 0.16472638 0.97200006 9.2090799e-39
0.056483824 0.16421057 0.96900004 8.1041799e-39
0.061831161 0.16437192 0.97000003 7.6432031e-39
0.066358276 0.16249925 0.95900005 8.9332203e-39
0.070540667 0.16011779 0.94500005 8.2882166e-39
0.075290412 0.15926082 0.94000006 7.1825907e-39
0.079984732 0.15840335 0.93500006 7.183311e-39
0.084532566 0.15737598 0.92900002 6.8145312e-39
0.089399762 0.15702571 0.92700005 7.8294147e-39
0.0942441 0.15667494 0.92500007 6.8149082e-39
0.099387527 0.15683177 0.92600006 7.1840452e-39
0.10431512 0.15664932 0.92500007 7.8290489e-39
0.10958526 0.15697439 0.92700005 8.104561e-39
0.11487594 0.15729891 0.92900002 8.1971084e-39
0.12031619 0.15779218 0.93200004 7.8283286e-39
0.12646043 0.15913135 0.94000006 9.2116176e-39
0.1326903 0.16046979 0.94800007 1.0501991e-38
0.13871492 0.16146901 0.95400006 1.3267137e-38
0.14450167 0.16212918 0.95800006 1.4281288e-38
0.15001789 0.16245034 0.96000004 1.5295439e-38
0.15668628 0.16395549 0.96900004 1.6586899e-38
0.042269886 0.16536318 1.008 1.6502976e-38
0.046584222 0.16125594 0.98300004 9.0254075e-39
0.05131216 0.15928084 0.97100008 8.5644307e-39
0.056608096 0.15927358 0.97100008 8.6573536e-39
0.061839517 0.15910159 0.97000003 8.3807667e-39
0.066782415 0.15827291 0.96500003 7.5510075e-39
0.071222 0.15645966 0.95400006 7.7350442e-39
0.075540736 0.15464599 0.94300002 7.7364875e-39
0.079995282 0.15332389 0.93500006 7.367705e-39
0.084725648 0.15265726 0.93100005 6.9989225e-39
0.089507841 0.15215409 0.92800003 8.0127199e-39
0.094358161 0.1518144 0.92600006 7.183325e-39
0.099614918 0.15212995 0.92800003 8.1985545e-39
0.10444112 0.15178923 0.92600006 7.4613524e-39
0.10983548 0.15226759 0.92900002 8.2900271e-39
0.11550856 0.15307313 0.93400002 8.5658937e-39
0.12084742 0.15338644 0.93600005 1.0133217e-38
0.127014 0.15468238 0.94400007 1.0317965e-38
0.13354614 0.15630528 0.95400006 1.1331751e-38
0.13945848 0.15710831 0.95900005 1.3174939e-38
0.14497116 0.15741932 0.96100003 1.3451528e-38
0.15050408 0.15772989 0.96300006 1.437313e-38
0.15686585 0.15885891 0.97000003 1.6402154e-38
0.042065881 0.1590908 1.003 1.7147622e-38
0.046590477 0.15591265 0.98300004 8.5654999e-39
0.051424719 0.15432012 0.97300005 8.5640748e-39
0.056615628 0.15399578 0.97100008 8.7488304e-39
0.061720192 0.15351224 0.96800005 7.4588118e-39
0.066929646 0.15334524 0.96700007 7.91979e-39
0.071753986 0.15238477 0.96100003 7.182948e-39
0.075871043 0.15015535 0.94700003 7.7357673e-39
0.080262333 0.14871834 0.93800002 8.1045498e-39
0.085009575 0.14807363 0.93400002 7.3666274e-39
0.089519255 0.1471114 0.92800003 8.1038407e-39
0.094471991 0.14694132 0.92700005 8.2882306e-39
0.099520043 0.14692923 0.92700005 8.4736981e-39
0.1045669 0.14691664 0.92700005 8.1045596e-39
0.10996724 0.14737895 0.93000007 9.3027385e-39
0.11564633 0.14815763 0.93500006 9.8559122e-39
0.12176586 0.14941095 0.94300002 9.671521e-39
0.12770195 0.15034679 0.94900006 1.133176e-38
0.13398188 0.15159878 0.95700002 1.1700177e-38
0.13976558 0.15221652 0.96100003 1.2529216e-38
0.14483695 0.15204185 0.96000004 1.3819248e-38
0.15067746 0.15265863 0.96400005 1.4925949e-38
0.15672164 0.15343325 0.96900004 1.6034094e-38
0.042365037 0.15470895 1.01 1.7148345e-38
0.0467388 0.15102698 0.98600006 8.9332006e-39
0.05164288 0.14964211 0.97700006 9.4856668e-39
0.056622997 0.14871615 0.97100008 8.1956566e-39
0.061664417 0.14809595 0.96700007 8.8417463e-39
0.06686905 0.14793459 0.96600002 8.1970972e-39
0.07168851 0.14700696 0.96000004 8.1049043e-39
0.076281339 0.14577259 0.95200002 8.1978202e-39
0.080529228 0.14407848 0.94100004 8.0123542e-39
0.084929228 0.14284329 0.93300003 8.1963909e-39
0.089626893 0.14222011 0.92900002 8.5648189e-39
0.094687521 0.14220878 0.92900002 8.1038407e-39
0.099639632 0.14204389 0.92800003 8.4726219e-39
0.10480525 0.1421846 0.92900002 9.1183472e-39
0.10998049 0.14232481 0.93000007 9.4864066e-39
0.11553641 0.14292355 0.93400002 1.0685304e-38
0.12165111 0.14413378 0.94200003 1.0778223e-38
0.12785143 0.14534329 0.95000005 1.1424313e-38
0.13427737 0.14670512 0.95900005 1.2714694e-38
0.13949062 0.14668959 0.95900005 1.317603e-38
0.14485323 0.14682661 0.96000004 1.3820679e-38
0.15053786 0.1472691 0.96300006 1.54802e-38
0.15690057 0.14832278 0.97000003 1.5388725e-38
0.042160735 0.14847623 1.005 1.6134193e-38
0.046792198 0.14581138 0.98700005 9.9444827e-39
0.05164947 0.14432786 0.97700006 8.9328573e-39
0.056688514 0.14358243 0.97200006 8.6566348e-39
0.061672226 0.14283645 0.96700007 7.8272384e-39
0.066739008 0.14238532 0.96400005 8.196021e-39
0.071772166 0.14193363 0.96100003 7.4584559e-39
0.076370969 0.140743 0.95300007 7.9212333e-39
0.080624759 0.13910891 0.94200003 8.1049043e-39
0.084939666 0.13776983 0.93300003 8.1034708e-39
0.089734294 0.1373163 0.93000007 7.3666302e-39
0.094902851 0.13745289 0.93100005 8.1038393e-39
0.099866338 0.13729367 0.93000007 9.0265173e-39
0.10493053 0.1372816 0.93000007 9.7633607e-39
0.11022998 0.13756424 0.93200004 1.0500559e-38
0.11592103 0.13828914 0.93700004 1.2252274e-38
0.1220526 0.13945615 0.94500005 1.2345546e-38
0.12826982 0.1406225 0.95300007 1.1424313e-38
0.13415249 0.14134553 0.95800006 1.400507e-38
0.13906975 0.14103533 0.95600003 1.3543013e-38
0.14471829 0.14146236 0.95900005 1.3543369e-38
0.15071057 0.14218393 0.96400005 1.538728e-38
0.15659384 0.14275749 0.96800005 1.5756784e-38
0.04241775 0.14386128 1.011 1.6595171e-38
0.046940289 0.14086762 0.99000007 9.5785827e-39
0.051603027 0.13886952 0.97600007 8.7481017e-39
0.056695543 0.13829377 0.97200006 8.6566264e-39
0.061488479 0.13714837 0.96400005 8.1963769e-39
0.066747203 0.13714059 0.96400005 8.1963769e-39
0.071855627 0.13684769 0.96200007 7.7350428e-39
0.076620676 0.1359853 0.95600003 7.8265336e-39
0.080805682 0.13426904 0.94400007 7.8268839e-39
0.085131928 0.13297914 0.93500006 7.7336275e-39
0.089937963 0.13254219 0.93200004 8.4718988e-39
0.095117934 0.13267359 0.93300003 8.4733323e-39
0.099878013 0.13223571 0.93000007 9.119422e-39
0.10494269 0.13222395 0.93000007 1.0409083e-38
0.1104792 0.13278036 0.93400002 1.0777144e-38
0.11618166 0.13347837 0.93900007 1.1331397e-38
0.12206633 0.13431795 0.94500005 1.3359701e-38
0.12814948 0.13529901 0.95200002 1.3543013e-38
0.1340272 0.13599525 0.95700002 1.4004347e-38
0.13908486 0.1358384 0.95600003 1.3451173e-38
0.14443199 0.13596538 0.95700002 1.3912151e-38
0.15072654 0.13694431 0.96400005 1.4926658e-38
0.15709558 0.13792266 0.97100008 1.4834462e-38
0.038947549 0.14602686 1.067 1.6595883e-38
0.042632733 0.13904235 1.016 1.5300464e-38
0.04689857 0.13534202 0.98900002 9.8533591e-39
0.051556397 0.13342032 0.97500002 9.0246886e-39
0.056527369 0.13259284 0.96900004 8.3811227e-39
0.06155964 0.13203852 0.96500003 8.1041813e-39
0.066755168 0.13189413 0.96400005 8.565158e-39
0.071714744 0.13133875 0.96000004 8.3804024e-39
0.076629721 0.13078286 0.95600003 8.1041813e-39
0.081071988 0.12954254 0.94700003 7.7346883e-39
0.085415021 0.12830186 0.93800002 8.2875075e-39
0.090044871 0.12760796 0.93300003 8.3807794e-39
0.094924927 0.12732391 0.93100005 9.3956516e-39
0.099781968 0.12703943 0.92900002 9.1190647e-39
0.10518023 0.12743823 0.93200004 1.0040658e-38
0.11060985 0.12783647 0.93500006 1.1239921e-38
0.11644199 0.12864432 0.94100004 1.2069325e-38
0.12246726 0.12958829 0.94800007 1.280617e-38
0.12843262 0.13039494 0.95400006 1.38196e-38
0.13404155 0.13079102 0.95700002 1.3358256e-38
0.1393906 0.13091332 0.95800006 1.3543369e-38
0.14505084 0.1313085 0.96100003 1.4003991e-38
0.15121122 0.1321131 0.96700007 1.5295084e-38
0.15759699 0.13305379 0.97400004 1.5848614e-38
0.16539504 0.13508663 0.98900002 1.760429e-38
0.027222015 0.13983025 1.064 1.696036e-38
0.032628976 0.1381183 1.051 1.5304433e-38
0.037856985 0.1362744 1.0370001 8.840991e-39
0.042973511 0.13456134 1.024 1.0592002e-38
0.046951529 0.13008833 0.99000007 9.9455547e-39
0.051773995 0.12863721 0.97900003 9.3001993e-39
0.056767359 0.12784261 0.97300005 8.8406701e-39
0.061758224 0.12717885 0.96800005 8.2882166e-39
0.066901423 0.12690873 0.96600002 8.4729638e-39
0.07194715 0.1265067 0.96300006 7.827593e-39
0.076798841 0.12584148 0.95800006 8.1041813e-39
0.081252463 0.1246504 0.94900006 8.5644489e-39
0.085788973 0.12372165 0.94200003 8.3800577e-39
0.090248033 0.12279256 0.93500006 8.1034708e-39
0.095139444 0.12251969 0.93300003 9.6707965e-39
0.10022267 0.12250901 0.93300003 1.0316534e-38
0.10564322 0.12289176 0.93600005 1.1514725e-38
0.11097679 0.12314272 0.93800002 1.1239211e-38
0.11670204 0.12378697 0.94300002 1.2068607e-38
0.12260949 0.12456195 0.94900006 1.2990561e-38
0.12885004 0.12559883 0.95700002 1.4925947e-38
0.13433568 0.12584773 0.95900005 1.3266781e-38
0.13955046 0.12583376 0.95900005 1.3451173e-38
0.14551845 0.12647544 0.96400005 1.3543013e-38
0.15153918 0.12711662 0.96900004 1.4465325e-38
0.15825987 0.12828198 0.97800004 1.5847539e-38
0.17076322 0.13390593 1.021 1.7230474e-38
0.18096896 0.13743001 1.0480001 7.3568996e-39
0.1866571 0.13741273 1.0480001 8.2777755e-39
0.19197635 0.13713294 1.046 8.2770524e-39
0.0039098328 0.13177384 1.046 1.5668535e-38
0.0096054189 0.13152111 1.044 4.7797506e-39
0.015381652 0.13214958 1.049 4.0454366e-39
0.021252533 0.13302931 1.056 3.7699259e-39
0.027046051 0.13315256 1.057 3.6773743e-39
0.03226015 0.13088171 1.039 1.2808235e-38
0.037824824 0.13049984 1.036 7.7314176e-39
0.042978436 0.12898371 1.024 1.0128857e-38
0.047051761 0.12494799 0.99200004 9.8533451e-39
0.051885668 0.12355695 0.98100007 9.3923921e-39
0.057065543 0.12317302 0.97800004 8.9325028e-39
0.061701383 0.12178107 0.96700007 8.1963755e-39
0.066770397 0.12139615 0.96400005 8.5651594e-39
0.072104625 0.12151442 0.96500003 8.1963769e-39
0.077047884 0.12100259 0.96100003 7.7361218e-39
0.0815183 0.11986078 0.95200002 8.0123542e-39
0.086435936 0.11947399 0.94900006 8.1034722e-39
0.090740502 0.11833147 0.94000006 7.9190809e-39
0.095353693 0.11769217 0.93500006 9.9466645e-39
0.1005557 0.11780766 0.93600005 1.1883137e-38
0.10599308 0.11817441 0.93900007 1.1423602e-38
0.11134344 0.1184148 0.94100004 1.1239211e-38
0.11696173 0.11890636 0.94500005 1.2712901e-38
0.12275136 0.11952324 0.95000005 1.3266427e-38
0.12886322 0.12039118 0.95700002 1.4465324e-38
0.13406904 0.12037805 0.95700002 1.3912872e-38
0.13956439 0.12061611 0.95900005 1.4096187e-38
0.14538182 0.12110527 0.96300006 1.38196e-38
0.15171032 0.1219712 0.97000003 1.4925947e-38
0.15827505 0.12296235 0.97800004 1.6584394e-38
0.16960853 0.12747291 1.0140001 1.7415211e-38
0.18012238 0.13110219 1.0430001 1.2432687e-38
0.18667427 0.1317139 1.0480001 5.9757756e-39
0.19162662 0.1311942 1.044 6.0668923e-39
0.1965338 0.13067445 1.0400001 6.8033713e-39
0.20100701 0.12990335 1.034 9.6563813e-39
-0.0017888882 0.12498929 1.0370001 4.511067e-39
0.0038728884 0.12486864 1.036 5.1496107e-39
0.0095788911 0.12547055 1.041 4.1372693e-39
0.015398041 0.12655392 1.0500001 3.4929845e-39
0.021234784 0.12715456 1.0550001 3.4929845e-39
0.026793167 0.12618771 1.0470001 1.2162511e-38
0.031860065 0.12365355 1.026 1.308266e-38
0.037427377 0.12352924 1.0250001 8.1009078e-39
0.042941228 0.12328383 1.023 1.0405447e-38
0.047104392 0.11966364 0.99300003 9.0250291e-39
0.051891387 0.11821222 0.98100007 9.0236236e-39
0.056838375 0.11736286 0.97400004 8.7484759e-39
0.061771926 0.11663354 0.96800005 8.3804136e-39
0.066846922 0.1162652 0.96500003 8.0112752e-39
0.071962968 0.11601686 0.96300006 8.5655279e-39
0.076975979 0.11564758 0.96000004 8.7495619e-39
0.13972339 0.11551736 0.96000004 1.3450817e-38
0.14554667 0.11598521 0.96400005 1.38196e-38
0.15188102 0.11681352 0.97100008 1.5202534e-38
0.15828978 0.11764134 0.97800004 1.6677299e-38
0.16845311 0.12111464 1.0070001 1.7689293e-38
0.17823881 0.12410577 1.0320001 1.4005336e-38
0.18597831 0.1255327 1.044 8.6554969e-39
0.1923777 0.12599722 1.0480001 5.2396567e-39
0.19655076 0.12501885 1.0400001 6.3434792e-39
0.20024639 0.12380017 1.0300001 7.7228039e-39
0.20463109 0.12306231 1.024 1.0577982e-38
-0.0074264258 0.11887586 1.033 6.1637514e-39
-0.0017718292 0.11818588 1.0270001 5.8850149e-39
0.003854614 0.11864609 1.031 4.7811981e-39
0.0095891301 0.11991125 1.0420001 3.0341671e-39
0.015355704 0.1204853 1.0470001 4.5060518e-39
0.020975387 0.119908 1.0420001 1.2437302e-38
0.026412154 0.11875475 1.0320001 1.3359244e-38
0.031708207 0.1174859 1.021 1.2990464e-38
0.037139237 0.11702201 1.0170001 7.7328358e-39
0.042693943 0.11701784 1.0170001 9.7600746e-39
0.1760089 0.11699802 1.0190001 1.2528816e-38
0.18332195 0.11813082 1.029 2.2211455e-38
0.19165966 0.11983705 1.044 3.4908251e-39
0.19713417 0.11970626 1.0430001 5.0559886e-39
0.20104048 0.11865723 1.034 6.2505633e-39
0.20424786 0.11726412 1.0220001 7.8149995e-39
0.20876025 0.1166743 1.0170001 1.1498137e-38
