# .PCD v0.7 - Point Cloud Data file format
VERSION 0.7
FIELDS x y z rgb
SIZE 4 4 4 4
TYPE F F F F
COUNT 1 1 1 1
WIDTH 289
HEIGHT 1
VIEWPOINT 0 0 0 1 0 0 0
POINTS 289
DATA ascii
0.079022966 0.33991793 1.146 1.1612681e-38
0.088517651 0.34049365 1.148 1.3454797e-38
0.094718531 0.32950097 1.1110001 1.4650819e-38
0.10171595 0.3229565 1.0890001 1.7226899e-38
0.11068895 0.32323185 1.09 1.1145222e-38
0.060246006 0.33009654 1.1440001 1.3269687e-38
0.069513738 0.32979381 1.143 1.511144e-38
0.079177737 0.33122033 1.148 1.4464985e-38
0.087610781 0.32774031 1.136 1.6861351e-38
0.093544327 0.31646988 1.097 8.7384188e-39
0.10192352 0.31471869 1.0910001 1.7134702e-38
0.11091426 0.31498539 1.092 8.4693891e-39
0.12255272 0.32217291 1.1170001 1.1331408e-38
0.135893 0.33253044 1.153 8.5712999e-39
0.051239375 0.32281199 1.151 1.6036279e-38
0.060206708 0.32055581 1.143 1.7783685e-38
0.069164053 0.31885871 1.1370001 5.9844399e-39
0.078091204 0.3174403 1.1320001 8.5641084e-39
0.085932568 0.31237489 1.1140001 1.5014924e-38
0.092625953 0.30450445 1.0860001 1.1142356e-38
0.10101037 0.30308199 1.0810001 1.4365963e-38
0.10961631 0.30249923 1.079 1.1050146e-38
0.12104104 0.30920374 1.103 9.3038245e-39
0.13368 0.31786799 1.1340001 9.3974634e-39
0.14430133 0.32092384 1.1450001 1.1427569e-38
0.051028401 0.31213039 1.146 1.8616323e-38
0.059746131 0.30884945 1.1340001 1.4095862e-38
0.068631932 0.30720085 1.128 1.5847577e-38
0.076590486 0.30228251 1.11 1.5385513e-38
0.083482385 0.29463983 1.082 1.5291159e-38
0.091707543 0.29271457 1.075 1.7133996e-38
0.10019069 0.29187694 1.072 1.5292234e-38
0.10862312 0.29103795 1.069 1.4278797e-38
0.11821212 0.29319218 1.077 8.840331e-39
0.13016969 0.30051661 1.1040001 8.7510164e-39
0.14294319 0.30865502 1.1340001 1.2533197e-38
0.0417962 0.30365142 1.149 1.778692e-38
0.050772946 0.30126223 1.1400001 1.6955001e-38
0.058969334 0.29570007 1.1190001 1.7876237e-38
0.067186922 0.29172194 1.1040001 1.8151379e-38
0.074537203 0.28536424 1.08 1.4370993e-38
0.083423749 0.28561074 1.0810001 1.7691121e-38
0.090874359 0.28136417 1.0650001 1.1147028e-38
0.098623149 0.27870163 1.0550001 1.2345208e-38
0.10762987 0.27973601 1.059 1.2713991e-38
0.11691941 0.28129703 1.0650001 7.368082e-39
0.12713015 0.28470516 1.0780001 8.7517283e-39
0.13818093 0.28943175 1.0960001 9.5825708e-39
0.15153588 0.29811701 1.1290001 1.3643144e-38
0.041151062 0.28972983 1.131 1.7601089e-38
0.049715612 0.28587672 1.1160001 1.8982583e-38
0.058139592 0.28253409 1.103 1.9442841e-38
0.066106632 0.27816534 1.0860001 1.5017082e-38
0.074899271 0.27789301 1.085 1.1699839e-38
0.081512697 0.270448 1.056 1.1886042e-38
0.089699626 0.26914835 1.051 1.059566e-38
0.098083667 0.26861545 1.049 7.2748144e-39
0.10673814 0.26884922 1.0500001 1.1054112e-38
0.1148578 0.26780131 1.046 7.5539124e-39
0.12491537 0.27110428 1.059 6.1727758e-39
0.13631748 0.27670905 1.0810001 7.7386582e-39
0.14780709 0.2817995 1.1010001 1.4469305e-38
0.040978786 0.27932093 1.126 1.9536477e-38
0.049326222 0.27459717 1.107 1.9166974e-38
0.057573162 0.27086392 1.092 1.925773e-38
0.065756544 0.26787317 1.08 1.7507099e-38
0.073397338 0.26364076 1.0630001 8.5666476e-39
0.081453905 0.26163906 1.0550001 1.1335033e-38
0.090061113 0.26161981 1.0550001 8.7513906e-39
0.098292306 0.26060697 1.051 9.1194472e-39
0.10676128 0.26033658 1.0500001 1.1054832e-38
0.1152118 0.26006469 1.049 7.6457521e-39
0.12387972 0.26028726 1.0500001 5.0675114e-39
0.13495806 0.2652179 1.0700001 7.1865704e-39
0.14622556 0.26989844 1.0890001 1.2993455e-38
0.032130133 0.27307686 1.138 1.8704556e-38
0.040879253 0.26946884 1.123 1.8982583e-38
0.049070392 0.26417938 1.1010001 1.9444283e-38
0.057270169 0.26056784 1.0860001 1.9166976e-38
0.065345459 0.25743458 1.0730001 1.5111454e-38
0.073483206 0.25525934 1.064 1.2070802e-38
0.081781268 0.25404215 1.059 9.7662656e-39
0.090166666 0.25330311 1.056 1.0687496e-38
0.098781757 0.2532821 1.056 1.040911e-38
0.10759814 0.25373912 1.0580001 8.9357762e-39
0.11578577 0.25275564 1.054 7.276971e-39
0.12508589 0.25416878 1.0600001 4.6054585e-39
0.13397673 0.25462124 1.062 5.4355765e-39
0.14518073 0.2591477 1.0810001 1.1978942e-38
0.1565492 0.26343232 1.0990001 1.4100522e-38
0.031996544 0.26268366 1.133 1.9441763e-38
0.040415563 0.2573427 1.11 1.9351731e-38
0.048769847 0.25362286 1.0940001 2.0182214e-38
0.057125274 0.2510604 1.0830001 1.8614891e-38
0.06542147 0.24895987 1.074 1.8338304e-38
0.073845431 0.24778485 1.069 1.3637404e-38
0.082031548 0.24614467 1.062 1.2623252e-38
0.090357691 0.24519819 1.0580001 1.5296566e-38
0.09880361 0.24471363 1.056 1.5664982e-38
0.10731645 0.24445929 1.0550001 1.3635957e-38
0.11636002 0.24536189 1.059 9.1187241e-39
0.12570246 0.2467262 1.0650001 7.276971e-39
0.13501395 0.24785717 1.0700001 6.1709779e-39
0.14467295 0.24944988 1.077 1.1702716e-38
0.15572548 0.25312525 1.0930001 1.4377832e-38
0.031947602 0.25303823 1.131 1.8612006e-38
0.040279388 0.2474366 1.1060001 1.9076224e-38
0.048692062 0.24429414 1.092 1.9075866e-38
0.057191301 0.2424922 1.0840001 1.9258097e-38
0.065558404 0.24068846 1.0760001 1.7137597e-38
0.073931396 0.23933043 1.0700001 1.6587304e-38
0.082359143 0.23841809 1.0660001 1.7233037e-38
0.09037789 0.23660949 1.0580001 1.6035214e-38
0.099199764 0.23703575 1.0600001 1.4928501e-38
0.10784854 0.2370131 1.0600001 1.2622525e-38
0.11671469 0.23743607 1.062 1.0225795e-38
0.12608314 0.23875166 1.0680001 8.2893306e-39
0.1359254 0.24073614 1.077 9.0258083e-39
0.14523977 0.24160138 1.0810001 1.0871884e-38
0.1560415 0.24469988 1.095 1.548419e-38
0.023372488 0.25097331 1.164 1.8153544e-38
0.032209378 0.24579221 1.1400001 1.8336139e-38
0.040288787 0.23845319 1.1060001 1.7785485e-38
0.048881769 0.23628694 1.0960001 1.8706363e-38
0.057468355 0.2347656 1.0890001 1.833614e-38
0.06587813 0.23302691 1.0810001 1.815319e-38
0.074224621 0.23150207 1.074 1.8984754e-38
0.082532197 0.2301912 1.0680001 1.741887e-38
0.090739749 0.22887875 1.062 1.6312522e-38
0.099127948 0.22821133 1.059 1.4376048e-38
0.1078719 0.22840433 1.0600001 1.3267895e-38
0.11684953 0.22902665 1.0630001 9.5804254e-39
0.12622769 0.23029365 1.069 9.5797023e-39
0.13595344 0.23198977 1.077 1.0408743e-38
0.14594112 0.23389958 1.0860001 1.0963004e-38
0.15607247 0.23580764 1.095 1.4931017e-38
0.0044799508 0.24919729 1.2010001 1.4101966e-38
0.014098268 0.24566779 1.184 1.2793952e-38
0.02347835 0.24255113 1.169 1.9904541e-38
0.032245111 0.23673512 1.141 1.8336859e-38
0.040698893 0.2317473 1.1170001 1.6863528e-38
0.049116056 0.2284175 1.1010001 1.7691491e-38
0.057587046 0.22633077 1.0910001 1.8890755e-38
0.066136889 0.22507209 1.085 1.9445732e-38
0.074310429 0.22298199 1.075 1.8248629e-38
0.08262787 0.22172002 1.069 1.7603261e-38
0.090930656 0.22066391 1.064 1.6957172e-38
0.099243149 0.21981367 1.0600001 1.4283497e-38
0.10809866 0.22020613 1.062 1.1333226e-38
0.11698422 0.22059691 1.064 1.0226871e-38
0.12637211 0.22181538 1.0700001 9.8577325e-39
0.13648637 0.22406857 1.0810001 1.1331786e-38
0.14650811 0.22590534 1.09 9.9488534e-39
0.15752885 0.22898379 1.105 1.410018e-38
0.17361341 0.23869057 1.1520001 1.4010856e-38
0.004428749 0.23664056 1.187 1.8690869e-38
0.014113423 0.2362397 1.1850001 2.0081371e-38
0.023182413 0.23005539 1.154 2.0364077e-38
0.032252498 0.22745751 1.141 1.9351367e-38
0.040926844 0.22386096 1.123 1.8339021e-38
0.049484167 0.22106004 1.1090001 1.7324872e-38
0.057969607 0.21885537 1.098 1.7694016e-38
0.066151701 0.21625042 1.085 2.0091101e-38
0.074396081 0.21444117 1.0760001 1.8985475e-38
0.082568735 0.21282963 1.0680001 1.7879848e-38
0.090779491 0.21161518 1.062 1.7602541e-38
0.099170849 0.21099702 1.059 1.4376048e-38
0.10791799 0.21117428 1.0600001 1.1425418e-38
0.11722866 0.21234596 1.0660001 9.6740559e-39
0.12663443 0.21351591 1.072 1.1886397e-38
0.13714546 0.21627742 1.0860001 1.3545921e-38
0.14774725 0.21883778 1.0990001 1.1058081e-38
0.15969843 0.22298896 1.12 1.4101257e-38
0.17515394 0.23131831 1.1620001 1.1425058e-38
0.0043961662 0.22526237 1.1780001 1.3533326e-38
0.013890278 0.22296561 1.166 1.8236749e-38
0.023107281 0.21990193 1.1500001 2.0265035e-38
0.032514226 0.21989572 1.1500001 1.9995292e-38
0.04093603 0.21472485 1.123 1.8615968e-38
0.049584482 0.21242039 1.1110001 1.8247909e-38
0.057929661 0.20973182 1.097 1.8340826e-38
0.06628824 0.20780639 1.087 1.9354978e-38
0.074481502 0.20587942 1.077 1.9540447e-38
0.082818605 0.20471554 1.0710001 1.8525938e-38
0.090798944 0.20297676 1.062 1.7509625e-38
0.099191867 0.20238334 1.059 1.58501e-38
0.10834789 0.20331718 1.064 1.1332865e-38
0.11736283 0.20386715 1.067 1.0411261e-38
0.12736909 0.20594391 1.0780001 1.1241027e-38
0.13793072 0.20859179 1.092 1.4007265e-38
0.14938983 0.21219268 1.1110001 1.198148e-38
0.16158321 0.2163642 1.133 1.4560793e-38
0.1733779 0.21957871 1.1500001 1.5109279e-38
0.013821871 0.21237558 1.1600001 1.6117324e-38
0.023494259 0.21401922 1.169 8.3793528e-39
0.032860767 0.21273153 1.1620001 1.455287e-38
0.040872123 0.20521757 1.1210001 1.9353173e-38
0.049461424 0.20282795 1.108 1.9353536e-38
0.05804792 0.20116886 1.0990001 1.9170587e-38
0.066546559 0.19969115 1.0910001 1.907839e-38
0.074566655 0.19729675 1.0780001 1.8710329e-38
0.082681514 0.19563301 1.069 1.8801804e-38
0.090732537 0.19415089 1.0610001 1.6587669e-38
0.099399887 0.19413121 1.0610001 1.4190575e-38
0.10806459 0.19410998 1.0610001 1.1239947e-38
0.11738663 0.19518484 1.067 1.0688209e-38
0.12774907 0.19772129 1.0810001 1.1333946e-38
0.13821052 0.20007281 1.0940001 1.382539e-38
0.14982216 0.20370243 1.1140001 1.3364412e-38
0.16332558 0.20934092 1.1450001 1.124103e-38
0.17552117 0.21278295 1.164 1.0124596e-38
0.023459148 0.20414826 1.1670001 8.2932865e-39
0.032698151 0.20221798 1.156 1.7784041e-38
0.040953856 0.1964376 1.123 1.8431577e-38
0.049338069 0.1932795 1.105 1.9262062e-38
0.058060288 0.19221874 1.0990001 1.9539369e-38
0.066499628 0.19063158 1.09 1.9171307e-38
0.07465148 0.18869315 1.079 1.9172027e-38
0.08246664 0.18640365 1.0660001 1.889472e-38
0.091093354 0.18621105 1.0650001 1.6311802e-38
0.099232696 0.18514276 1.059 1.3822153e-38
0.10829008 0.18582131 1.0630001 1.0687493e-38
0.11740992 0.18649821 1.067 1.1794201e-38
0.12801044 0.18927075 1.0830001 1.1888562e-38
0.13861619 0.19169173 1.097 1.2165148e-38
0.15025407 0.19515911 1.1170001 1.3088545e-38
0.032195792 0.18979572 1.138 1.7233391e-38
0.040889498 0.18695295 1.1210001 1.8708521e-38
0.049259055 0.18394181 1.103 1.907839e-38
0.05791381 0.18276349 1.0960001 1.954009e-38
0.066452317 0.18158354 1.0890001 1.9171307e-38
0.074597552 0.17973514 1.0780001 1.8525938e-38
0.08240597 0.17755198 1.0650001 1.8618136e-38
0.091026083 0.17736802 1.064 1.7326674e-38
0.099158689 0.17634918 1.0580001 1.345337e-38
0.10820943 0.17699569 1.062 1.0411262e-38
0.11776283 0.17830718 1.0700001 1.1978948e-38
0.12862597 0.18128321 1.0880001 1.2442813e-38
0.13838948 0.18242453 1.095 1.170273e-38
0.14947459 0.18506345 1.1110001 1.3733552e-38
0.030985588 0.17369623 1.095 1.7602174e-38
0.040642444 0.17670289 1.1140001 1.8524852e-38
0.049001027 0.17399743 1.097 1.926386e-38
0.057502668 0.1725594 1.0880001 1.8711049e-38
0.066343546 0.17238854 1.087 1.8249354e-38
0.074404724 0.1704717 1.075 1.8893644e-38
0.082499593 0.1690293 1.0660001 1.8894367e-38
0.090616003 0.16790269 1.059 1.8708533e-38
0.099271536 0.16788454 1.059 1.2806198e-38
0.10823005 0.16834053 1.062 1.1423972e-38
0.11756483 0.16927052 1.0680001 1.1886397e-38
0.12853159 0.17225905 1.087 1.336297e-38
0.13816194 0.17318563 1.0930001 1.1335019e-38
0.14923231 0.17569503 1.1090001 1.2627922e-38
0.040358525 0.16641171 1.1060001 1.9170221e-38
0.048831929 0.16444713 1.0930001 1.9263503e-38
0.057408158 0.16338378 1.0860001 1.9263506e-38
0.06605117 0.16277023 1.082 1.9447897e-38
0.074142128 0.16110222 1.0710001 1.9078758e-38
0.082360499 0.16003461 1.064 1.9632288e-38
0.090889856 0.15971766 1.062 1.9539014e-38
0.099196337 0.1590986 1.0580001 1.2344499e-38
0.10814811 0.15953079 1.0610001 1.1054832e-38
0.11769634 0.16071323 1.069 1.1425774e-38
0.12796336 0.16264568 1.082 1.2809432e-38
0.13768069 0.16367461 1.0890001 1.2256255e-38
0.14777783 0.16500254 1.098 1.30889e-38
0.04025669 0.15695786 1.103 1.9539724e-38
0.048796467 0.15538433 1.092 1.9355698e-38
0.057366069 0.1543785 1.085 1.889472e-38
0.065941386 0.15365578 1.08 1.9633008e-38
0.074155867 0.15236263 1.0710001 1.9080558e-38
0.082298204 0.15121043 1.0630001 1.9540457e-38
0.090563998 0.15048374 1.0580001 1.8707812e-38
0.099214189 0.1504669 1.0580001 1.2528535e-38
0.10806539 0.15073313 1.0600001 1.216118e-38
0.11771702 0.15199329 1.069 1.1702361e-38
0.12727584 0.15296754 1.0760001 1.3086736e-38
0.13770419 0.15479319 1.0890001 1.1149906e-38
0.14780265 0.15604866 1.098 1.2995261e-38
0.031796064 0.1506401 1.123 1.5393793e-38
0.040081505 0.14728023 1.098 2.0000346e-38
0.048626542 0.14593104 1.0880001 1.9908872e-38
0.057217766 0.14511693 1.082 1.9079832e-38
0.065708935 0.14430144 1.0760001 1.9725204e-38
0.12717871 0.14405328 1.075 1.2071864e-38
0.13734737 0.14550583 1.0860001 1.1333577e-38
0.14769189 0.14695685 1.097 1.2810149e-38
0.023063829 0.14436704 1.146 1.4473624e-38
